{"total": 20351, "offset": 0, "next": 10, "data": [{"paperId": "3774d898363464976216ecf8d02ab90a249d0bad", "externalIds": {"DBLP": "journals/access/MatsumuraP22", "DOI": "10.1109/ACCESS.2022.3178154", "CorpusId": 249109110}, "title": "Deep-Learning-Based Stair Detection Using 3D Point Cloud Data for Preventing Walking Accidents of the Visually Impaired", "venue": "IEEE Access", "year": 2022, "citationCount": 30, "openAccessPdf": {"url": "https://ieeexplore.ieee.org/ielx7/6287639/6514899/09782312.pdf", "status": "GOLD", "license": "CCBY", "disclaimer": "Notice: Paper or abstract available at https://api.unpaywall.org/v2/10.1109/ACCESS.2022.3178154?email=<INSERT_YOUR_EMAIL> or https://doi.org/10.1109/ACCESS.2022.3178154, which is subject to the license by the author or copyright owner provided with this content. Please go to the source to verify the license and copyright information for your use."}, "publicationTypes": ["JournalArticle"], "authors": [{"authorId": "2035369464", "name": "Haruka Matsumura"}, {"authorId": "48316357", "name": "C. Premachandra"}], "abstract": "Visually impaired individuals worldwide are at a risk of accidents while walking. In particular, falling from a raised place, such as stairs, can lead to serious injury. Therefore, we attempted to determine the best accident prevention method that can notify visually impaired individuals of the existence, height, and step information when they approach stairs. In this study, we have investigated stair detection through deep learning. First, the three-dimensional point cloud data generated from depth information are learned by deep learning. Stairs were detected using the results of deep learning. To apply the point cloud data for deep learning-based training, we proposed preprocessing stages to reduce the weight of the point cloud data. The accuracy of stair detection was 97.3%, which is the best performance compared to other conventional methods. Therefore, we confirmed the effectiveness of the proposed method."}, {"paperId": "03a94e0cea9c0a449df4fbfd7f35cb497563172b", "externalIds": {"MAG": "2945035828", "CorpusId": 182054644}, "title": "Detection of Space Connectivity from Point Cloud for Stair Reconstruction", "venue": "", "year": 2019, "citationCount": 4, "openAccessPdf": {"url": "", "status": null, "license": null, "disclaimer": "Notice: The following paper fields have been elided by the publisher: {'abstract'}. Paper or abstract available at https://easychair.org/publications/preprint_open/f3Pz, which is subject to the license by the author or copyright owner provided with this content. Please go to the source to verify the license and copyright information for your use."}, "publicationTypes": null, "authors": [{"authorId": "2158027981", "name": "Fan Yang"}, {"authorId": "46992454", "name": "Yifan Liang"}, {"authorId": "2108467644", "name": "Dalin Li"}, {"authorId": "152343380", "name": "Fei Su"}, {"authorId": "47297580", "name": "Haihong Zhu"}, {"authorId": "32318680", "name": "Xinkai Zuo"}, {"authorId": "144457305", "name": "Lin Li"}], "abstract": null}, {"paperId": "396f9d2c4769b7277b0b8b9d07d1d0a8d1209550", "externalIds": {"MAG": "2371658453", "CorpusId": 123977075}, "title": "Stair detection and parameter estimation using 3D point cloud", "venue": "", "year": 2013, "citationCount": 0, "openAccessPdf": {"url": "", "status": null, "license": null}, "publicationTypes": null, "authors": [{"authorId": "1409830243", "name": "Zhuang Yan"}], "abstract": null}, {"paperId": "89b3996358ef1862eaa5cf4453dc6def9d670895", "externalIds": {"DBLP": "conf/dsa/XiaoMQXW23", "DOI": "10.1109/dsa59317.2023.00091", "CorpusId": 265215978}, "title": "BIR-AHC: Balanced Iterative Reducing and Agglomerative Hierarchical Clustering for Stair Detection", "venue": "International Conferences on Dependable Systems and Their Applications", "year": 2023, "citationCount": 0, "openAccessPdf": {"url": "", "status": "CLOSED", "license": null, "disclaimer": "Notice: Paper or abstract available at https://api.unpaywall.org/v2/10.1109/dsa59317.2023.00091?email=<INSERT_YOUR_EMAIL> or https://doi.org/10.1109/dsa59317.2023.00091, which is subject to the license by the author or copyright owner provided with this content. Please go to the source to verify the license and copyright information for your use."}, "publicationTypes": ["JournalArticle", "Conference"], "authors": [{"authorId": "98506052", "name": "Chuansheng Xiao"}, {"authorId": "2266772127", "name": "Nan Ma"}, {"authorId": "2182516806", "name": "Kongjian Qin"}, {"authorId": "2213741039", "name": "Genbao Xu"}, {"authorId": "2213816230", "name": "Mohan Wang"}], "abstract": "Recently, stair environment perception has attracted considerable attention in humanoid robots. In complex stair environments, there are some problems, such as incomplete stairs, obstacle occlusion, and unequal stair heights, resulting in relatively low accuracy in constructing stairs. To solve this problem, we propose a balanced iterative reduction and cohesive hierarchical clustering method for stair environment perception, which consists of two main parts: a point cloud preprocessing module and a stair modeling module. Specifically, given a fixed resolution point cloud, we first preprocess and initially cluster the data using a hierarchy-based balanced iterative reduction and clustering algorithm to reduce point cloud noise and establish contextual links between point clouds. Then, we construct the graph between points and calculate the mean square error between individual points on this basis to efficiently construct the stair plane and effectively improve the accuracy of the 3D model of the stair. To evaluate the effectiveness and efficiency of the algorithm, we conduct experiments on RGB-D sensor datasets collected from different scenes, and the experimental results show that the proposed algorithm has a more satisfactory performance in terms of modeling accuracy and computation time for the stair environment."}, {"paperId": "d977f355cefc9b10ab88eebe32709abd9a87254e", "externalIds": {"DOI": "10.1109/JAC-ECC54461.2021.9691423", "CorpusId": 246532117}, "title": "Autonomous Detection of Stair Dimensions for the Motion Planning of Stair Climbing Robots", "venue": "2021 9th International Japan-Africa Conference on Electronics, Communications, and Computations (JAC-ECC)", "year": 2021, "citationCount": 1, "openAccessPdf": {"url": "", "status": null, "license": null, "disclaimer": "Notice: Paper or abstract available at https://api.unpaywall.org/v2/10.1109/JAC-ECC54461.2021.9691423?email=<INSERT_YOUR_EMAIL> or https://doi.org/10.1109/JAC-ECC54461.2021.9691423, which is subject to the license by the author or copyright owner provided with this content. Please go to the source to verify the license and copyright information for your use."}, "publicationTypes": ["Conference"], "authors": [{"authorId": "2292603520", "name": "Y. Ashraf"}, {"authorId": "144380297", "name": "Ahmed Abdallah"}, {"authorId": "2007798369", "name": "Abdelhaleem Osman"}, {"authorId": "2152641035", "name": "Ezz El-Din Nehad"}, {"authorId": "9356997", "name": "M. Fanni"}], "abstract": "The need for service robots to help humans in daily tasks is increasing globally. Whether in an indoor or outdoor environment, service robots need to plan their motion to climb stairs autonomously. So, in this paper, we propose a new approach using a depth camera to determine the features of stairs which are required as an input to autonomous motion planning for stair climbing robots. The proposed approach uses a pinhole camera model to compute the point cloud of the perceived environment. After that, determining the normal vector of the points in the point cloud helps to organize the data into two clusters: horizontal and vertical. For each of the two clusters, the Euclidean distance algorithm is used to generate a class for each step of the stairs. Finally, the Maximum Likelihood Estimation Sample Consensus (MLESAC) algorithm is used to fit a plane on each class. Thus, the dimensions of the stairs are determined accurately by subtracting two subsequent plane equations from each other."}, {"paperId": "4ea6a96cc16855778d99ca1bf7d459b3be1fea2f", "externalIds": {"DOI": "10.23919/ICCAS63016.2024.10773216", "CorpusId": 274623245}, "title": "Accurate Stair Measurement Method for Autonomous Robot Navigation using RGB-D Camera", "venue": "International Conference on Control, Automation and Systems", "year": 2024, "citationCount": 0, "openAccessPdf": {"url": "", "status": null, "license": null, "disclaimer": "Notice: Paper or abstract available at https://api.unpaywall.org/v2/10.23919/ICCAS63016.2024.10773216?email=<INSERT_YOUR_EMAIL> or https://doi.org/10.23919/ICCAS63016.2024.10773216, which is subject to the license by the author or copyright owner provided with this content. Please go to the source to verify the license and copyright information for your use."}, "publicationTypes": ["Conference"], "authors": [{"authorId": "2152461487", "name": "Nabih Pico"}, {"authorId": "116809115", "name": "D. Soriano"}, {"authorId": "1831205564", "name": "Eugene Auh"}, {"authorId": "2101563432", "name": "W. Velasquez"}, {"authorId": "2292629292", "name": "Jiyou Shin"}, {"authorId": "2279601496", "name": "Hyungpil Moon"}], "abstract": "This paper presents a method for accurately measuring and validating stair dimensions, which are crucial for autonomous robot navigation. The method utilizes an RGB-D camera to capture point cloud data and the Point Cloud Library (PCL) to process and validate stair dimensions within the ROS framework. The system identifies the horizontal plane (tread) and vertical plane (riser) through normal estimation and plane segmentation by the region growing technique. Dimensions such as width, height, and length are calculated from these planes, with accuracy ensured through iterative refinement. The observed dimensions are validated, ensuring that all measurements fit within the expected stair range. The approach demonstrates an average detection accuracy of 97.4% for climbing up stairs and 94.49% for climbing down stairs, making it valuable for the perception system in autonomous mobile robots ascending and descending tasks."}, {"paperId": "27e483c1a3dd5385a5bce531342c69c4c813737d", "externalIds": {"MAG": "2037616276", "DBLP": "conf/icarcv/SinhaPM14", "DOI": "10.1109/ICARCV.2014.7064381", "CorpusId": 14508949}, "title": "A staircase detection method for 3D point clouds", "venue": "International Conference on Control, Automation, Robotics and Vision", "year": 2014, "citationCount": 14, "openAccessPdf": {"url": "", "status": "CLOSED", "license": null, "disclaimer": "Notice: The following paper fields have been elided by the publisher: {'abstract'}. Paper or abstract available at https://api.unpaywall.org/v2/10.1109/ICARCV.2014.7064381?email=<INSERT_YOUR_EMAIL> or https://doi.org/10.1109/ICARCV.2014.7064381, which is subject to the license by the author or copyright owner provided with this content. Please go to the source to verify the license and copyright information for your use."}, "publicationTypes": ["JournalArticle", "Conference"], "authors": [{"authorId": "2079872776", "name": "A. Sinha"}, {"authorId": "144386400", "name": "Panagiotis Papadakis"}, {"authorId": "2057667802", "name": "R. Mohan"}], "abstract": null}, {"paperId": "51086b289cb64c1ee4d0f7d13ed20b0ac5c1cbf5", "externalIds": {"DBLP": "journals/ojcs/KuwabaraKKF25", "DOI": "10.1109/OJCOMS.2025.3594545", "CorpusId": 280429941}, "title": "JSCC-Aided INR for High-Frequency Detail Preservation in LiDAR", "venue": "IEEE Open Journal of the Communications Society", "year": 2025, "citationCount": 2, "openAccessPdf": {"url": "", "status": null, "license": null, "disclaimer": "Notice: Paper or abstract available at https://api.unpaywall.org/v2/10.1109/OJCOMS.2025.3594545?email=<INSERT_YOUR_EMAIL> or https://doi.org/10.1109/OJCOMS.2025.3594545, which is subject to the license by the author or copyright owner provided with this content. Please go to the source to verify the license and copyright information for your use."}, "publicationTypes": ["JournalArticle"], "authors": [{"authorId": "2288596512", "name": "Akihiro Kuwabara"}, {"authorId": "1943624989", "name": "Sorachi Kato"}, {"authorId": "2288976115", "name": "T. Koike-Akino"}, {"authorId": "2454231", "name": "T. Fujihashi"}], "abstract": "Light Detection and Ranging (LiDAR) sensors generate accurate 3D representations of real-world environments, which are essential for applications of 3D scene understanding. However, the substantial volume of LiDAR data poses significant challenges for efficient compression and transmission. Implicit neural representation (INR) has gained attention for its compact data representation, but its capacity to accurately represent high-frequency details is insufficient when using small models. In this paper, we propose a novel joint source-channel coding (JSCC) scheme that integrates INR with analog residual transmission for high-quality and efficient point cloud transmission. This scheme is designed to compensate for the limited high-frequency representation of INRs by transmitting the unmodeled details as residuals via pseudo-analog modulation. This integrated approach enables continuous reconstruction quality adaptation to varying wireless channel conditions and effectively mitigates the stair-case effect inherent in conventional digital schemes. Evaluations on the KITTI dataset demonstrate that the proposed scheme outperforms conventional and INR-based compression methods in terms of R-D performance and detection quality at low bitrates."}, {"paperId": "9243e69c377aeec51bca2d1e0ccc6db75414c644", "externalIds": {"MAG": "2566759406", "DBLP": "conf/iros/WestfechtelOMNK16", "DOI": "10.1109/IROS.2016.7759096", "CorpusId": 961166}, "title": "3D graph based stairway detection and localization for mobile robots", "venue": "IEEE/RJS International Conference on Intelligent RObots and Systems", "year": 2016, "citationCount": 27, "openAccessPdf": {"url": "", "status": "CLOSED", "license": null, "disclaimer": "Notice: The following paper fields have been elided by the publisher: {'abstract'}. Paper or abstract available at https://api.unpaywall.org/v2/10.1109/IROS.2016.7759096?email=<INSERT_YOUR_EMAIL> or https://doi.org/10.1109/IROS.2016.7759096, which is subject to the license by the author or copyright owner provided with this content. Please go to the source to verify the license and copyright information for your use."}, "publicationTypes": ["JournalArticle", "Conference"], "authors": [{"authorId": "3399462", "name": "Thomas Westfechtel"}, {"authorId": "1792701", "name": "K. Ohno"}, {"authorId": "9210928", "name": "B. Mertsching"}, {"authorId": "7312201", "name": "Daniel Nickchen"}, {"authorId": "143951722", "name": "Shotaro Kojima"}, {"authorId": "1794952", "name": "S. Tadokoro"}], "abstract": null}, {"paperId": "03e48482ad930a146115330fb9b986ce1314c529", "externalIds": {"DBLP": "conf/iros/ChanSML17", "MAG": "2772096257", "DOI": "10.1109/IROS.2017.8206485", "CorpusId": 37700196}, "title": "Efficient stairway detection and modeling for autonomous robot climbing", "venue": "IEEE/RJS International Conference on Intelligent RObots and Systems", "year": 2017, "citationCount": 5, "openAccessPdf": {"url": "", "status": "CLOSED", "license": null, "disclaimer": "Notice: The following paper fields have been elided by the publisher: {'abstract'}. Paper or abstract available at https://api.unpaywall.org/v2/10.1109/IROS.2017.8206485?email=<INSERT_YOUR_EMAIL> or https://doi.org/10.1109/IROS.2017.8206485, which is subject to the license by the author or copyright owner provided with this content. Please go to the source to verify the license and copyright information for your use."}, "publicationTypes": ["JournalArticle", "Conference"], "authors": [{"authorId": "2111734872", "name": "Derek S. Chan"}, {"authorId": "32791356", "name": "R. Silva"}, {"authorId": "145804631", "name": "J. Monteiro"}, {"authorId": "1699115", "name": "F. Lizarralde"}], "abstract": null}]}
