{"total": 334, "offset": 0, "next": 10, "data": [{"paperId": "8bce37404b7e40922dc625f63a63b3e56f41bcea", "externalIds": {"DBLP": "journals/remotesensing/LiuWWW24a", "DOI": "10.3390/rs16244718", "CorpusId": 274849701}, "title": "An Environment Recognition Algorithm for Staircase Climbing Robots", "venue": "Remote Sensing", "year": 2024, "citationCount": 2, "openAccessPdf": {"url": "https://doi.org/10.3390/rs16244718", "status": "GOLD", "license": "CCBY", "disclaimer": "Notice: Paper or abstract available at https://api.unpaywall.org/v2/10.3390/rs16244718?email=<INSERT_YOUR_EMAIL> or https://doi.org/10.3390/rs16244718, which is subject to the license by the author or copyright owner provided with this content. Please go to the source to verify the license and copyright information for your use."}, "publicationTypes": ["JournalArticle"], "authors": [{"authorId": "2136368253", "name": "Yanjie Liu"}, {"authorId": "2112599703", "name": "Yanlong Wei"}, {"authorId": "2266023812", "name": "Chao Wang"}, {"authorId": "2193639270", "name": "Heng Wu"}], "abstract": "For deformed wheel-based staircase-climbing robots, the accuracy of staircase step geometry perception and scene mapping are critical factors in determining whether the robot can successfully ascend the stairs and continue its task. Currently, while there are LiDAR-based algorithms that focus either on step geometry detection or scene mapping, few comprehensive algorithms exist that address both step geometry perception and scene mapping for staircases. Moreover, significant errors in step geometry estimation and low mapping accuracy can hinder the ability of deformed wheel-based mobile robots to climb stairs, negatively impacting the efficiency and success rate of task execution. To solve the above problems, we propose an effective LiDAR-Inertial-based point cloud detection method for staircases. Firstly, we preprocess the staircase point cloud, mainly using the Statistical Outlier Removal algorithm to effectively remove the outliers in the staircase scene and combine the vertical angular resolution and spatial geometric relationship of LiDAR to realize the ground segmentation in the staircase scene. Then, we perform post-processing based on the point cloud map obtained from LiDAR SLAM, extract the staircase point cloud and project and fit the staircase point cloud by Ceres optimizer, and solve the dimensional information such as depth and height of the staircase by combining with the mean filtering method. Finally, we fully validate the effectiveness of the method proposed in this paper by conducting multiple sets of SLAM and size detection experiments in real different staircase scenarios."}, {"paperId": "822438ecb3d74e898972a7a1f0e4167de1a083ef", "externalIds": {"DBLP": "journals/corr/abs-2510-12346", "ArXiv": "2510.12346", "DOI": "10.48550/arXiv.2510.12346", "CorpusId": 282064379}, "title": "PolygMap: A Perceptive Locomotion Framework for Humanoid Robot Stair Climbing", "venue": "arXiv.org", "year": 2025, "citationCount": 0, "openAccessPdf": {"url": "", "status": null, "license": null, "disclaimer": "Notice: Paper or abstract available at https://arxiv.org/abs/2510.12346, which is subject to the license by the author or copyright owner provided with this content. Please go to the source to verify the license and copyright information for your use."}, "publicationTypes": ["JournalArticle"], "authors": [{"authorId": "2312045606", "name": "Bingquan Li"}, {"authorId": "2332921751", "name": "Ning Wang"}, {"authorId": "2385577092", "name": "Tianwei Zhang"}, {"authorId": "2385846921", "name": "Zhicheng He"}, {"authorId": "2108010061", "name": "Yu-Ching Wu"}], "abstract": "Recently, biped robot walking technology has been significantly developed, mainly in the context of a bland walking scheme. To emulate human walking, robots need to step on the positions they see in unknown spaces accurately. In this paper, we present PolyMap, a perception-based locomotion planning framework for humanoid robots to climb stairs. Our core idea is to build a real-time polygonal staircase plane semantic map, followed by a footstep planar using these polygonal plane segments. These plane segmentation and visual odometry are done by multi-sensor fusion(LiDAR, RGB-D camera and IMUs). The proposed framework is deployed on a NVIDIA Orin, which performs 20-30 Hz whole-body motion planning output. Both indoor and outdoor real-scene experiments indicate that our method is efficient and robust for humanoid robot stair climbing."}, {"paperId": "74dce73e7158b05960a0a9e674c52d2372119a7e", "externalIds": {"DOI": "10.1088/2631-8695/adf27b", "CorpusId": 280289912}, "title": "Local perception-based autonomous stair climbing method for quadruped robots", "venue": "Engineering Research Express", "year": 2025, "citationCount": 0, "openAccessPdf": {"url": "", "status": null, "license": null, "disclaimer": "Notice: Paper or abstract available at https://api.unpaywall.org/v2/10.1088/2631-8695/adf27b?email=<INSERT_YOUR_EMAIL> or https://doi.org/10.1088/2631-8695/adf27b, which is subject to the license by the author or copyright owner provided with this content. Please go to the source to verify the license and copyright information for your use."}, "publicationTypes": ["JournalArticle"], "authors": [{"authorId": "2201985180", "name": "Han Jiang"}, {"authorId": "2276021960", "name": "Dayu Liu"}, {"authorId": "2110575036", "name": "Teng Chen"}, {"authorId": "3388877", "name": "Guoteng Zhang"}, {"authorId": "2316760695", "name": "Xuewen Rong"}, {"authorId": "29275442", "name": "Yibin Li"}], "abstract": "Combining motion control and external perception to achieve stable stair climbing is a major research focus in robotics. This paper introduces an autonomous stair climbing method based on local environment perception, enabling quadruped robot to robustly traverse staircase without relying on global map. The method utilizes a novel perception platform to express real-time local information of staircase through rapid plane segmentation and feature transformation. Additionally, the motion planning uses the perception result to pre-calculate reliable foothold and orientation based on the relative position of the robot and the staircase. Furthermore, motion control combines robot dynamics and constraints to optimize system input for accurate tracking of desired trajectories, achieving safe and robust traversal behavior. Simulation and hardware platform experiments validate that this method enables the SDUQuad-48 quadruped robot to successfully tackle staircase with height of up to 16 cm, exceeding 50% of its leg length."}, {"paperId": "268f7a2090bcb813694e2a44a989ff0214e5135f", "externalIds": {"MAG": "3111208580", "DBLP": "journals/jirs/LeKMSRBH21", "DOI": "10.1007/s10846-020-01281-2", "CorpusId": 229326491}, "title": "Autonomous Floor and Staircase Cleaning Framework by Reconfigurable sTetro Robot with Perception Sensors", "venue": "Journal of Intelligent and Robotic Systems", "year": 2020, "citationCount": 28, "openAccessPdf": {"url": "", "status": null, "license": null, "disclaimer": "Notice: The following paper fields have been elided by the publisher: {'abstract'}. Paper or abstract available at https://api.unpaywall.org/v2/10.1007/s10846-020-01281-2?email=<INSERT_YOUR_EMAIL> or https://doi.org/10.1007/s10846-020-01281-2, which is subject to the license by the author or copyright owner provided with this content. Please go to the source to verify the license and copyright information for your use."}, "publicationTypes": ["JournalArticle"], "authors": [{"authorId": "40483038", "name": "Anh Vu Le"}, {"authorId": "2008300601", "name": "Phone Thiha Kyaw"}, {"authorId": "1779417", "name": "R. E. Mohan"}, {"authorId": "2039248094", "name": "Sai Htet Moe Swe"}, {"authorId": "2039247676", "name": "Ashiwin Rajendran"}, {"authorId": "1819188842", "name": "K. Boopathi"}, {"authorId": "2321271107", "name": "N. Nhan"}], "abstract": null}, {"paperId": "c2ff922c4436e05fa06d889da87418290908b61f", "externalIds": {"PubMedCentral": "8473228", "DBLP": "journals/sensors/RamalingamMBEGP21", "DOI": "10.3390/s21186279", "CorpusId": 237949446, "PubMed": "34577486"}, "title": "sTetro-Deep Learning Powered Staircase Cleaning and Maintenance Reconfigurable Robot", "venue": "Italian National Conference on Sensors", "year": 2021, "citationCount": 22, "openAccessPdf": {"url": "https://www.mdpi.com/1424-8220/21/18/6279/pdf?version=1632367583", "status": "GOLD", "license": "CCBY", "disclaimer": "Notice: Paper or abstract available at https://pmc.ncbi.nlm.nih.gov/articles/PMC8473228, which is subject to the license by the author or copyright owner provided with this content. Please go to the source to verify the license and copyright information for your use."}, "publicationTypes": ["JournalArticle"], "authors": [{"authorId": "5337420", "name": "B. Ramalingam"}, {"authorId": "1779417", "name": "R. E. Mohan"}, {"authorId": "2124768934", "name": "S. Balakrishnan"}, {"authorId": "46919032", "name": "K. Elangovan"}, {"authorId": "1752586094", "name": "Braulio F\u00e9lix G\u00f3mez"}, {"authorId": "8686137", "name": "T. Pathmakumar"}, {"authorId": "51232248", "name": "Manojkumar Devarassu"}, {"authorId": "2120979935", "name": "M. Rayaguru"}, {"authorId": "143634127", "name": "C. Baskar"}], "abstract": "Staircase cleaning is a crucial and time-consuming task for maintenance of multistory apartments and commercial buildings. There are many commercially available autonomous cleaning robots in the market for building maintenance, but few of them are designed for staircase cleaning. A key challenge for automating staircase cleaning robots involves the design of Environmental Perception Systems (EPS), which assist the robot in determining and navigating staircases. This system also recognizes obstacles and debris for safe navigation and efficient cleaning while climbing the staircase. This work proposes an operational framework leveraging the vision based EPS for the modular re-configurable maintenance robot, called sTetro. The proposed system uses an SSD MobileNet real-time object detection model to recognize staircases, obstacles and debris. Furthermore, the model filters out false detection of staircases by fusion of depth information through the use of a MobileNet and SVM. The system uses a contour detection algorithm to localize the first step of the staircase and depth clustering scheme for obstacle and debris localization. The framework has been deployed on the sTetro robot using the Jetson Nano hardware from NVIDIA and tested with multistory staircases. The experimental results show that the entire framework takes an average of 310 ms to run and achieves an accuracy of 94.32% for staircase recognition tasks and 93.81% accuracy for obstacle and debris detection tasks during real operation of the robot."}, {"paperId": "466f58ec11827ca420cd7fa678c07d04adcb8c9f", "externalIds": {"MAG": "2498028206", "DOI": "10.1142/9789814415958_0049", "CorpusId": 17756343}, "title": "A QUADRUPED ROBOT WITH ON-BOARDING SENSING AND PARAMETERIZED GAIT FOR STAIR CLIMBING", "venue": "", "year": 2012, "citationCount": 0, "openAccessPdf": {"url": "http://terpconnect.umd.edu/~skgupta/Publication/CLAWAR12_Brewer_draft.pdf", "status": "GREEN", "license": null, "disclaimer": "Notice: The following paper fields have been elided by the publisher: {'abstract'}. Paper or abstract available at https://api.unpaywall.org/v2/10.1142/9789814415958_0049?email=<INSERT_YOUR_EMAIL> or https://doi.org/10.1142/9789814415958_0049, which is subject to the license by the author or copyright owner provided with this content. Please go to the source to verify the license and copyright information for your use."}, "publicationTypes": null, "authors": [{"authorId": "2074185216", "name": "T. Brewer"}, {"authorId": "3144956", "name": "Krishnanand N. Kaipa"}, {"authorId": "46414826", "name": "Satyandra K. Gupta"}], "abstract": null}, {"paperId": "cad7d080ea7aaa88b906e108cf0c92dda8ea4201", "externalIds": {"MAG": "2566646261", "DBLP": "journals/jfr/MarionFDVPIMADK17", "DOI": "10.1002/rob.21681", "CorpusId": 3602962}, "title": "Director: A User Interface Designed for Robot Operation with Shared Autonomy", "venue": "J. Field Robotics", "year": 2017, "citationCount": 63, "openAccessPdf": {"url": "https://ora.ox.ac.uk/objects/uuid:29b467db-4ced-4e0f-ba6b-406bb781ab81/files/m0de359cf127b9d91f24739e9e5fb8cc1", "status": "CLOSED", "license": null, "disclaimer": "Notice: The following paper fields have been elided by the publisher: {'abstract'}. Paper or abstract available at https://api.unpaywall.org/v2/10.1002/rob.21681?email=<INSERT_YOUR_EMAIL> or https://doi.org/10.1002/rob.21681, which is subject to the license by the author or copyright owner provided with this content. Please go to the source to verify the license and copyright information for your use."}, "publicationTypes": ["JournalArticle", "Review"], "authors": [{"authorId": "50361632", "name": "Pat Marion"}, {"authorId": "5665874", "name": "M. Fallon"}, {"authorId": "1797520", "name": "Robin Deits"}, {"authorId": "121225838", "name": "Andres K. Valenzuela"}, {"authorId": "1401955933", "name": "Claudia P\u00e9rez-D'Arpino"}, {"authorId": "5994089", "name": "Gregory Izatt"}, {"authorId": "2033958", "name": "Lucas Manuelli"}, {"authorId": "1809823", "name": "Matthew E. Antone"}, {"authorId": "1758275", "name": "Hongkai Dai"}, {"authorId": "2481564", "name": "T. Koolen"}, {"authorId": "2090522613", "name": "John Carter"}, {"authorId": "1794340", "name": "S. Kuindersma"}, {"authorId": "1726802", "name": "Russ Tedrake"}], "abstract": null}, {"paperId": "9db936a50045e011d9f4db00d5eb6acea1f55568", "externalIds": {"DBLP": "journals/ijhr/ZhangCN17", "MAG": "2513254308", "DOI": "10.1142/S0219843616500225", "CorpusId": 22509126}, "title": "Supervoxel Plane Segmentation and Multi-Contact Motion Generation for Humanoid Stair Climbing", "venue": "Int. J. Humanoid Robotics", "year": 2017, "citationCount": 9, "openAccessPdf": {"url": "", "status": "CLOSED", "license": null, "disclaimer": "Notice: The following paper fields have been elided by the publisher: {'abstract'}. Paper or abstract available at https://api.unpaywall.org/v2/10.1142/S0219843616500225?email=<INSERT_YOUR_EMAIL> or https://doi.org/10.1142/S0219843616500225, which is subject to the license by the author or copyright owner provided with this content. Please go to the source to verify the license and copyright information for your use."}, "publicationTypes": ["JournalArticle"], "authors": [{"authorId": "2146332291", "name": "Tianwei Zhang"}, {"authorId": "152715167", "name": "St\u00e9phane Caron"}, {"authorId": "2173160556", "name": "Yoshihiko Nakamura"}], "abstract": null}, {"paperId": "d292639a5abe2c360737d954325a282297ed87fb", "externalIds": {"DBLP": "journals/corr/abs-2501-04170", "ArXiv": "2501.04170", "DOI": "10.1109/LRA.2025.3549662", "CorpusId": 275358153}, "title": "A Bayesian Modeling Framework for Estimation and Ground Segmentation of Cluttered Staircases", "venue": "IEEE Robotics and Automation Letters", "year": 2025, "citationCount": 1, "openAccessPdf": {"url": "http://arxiv.org/pdf/2501.04170", "status": "GREEN", "license": null, "disclaimer": "Notice: Paper or abstract available at https://arxiv.org/abs/2501.04170, which is subject to the license by the author or copyright owner provided with this content. Please go to the source to verify the license and copyright information for your use."}, "publicationTypes": ["JournalArticle"], "authors": [{"authorId": "2189422893", "name": "Prasanna Sriganesh"}, {"authorId": "2149288529", "name": "Burhanuddin Shirose"}, {"authorId": "2282533579", "name": "Matthew Travers"}], "abstract": "Autonomous robot navigation in complex environments requires robust perception as well as high-level scene understanding due to perceptual challenges, such as occlusions, and uncertainty introduced by robot movement. For example, a robot climbing a cluttered staircase can misinterpret clutter as a step, misrepresenting the state and compromising safety. This requires robust state estimation methods capable of inferring the underlying structure of the environment even from incomplete sensor data. In this letter, we introduce a novel method for robust state estimation of staircases. To address the challenge of perceiving occluded staircases extending beyond the robot's field-of-view, our approach combines an infinite-width staircase representation with a finite endpoint state to capture the overall staircase structure. This representation is integrated into a Bayesian inference framework to fuse noisy measurements enabling accurate estimation of staircase location even with partial observations and occlusions. Additionally, we present a segmentation algorithm that works in conjunction with the staircase estimation pipeline to accurately identify clutter-free regions on a staircase. Our method is extensively evaluated on real robots across diverse staircases, demonstrating significant improvements in estimation accuracy and segmentation performance compared to baseline approaches."}, {"paperId": "15f2dee1e3595cbb743b55a668b069ee4267c2d2", "externalIds": {"CorpusId": 266001271}, "title": "Metadata of the chapter that will be visualized in SpringerLink", "venue": "", "year": null, "citationCount": 0, "openAccessPdf": {"url": "", "status": null, "license": null}, "publicationTypes": ["Review"], "authors": [{"authorId": "143607294", "name": "C. P\u00e9rez"}], "abstract": null}]}
