{"total": 11973, "offset": 0, "next": 10, "data": [{"paperId": "d997beefc0922d97202789d2ac307c55c2c52fba", "externalIds": {"MAG": "2950642167", "DBLP": "conf/cvpr/QiSMG17", "ArXiv": "1612.00593", "DOI": "10.1109/CVPR.2017.16", "CorpusId": 5115938}, "title": "PointNet: Deep Learning on Point Sets for 3D Classification and Segmentation", "venue": "Computer Vision and Pattern Recognition", "year": 2016, "citationCount": 17633, "openAccessPdf": {"url": "https://arxiv.org/pdf/1612.00593", "status": "GREEN", "license": null, "disclaimer": "Notice: Paper or abstract available at https://arxiv.org/abs/1612.00593, which is subject to the license by the author or copyright owner provided with this content. Please go to the source to verify the license and copyright information for your use."}, "publicationTypes": ["JournalArticle", "Conference"], "authors": [{"authorId": "144329939", "name": "C. Qi"}, {"authorId": "144914140", "name": "Hao Su"}, {"authorId": "2216377", "name": "Kaichun Mo"}, {"authorId": "51352814", "name": "L. Guibas"}], "abstract": "Point cloud is an important type of geometric data structure. Due to its irregular format, most researchers transform such data to regular 3D voxel grids or collections of images. This, however, renders data unnecessarily voluminous and causes issues. In this paper, we design a novel type of neural network that directly consumes point clouds, which well respects the permutation invariance of points in the input. Our network, named PointNet, provides a unified architecture for applications ranging from object classification, part segmentation, to scene semantic parsing. Though simple, PointNet is highly efficient and effective. Empirically, it shows strong performance on par or even better than state of the art. Theoretically, we provide analysis towards understanding of what the network has learnt and why the network is robust with respect to input perturbation and corruption."}, {"paperId": "d0367317c81afc5665cebe8fa09e1d8c568aadeb", "externalIds": {"DOI": "10.1016/j.cma.2025.117888", "CorpusId": 276944977}, "title": "Kolmogorov\u2013Arnold PointNet: Deep learning for prediction of fluid fields on irregular geometries", "venue": "Computer Methods in Applied Mechanics and Engineering", "year": 2025, "citationCount": 30, "openAccessPdf": {"url": "http://arxiv.org/pdf/2408.02950", "status": "GREEN", "license": null, "disclaimer": "Notice: Paper or abstract available at https://api.unpaywall.org/v2/10.1016/j.cma.2025.117888?email=<INSERT_YOUR_EMAIL> or https://doi.org/10.1016/j.cma.2025.117888, which is subject to the license by the author or copyright owner provided with this content. Please go to the source to verify the license and copyright information for your use."}, "publicationTypes": ["JournalArticle"], "authors": [{"authorId": "2267437739", "name": "Ali Kashefi"}], "abstract": "Kolmogorov\u2013Arnold Networks (KANs) have emerged as a promising alternative to traditional Multilayer Perceptrons (MLPs) in deep learning. KANs have already been integrated into various architectures, such as convolutional neural networks, graph neural networks, and transformers, and their potential has been assessed for predicting physical quantities. However, the combination of KANs with point-cloud-based neural networks (e.g., PointNet) for computational physics has not yet been explored. To address this, we present Kolmogorov\u2013Arnold PointNet (KA-PointNet) as a novel supervised deep learning framework for the prediction of incompressible steady-state fluid flow fields in irregular domains, where the predicted fields are a function of the geometry of the domains. In KA-PointNet, we implement shared KANs in the segmentation branch of the PointNet architecture. We utilize Jacobi polynomials to construct shared KANs. As a benchmark test case, we consider incompressible laminar steady-state flow over a cylinder, where the geometry of its cross-section varies over the data set. We investigate the performance of Jacobi polynomials with different degrees as well as special cases of Jacobi polynomials such as Legendre polynomials, Chebyshev polynomials of the first and second kinds, and Gegenbauer polynomials, in terms of the computational cost of training and accuracy of prediction of the test set. Furthermore, we examine the robustness of KA-PointNet in the presence of noisy training data and missing points in the point clouds of the test set. Additionally, we compare the performance of PointNet with shared KANs (i.e., KA-PointNet) and PointNet with shared MLPs. It is observed that when the number of trainable parameters is approximately equal, PointNet with shared KANs (i.e., KA-PointNet) outperforms PointNet with shared MLPs. Moreover, KA-PointNet predicts the pressure and velocity distributions along the surface of cylinders more accurately, resulting in more precise computations of lift and drag."}, {"paperId": "35a050a2ca57dd78c82f0428dd0ace94b3a9994f", "externalIds": {"DOI": "10.1038/s40494-025-01564-7", "CorpusId": 277030938}, "title": "Deep learning-driven semantic segmentation and spatial analysis of quarry relic landscapes using point cloud data: insights from the Shaoxing quarry relics", "venue": "npj Heritage Science", "year": 2025, "citationCount": 8, "openAccessPdf": {"url": "https://doi.org/10.1038/s40494-025-01564-7", "status": "HYBRID", "license": "CCBYNCND", "disclaimer": "Notice: Paper or abstract available at https://api.unpaywall.org/v2/10.1038/s40494-025-01564-7?email=<INSERT_YOUR_EMAIL> or https://doi.org/10.1038/s40494-025-01564-7, which is subject to the license by the author or copyright owner provided with this content. Please go to the source to verify the license and copyright information for your use."}, "publicationTypes": ["JournalArticle"], "authors": [{"authorId": "2350357365", "name": "Rui Zhang"}, {"authorId": "2289776276", "name": "Zhuoqi Zhang"}, {"authorId": "94225907", "name": "Weikang Zhang"}, {"authorId": "2112582028", "name": "Li He"}, {"authorId": "2118508286", "name": "Chao Zhu"}], "abstract": "Quarry relic landscapes hold significant historical and cultural value, yet current research often lacks the depth to understand their complex spatial structure. This study addresses this gap by utilizing 3D point cloud data and deep learning to analyze quarry relic landscapes, focusing on the Shaoxing quarry relics. In this paper, point cloud models of four quarry relic landscapes were established, as well as the performance of the PointNet\u2009+\u2009+ network in segmenting complex and variable quarry relic landscape spaces. Based on the semantic segmentation results, quantitative and clustering analyses were conducted on various landscape elements of the four quarry relics, thereby exploring the cultural value of Shaoxing quarry relic's heritage. The study demonstrates the following key findings: 1. The feasibility of combining 3D laser scanning and UAV photogrammetry to gather detailed site data for documenting quarry relic landscapes has been proven. 2. The PointNet\u2009+\u2009+ deep learning network is particularly effective for the semantic segmentation of landscape elements associated with quarry relics. 3. The Shaoxing quarry relic exhibits a composite spatial form, with a nearly equal ratio of positive to negative space (approximately 1:1). Plants and bare rocks predominantly occupy the positive space, while rocks and stone pits exhibit the highest heritage value. 4. The development of the QLIM&PMS system has facilitated the comprehensive digitalization of the quarry relic landscape, offering examples and technical support for the preservation and utilization of quarry relic sites."}, {"paperId": "4a3699a75ea8153e0db47dc22c1b898b9331bfc5", "externalIds": {"DOI": "10.1109/CCECE64018.2025.11364465", "CorpusId": 285290186}, "title": "3D Point Cloud Segmentation of LiDAR-Scanned Eucalyptus Trees: a Deep Learning Analysis", "venue": "Canadian Conference on Electrical and Computer Engineering", "year": 2025, "citationCount": 0, "openAccessPdf": {"url": "", "status": null, "license": null, "disclaimer": "Notice: Paper or abstract available at https://api.unpaywall.org/v2/10.1109/CCECE64018.2025.11364465?email=<INSERT_YOUR_EMAIL> or https://doi.org/10.1109/CCECE64018.2025.11364465, which is subject to the license by the author or copyright owner provided with this content. Please go to the source to verify the license and copyright information for your use."}, "publicationTypes": ["Conference"], "authors": [{"authorId": "2343889814", "name": "Welington G. Rodrigues"}, {"authorId": "2253920483", "name": "G. Vieira"}, {"authorId": "1500388834", "name": "A. Fonseca"}, {"authorId": "2253590707", "name": "J. F\u00e9lix"}, {"authorId": "2377581045", "name": "Deborah S. A. Fernandes"}, {"authorId": "2317108028", "name": "Fabr\u00edzzio Soares"}], "abstract": "Accurate segmentation of 3D point clouds is essential for advancing precision forestry, particularly in eucalyptus plantations, where precise tree measurements underpin resource management and yield estimation. This study evaluates some state-of-the-art deep learning architectures, including point-based, voxel-based, and attention-based models, for segmenting LiDARscanned eucalyptus trees. A dataset comprising 55 clonal eucalyptus trees was constructed using an iPhone 12 Pro Max LiDAR sensor, with diameter measurements taken at four key heights. The performance of PointNet, PointNet++, DGCNN, PointMLP, PointNeXt-S, Point Transformer, and Point Voxel Transformer (PVT) was assessed using the mean $\\mathrm{mIoU} \\%$ metric. Results indicate that transformer-based models achieved superior segmentation accuracy, while classical point-based networks demonstrated competitive performance with lower computational costs. Despite dataset limitations, the models effectively delineated key tree structures, demonstrating their applicability to forestry tasks. This research highlights the potential of deep learning in forestry point cloud analysis and suggests avenues for enhancing segmentation performance through larger datasets and advanced augmentation techniques."}, {"paperId": "2356605701f75ab8e9d48c3ed285adfd8817693e", "externalIds": {"DOI": "10.1109/ACIRA67680.2025.11334960", "CorpusId": 284922477}, "title": "Research on Point Cloud Classification and Segmentation Method Based on Deep Learning", "venue": "2025 International Conference on Advanced Computing and Intelligent Robotics Applications (ACIRA)", "year": 2025, "citationCount": 0, "openAccessPdf": {"url": "", "status": null, "license": null, "disclaimer": "Notice: Paper or abstract available at https://api.unpaywall.org/v2/10.1109/ACIRA67680.2025.11334960?email=<INSERT_YOUR_EMAIL> or https://doi.org/10.1109/ACIRA67680.2025.11334960, which is subject to the license by the author or copyright owner provided with this content. Please go to the source to verify the license and copyright information for your use."}, "publicationTypes": ["Conference"], "authors": [{"authorId": "2114111492", "name": "Zhibo Xie"}, {"authorId": "2333227199", "name": "Jingang Shi"}, {"authorId": "2145968429", "name": "Shuai Yuan"}], "abstract": "To address the inherent characteristics of point cloud data, computational efficiency, model performance and generalization in the field of deep learning point cloud classification and segmentation, a network named Point-Squeeze and Excitation with Skip Connection(It will be briefly described as Point-SESC in the subsequent chapters of this article) based on the improved PointNet++ with fused channel attention and skip connections and optimized loss function is proposed. In the encoding stage, a channel attention mechanism is introduced to enhance the network's ability to express and robustness for features of different dimensions. In the decoding stage, the classification and segmentation head is deepened and skip connections are introduced to improve the convergence speed and performance while enhancing the feature expression and regularization ability. The Loss function is optimized as the weighted sum of Focal Loss and NLL Loss, with a ratio of 3:1. This enables the model to maintain training stability while ensuring that difficult-to-distinguish samples obtain sufficient gradient update weights. The experimental results on the ModelNet40 and ShapeNet show that this network performs well in the point cloud classification and segmentation task, with OA reaching 93.5, mAcc reaching 91.3, and mIoU reaching 86.5, outperforming similar models. This network has a promising application prospect and is conducive to promoting the better optimization of deep learning point cloud technology."}, {"paperId": "126b1da4df8bf086b62b7b58fdba7266cb355341", "externalIds": {"DOI": "10.1109/ICISS66954.2025.11389223", "CorpusId": 286014623}, "title": "Fall Detection Based on Radar Sensor with Point Cloud Data using Pointnet-Based Deep Learning", "venue": "International Conferences on Information Science and System", "year": 2025, "citationCount": 0, "openAccessPdf": {"url": "", "status": null, "license": null, "disclaimer": "Notice: Paper or abstract available at https://api.unpaywall.org/v2/10.1109/ICISS66954.2025.11389223?email=<INSERT_YOUR_EMAIL> or https://doi.org/10.1109/ICISS66954.2025.11389223, which is subject to the license by the author or copyright owner provided with this content. Please go to the source to verify the license and copyright information for your use."}, "publicationTypes": ["Conference"], "authors": [{"authorId": "2216649668", "name": "Nurya Fahru Rosyidin"}, {"authorId": "2225118986", "name": "F. Suratman"}, {"authorId": "8319057", "name": "Khilda Afifah"}], "abstract": "Human Activity Recognition (HAR) is an essential study area focused on identifying activities, especially in elderly care, where fall detection is vital for preventing serious injuries. millimeter-wave radar sensors represent a non-contact and privacy-preserving alternative to traditional sensors. This study attempts to create a radar-based fall detection system that uses 3D point cloud data and a deep learning approach based on PointNet. The primary focus is to address challenges such as limited dataset size, noise, and fluctuations in the number of points at each timestamp. These challenges are addressed through a pre-processing pipeline that includes augmentation, noise cleaning (ADBSCAN), data standardization (Moving Block Bootstrap), and temporal segmentation (sliding window). Classification is performed using the PointNet architecture, which directly processes point clouds. Based on testing results, the system achieved an accuracy of 99.97 %, with 0 False Positives and 2 False Negatives. Recall was 100% for \u2018not_fall\u2019 and 99.80% for \u2018fall\u2019. This excellent performance, especially the high recall across classes and zero False Positives, demonstrates the system's reliability and significant potential for accurate, non-intrusive elderly fall detection."}, {"paperId": "9ac3a5d6c01f273ab9ca23f1471ea182b0eb5536", "externalIds": {"DOI": "10.1109/ICPICS66386.2025.11347205", "CorpusId": 285109473}, "title": "3D Point Cloud Classification and Segmentation Algorithm Based on Deep Learning", "venue": "2025 IEEE 7th International Conference on Power, Intelligent Computing and Systems (ICPICS)", "year": 2025, "citationCount": 0, "openAccessPdf": {"url": "", "status": null, "license": null, "disclaimer": "Notice: Paper or abstract available at https://api.unpaywall.org/v2/10.1109/ICPICS66386.2025.11347205?email=<INSERT_YOUR_EMAIL> or https://doi.org/10.1109/ICPICS66386.2025.11347205, which is subject to the license by the author or copyright owner provided with this content. Please go to the source to verify the license and copyright information for your use."}, "publicationTypes": ["Conference"], "authors": [{"authorId": "2268797049", "name": "Zhaowei Chen"}], "abstract": "This paper proposes a deep learning algorithm that integrates multi-scale features and attention mechanism. By constructing a hierarchical neighborhood sampling strategy (small scale captures fine geometric structure, large scale integrates global semantics), combined with local geometric descriptors, multi-dimensional feature extraction is realized; the self-attention mechanism is introduced to model the longdistance dependency relationship within the point cloud, and the channel attention mechanism strengthens the channel response of key features and effectively suppresses noise interference. In the classification experiment of the ModelNet40 dataset, the algorithm surpasses PointNet (89.2%) and PointNet++ (92.5%) with an accuracy of 94.8%, and the accuracy of distinguishing objects of similar shapes is significantly improved; the average IoU in the ShapeNet segmentation task reaches 86.5%, which is 5.3% higher than DGCNN, especially in the segmentation of complex component boundaries; the IoU in the ScanNet real scene test is $\\mathbf{7 8. 2 \\%}$, and the ability to recognize small targets in occluded environments is better than KPConv and other algorithms. Although multi-scale calculations increase the training time by $15 \\%-20 \\%$, the inference time is on par with mainstream models, which provides an efficient solution for 3D point cloud intelligent analysis while ensuring engineering practicality."}, {"paperId": "6cd7346ebb3f7a563fa4c4fd83a993e30c9bdeab", "externalIds": {"DOI": "10.1177/14759217251380769", "CorpusId": 281910733}, "title": "CAD-assisted PointNet deep learning for autonomous bolt-loosening monitoring in steel structures", "venue": "Structural Health Monitoring", "year": 2025, "citationCount": 1, "openAccessPdf": {"url": "", "status": null, "license": null, "disclaimer": "Notice: Paper or abstract available at https://api.unpaywall.org/v2/10.1177/14759217251380769?email=<INSERT_YOUR_EMAIL> or https://doi.org/10.1177/14759217251380769, which is subject to the license by the author or copyright owner provided with this content. Please go to the source to verify the license and copyright information for your use."}, "publicationTypes": ["JournalArticle"], "authors": [{"authorId": "2262126091", "name": "Ngoc-Lan Pham"}, {"authorId": "2262208236", "name": "Jeong-Tae Kim"}], "abstract": "\n This study presents a novel approach for autonomous bolt-loosening monitoring by integrating computer-aided design (CAD)-assisted PointNet deep learning and three-dimensional (3D) point cloud processing. The following approaches are implemented to achieve the objective. First, a procedure of CAD-assisted databank generation for PointNet deep learning models is proposed. The CAD-generated databank contains diverse and well-labeled 3D point clouds of a bolt connection of steel girder with variation in loosening conditions. Second, PointNet segmentation and classification models are trained based on CAD-generated databank. The PointNet segmentation model is used to identify bolts from 3D point cloud, and PointNet classification models are used to identify bolt head angles and loosening lengths. Third, the CAD-assisted PointNet models are validated on real-world 3D point clouds of a steel girder bolt connection under various bolt-loosening levels. To enhance the performance of PointNet deep learning, advanced 3D point cloud processing techniques such as representative orientation alignment, bolt isolation using\n K\n -means clustering, and best-fitting rectangle for bolt group identification are introduced. Experimental results demonstrated that the proposed method effectively identifies bolt-loosening angles with high accuracy.\n"}, {"paperId": "144df89e714d5c75e6f3c7e4d666caa860d7a4cb", "externalIds": {"DBLP": "journals/digearth/MatronePFP24", "DOI": "10.1080/17538947.2024.2390457", "CorpusId": 272344390}, "title": "Enhancing explainability of deep learning models for point cloud analysis: a focus on semantic segmentation", "venue": "International Journal of Digital Earth", "year": 2024, "citationCount": 6, "openAccessPdf": {"url": "https://doi.org/10.1080/17538947.2024.2390457", "status": "GOLD", "license": "CCBYNC", "disclaimer": "Notice: Paper or abstract available at https://api.unpaywall.org/v2/10.1080/17538947.2024.2390457?email=<INSERT_YOUR_EMAIL> or https://doi.org/10.1080/17538947.2024.2390457, which is subject to the license by the author or copyright owner provided with this content. Please go to the source to verify the license and copyright information for your use."}, "publicationTypes": ["JournalArticle"], "authors": [{"authorId": "7666278", "name": "F. Matrone"}, {"authorId": "3413670", "name": "M. Paolanti"}, {"authorId": "2283401355", "name": "Emanuele Frontoni"}, {"authorId": "3178736", "name": "R. Pierdicca"}], "abstract": "ABSTRACT Semantic segmentation of point clouds plays a critical role in various applications, such as urban planning, infrastructure management, environmental analyses and autonomous navigation. Understanding the behaviour of deep neural networks (DNNs) in analysing point cloud data is essential for improving segmentation accuracy and developing effective network architectures and acquisition strategies. In this paper, we investigate the traits of some state-of-the-art neural networks using indoor and urban outdoor point cloud datasets. We compare PointNet, DGCNN, and BAAF-Net on specifically selected datasets, including synthetic and real-world environments. The chosen datasets are S3DIS, SynthCity, Semantic3D, and KITTI. We analyse the impact of different factors such as dataset type (synthetic vs. real), scene type (indoor vs. outdoor), and acquisition system (static vs. mobile sensors). Through detailed analyses and comparisons, we provide insights into the strengths and limitations not only of different network architectures in handling urban point clouds but also of their data structure. This study contributes to going beyond the mere and unconditional use of AI algorithms, trying to explain DNNs behaviour in point cloud analysis and paving the way for future research to enhance segmentation accuracy and develop possible guidelines both for network design and data acquisition in the geomatics field."}, {"paperId": "76cf06fd6c27302b3244bbacee9420cc625a12fe", "externalIds": {"DBLP": "journals/corr/abs-2408-02950", "ArXiv": "2408.02950", "DOI": "10.48550/arXiv.2408.02950", "CorpusId": 271719845}, "title": "Kolmogorov-Arnold PointNet: Deep learning for prediction of fluid fields on irregular geometries", "venue": "arXiv.org", "year": 2024, "citationCount": 16, "openAccessPdf": {"url": "", "status": null, "license": null, "disclaimer": "Notice: Paper or abstract available at https://arxiv.org/abs/2408.02950, which is subject to the license by the author or copyright owner provided with this content. Please go to the source to verify the license and copyright information for your use."}, "publicationTypes": ["JournalArticle"], "authors": [{"authorId": "2267437739", "name": "Ali Kashefi"}], "abstract": "Kolmogorov-Arnold Networks (KANs) have emerged as a promising alternative to traditional Multilayer Perceptrons (MLPs) in deep learning. KANs have already been integrated into various architectures, such as convolutional neural networks, graph neural networks, and transformers, and their potential has been assessed for predicting physical quantities. However, the combination of KANs with point-cloud-based neural networks (e.g., PointNet) for computational physics has not yet been explored. To address this, we present Kolmogorov-Arnold PointNet (KA-PointNet) as a novel supervised deep learning framework for the prediction of incompressible steady-state fluid flow fields in irregular domains, where the predicted fields are a function of the geometry of the domains. In KA-PointNet, we implement shared KANs in the segmentation branch of the PointNet architecture. We utilize Jacobi polynomials to construct shared KANs. As a benchmark test case, we consider incompressible laminar steady-state flow over a cylinder, where the geometry of its cross-section varies over the data set. We investigate the performance of Jacobi polynomials with different degrees as well as special cases of Jacobi polynomials such as Legendre polynomials, Chebyshev polynomials of the first and second kinds, and Gegenbauer polynomials, in terms of the computational cost of training and accuracy of prediction of the test set. Additionally, we compare the performance of PointNet with shared KANs (i.e., KA-PointNet) and PointNet with shared MLPs. It is observed that when the number of trainable parameters is approximately equal, PointNet with shared KANs (i.e., KA-PointNet) outperforms PointNet with shared MLPs. Moreover, KA-PointNet predicts the pressure and velocity distributions along the surface of cylinders more accurately, resulting in more precise computations of lift and drag."}]}
