{"total": 281, "offset": 0, "next": 10, "data": [{"paperId": "28f87fd9de122dc2133f79d4a1fdb1079dfb602b", "externalIds": {"DBLP": "journals/corr/abs-2509-20036", "ArXiv": "2509.20036", "DOI": "10.1109/TRO.2025.3619041", "CorpusId": 281505592}, "title": "MARG: MAstering Risky Gap Terrains for Legged Robots With Elevation Mapping", "venue": "IEEE Transactions on robotics", "year": 2025, "citationCount": 8, "openAccessPdf": {"url": "", "status": null, "license": null, "disclaimer": "Notice: Paper or abstract available at https://arxiv.org/abs/2509.20036, which is subject to the license by the author or copyright owner provided with this content. Please go to the source to verify the license and copyright information for your use."}, "publicationTypes": ["JournalArticle"], "authors": [{"authorId": "2291213362", "name": "Yinzhao Dong"}, {"authorId": "2336920494", "name": "Ji Ma"}, {"authorId": "2368304159", "name": "Liu Zhao"}, {"authorId": "2221132466", "name": "Wanyue Li"}, {"authorId": "2291231307", "name": "Peng Lu"}], "abstract": "Deep Reinforcement Learning (DRL) controllers for quadrupedal locomotion have demonstrated impressive performance on challenging terrains, allowing robots to execute complex skills such as climbing, running, and jumping. However, existing blind locomotion controllers often struggle to ensure safety and efficient traversal through risky gap terrains, which are typically highly complex, requiring robots to perceive terrain information and select appropriate footholds during locomotion accurately. Meanwhile, existing perception-based controllers still present several practical limitations, including a complex multisensor deployment system and expensive computing resource requirements. This article proposes a DRL controller named MAstering Risky Gap Terrains (MARG), which integrates terrain maps and proprioception to dynamically adjust the action and enhance the robot\u2019s stability in these tasks. During the training phase, our controller accelerates policy optimization by selectively incorporating privileged information (e.g., center of mass, friction coefficients) that are available in simulation but unmeasurable directly in real-world deployments due to sensor limitations. We also designed three foot-related rewards to encourage the robot to explore safe footholds. More importantly, a terrain map generation model is proposed to reduce the drift existing in mapping and provide accurate terrain maps using only one LiDAR, providing a foundation for zero-shot transfer of the learned policy. The experimental results indicate that MARG maintains stability in various risky terrain tasks."}, {"paperId": "a893ddaaf52215b5deba03bb42cd9d9f01828600", "externalIds": {"ArXiv": "2208.03467", "DBLP": "journals/ral/YangZGWL23", "DOI": "10.1109/LRA.2022.3230325", "CorpusId": 251402686}, "title": "Real-Time Neural Dense Elevation Mapping for Urban Terrain With Uncertainty Estimations", "venue": "IEEE Robotics and Automation Letters", "year": 2022, "citationCount": 21, "openAccessPdf": {"url": "https://arxiv.org/pdf/2208.03467", "status": "GREEN", "license": null, "disclaimer": "Notice: Paper or abstract available at https://arxiv.org/abs/2208.03467, which is subject to the license by the author or copyright owner provided with this content. Please go to the source to verify the license and copyright information for your use."}, "publicationTypes": ["JournalArticle"], "authors": [{"authorId": "2119658557", "name": "Bowen Yang"}, {"authorId": "2145003266", "name": "Qingwen Zhang"}, {"authorId": "2133415543", "name": "Ruoyu Geng"}, {"authorId": "2153515813", "name": "Lujia Wang"}, {"authorId": "36523639", "name": "Meilin Liu"}], "abstract": "Having good knowledge of terrain information is essential for improving the performance of various downstream tasks on complex terrains, especially for the locomotion and navigation of legged robots. We present a novel framework for neural urban terrain reconstruction with uncertainty estimations. It generates dense robot-centric elevation maps online from sparse LiDAR observations. We design a novel pre-processing and point features representation approach that ensures high robustness and computational efficiency when integrating multiple point cloud frames. A generative Bayesian model then recovers the detailed terrain structures while simultaneously providing the pixel-wise reconstruction uncertainty. We evaluate the proposed pipeline through both simulation and real-world experiments. Our approach achieves high-quality terrain reconstruction with real-time performance on a mobile platform, and the uncertainty estimates may further benefit the downstream tasks of legged robots."}, {"paperId": "1eb2f241888a4ee82879f9be14c2ec655dc9d1b0", "externalIds": {"DBLP": "journals/corr/abs-2510-18986", "ArXiv": "2510.18986", "DOI": "10.1109/iSpaRo66239.2025.11436327", "CorpusId": 282272028}, "title": "Towards Proprioceptive Terrain Mapping with Quadruped Robots for Exploration in Planetary Permanently Shadowed Regions", "venue": "2025 International Conference on Space Robotics (iSpaRo)", "year": 2025, "citationCount": 0, "openAccessPdf": {"url": "", "status": null, "license": null, "disclaimer": "Notice: Paper or abstract available at https://arxiv.org/abs/2510.18986, which is subject to the license by the author or copyright owner provided with this content. Please go to the source to verify the license and copyright information for your use."}, "publicationTypes": ["JournalArticle", "Conference"], "authors": [{"authorId": "2386820468", "name": "Alberto S\u00e1nchez-Delgado"}, {"authorId": "2386820869", "name": "Joao C. V. Soares"}, {"authorId": "2938121", "name": "V. Barasuol"}, {"authorId": "2285576788", "name": "Claudio Semini"}], "abstract": "Permanently Shadowed Regions (PSRs) near the lunar poles are of interest for future exploration due to their potential to contain water ice and preserve geological records. Their complex, uneven terrain favors the use of legged robots, which can traverse challenging surfaces while collecting in-situ data, and have proven effective in Earth analogs, including dark caves, when equipped with onboard lighting. While exteroceptive sensors like cameras and lidars can capture terrain geometry and even semantic information, they cannot quantify its physical interaction with the robot\u2014a capability provided by proprioceptive sensing. We propose a terrain mapping framework for quadruped robots, which estimates elevation, foot slippage, energy cost, and stability margins from internal sensing during locomotion. These metrics are incrementally integrated into a multi-layer 2.5D gridmap that reflects terrain interaction from the robot\u2019s perspective. The system is evaluated in a simulator that mimics a lunar environment, using the 21 kg quadruped robot Aliengo, showing consistent mapping performance under lunar gravity and terrain conditions."}, {"paperId": "9eb2e7fa18a0e5eae8900ebc6247a09356e6b736", "externalIds": {"DBLP": "journals/amcs/BelterLFS16", "MAG": "2297711053", "DOI": "10.1515/amcs-2016-0006", "CorpusId": 28363868}, "title": "RGB\u2013D terrain perception and dense mapping for legged robots", "venue": "International Journal of Applied Mathematics and Computer Sciences", "year": 2016, "citationCount": 28, "openAccessPdf": {"url": "https://content.sciendo.com/downloadpdf/journals/amcs/26/1/article-p81.pdf", "status": "GOLD", "license": "CCBYNCND", "disclaimer": "Notice: Paper or abstract available at https://api.unpaywall.org/v2/10.1515/amcs-2016-0006?email=<INSERT_YOUR_EMAIL> or https://doi.org/10.1515/amcs-2016-0006, which is subject to the license by the author or copyright owner provided with this content. Please go to the source to verify the license and copyright information for your use."}, "publicationTypes": ["JournalArticle"], "authors": [{"authorId": "3141152", "name": "D. Belter"}, {"authorId": "3021331", "name": "Przemyslaw Labecki"}, {"authorId": "144137629", "name": "P\u00e9ter Fankhauser"}, {"authorId": "1720483", "name": "R. Siegwart"}], "abstract": "Abstract This paper addresses the issues of unstructured terrain modeling for the purpose of navigation with legged robots. We present an improved elevation grid concept adopted to the specific requirements of a small legged robot with limited perceptual capabilities. We propose an extension of the elevation grid update mechanism by incorporating a formal treatment of the spatial uncertainty. Moreover, this paper presents uncertainty models for a structured light RGB-D sensor and a stereo vision camera used to produce a dense depth map. The model for the uncertainty of the stereo vision camera is based on uncertainty propagation from calibration, through undistortion and rectification algorithms, allowing calculation of the uncertainty of measured 3D point coordinates. The proposed uncertainty models were used for the construction of a terrain elevation map using the Videre Design STOC stereo vision camera and Kinect-like range sensors. We provide experimental verification of the proposed mapping method, and a comparison with another recently published terrain mapping method for walking robots."}, {"paperId": "dc957f4678f00ef145fcaaab32ea56e992e3d187", "externalIds": {"DBLP": "journals/jfr/PlagemannMPKRB09", "DOI": "10.1002/rob.20308", "CorpusId": 15265569}, "title": "A Bayesian regression approach to terrain mapping and an application to legged robot locomotion", "venue": "J. Field Robotics", "year": 2009, "citationCount": 41, "openAccessPdf": {"url": "https://dspace.mit.edu/bitstream/1721.1/59805/1/jfr09-cp%5b1%5d.pdf", "status": "GREEN", "license": "CCBYNCSA", "disclaimer": "Notice: Paper or abstract available at https://api.unpaywall.org/v2/10.1002/rob.20308?email=<INSERT_YOUR_EMAIL> or https://doi.org/10.1002/rob.20308, which is subject to the license by the author or copyright owner provided with this content. Please go to the source to verify the license and copyright information for your use."}, "publicationTypes": ["JournalArticle"], "authors": [{"authorId": "1795065", "name": "Christian Plagemann"}, {"authorId": "38709947", "name": "Sebastian Mischke"}, {"authorId": "145876248", "name": "Sam Prentice"}, {"authorId": "1746871", "name": "K. Kersting"}, {"authorId": "143724999", "name": "N. Roy"}, {"authorId": "2106871731", "name": "Wolfram Burgard"}], "abstract": "We deal with the problem of learning probabilistic models of terrain surfaces from sparse and noisy elevation measurements. The key idea is to formalize this as a regression problem and to derive a solution based on nonstationary Gaussian processes. We describe how to achieve a sparse approximation of the model, which makes the model applicable to real\u2010world data sets. The main benefits of our model are that (1) it does not require a discretization of space, (2) it also provides the uncertainty for its predictions, and (3) it adapts its covariance function to the observed data, allowing more accurate inference of terrain elevation at points that have not been observed directly. As a second contribution, we describe how a legged robot equipped with a laser range finder can utilize the developed terrain model to plan and execute a path over rough terrain. We show how a motion planner can use the learned terrain model to plan a path to a goal location, using a terrain\u2010specific cost model to accept or reject candidate footholds. To the best of our knowledge, this was the first legged robotics system to autonomously sense, plan, and traverse a terrain surface of the given complexity. \u00a9 2009 Wiley Periodicals, Inc."}, {"paperId": "0e68fa480ffcdb11574c6487915665aba9f1c9ed", "externalIds": {"CorpusId": 259813137}, "title": "Feature-based RGB-D SLAM with Dense Terrain Mapping for a Walking Robot", "venue": "", "year": 2016, "citationCount": 0, "openAccessPdf": {"url": "", "status": null, "license": null, "disclaimer": "Notice: The following paper fields have been elided by the publisher: {'abstract'}. Paper or abstract available at https://ethz.ch/content/dam/ethz/special-interest/mavt/robotics-n-intelligent-systems/asl-dam/documents/misc/BelterAbstract.pdf, which is subject to the license by the author or copyright owner provided with this content. Please go to the source to verify the license and copyright information for your use."}, "publicationTypes": null, "authors": [{"authorId": "3141152", "name": "D. Belter"}, {"authorId": "2285769539", "name": "Piotr Skrzypczy\u00b4nski"}], "abstract": null}, {"paperId": "c25933713708bca9a7a2c1379e9783c88a3afdd3", "externalIds": {"ArXiv": "2211.07638", "DBLP": "journals/corr/abs-2211-07638", "DOI": "10.48550/arXiv.2211.07638", "CorpusId": 252733339}, "title": "Legged Locomotion in Challenging Terrains using Egocentric Vision", "venue": "Conference on Robot Learning", "year": 2022, "citationCount": 314, "openAccessPdf": {"url": "https://arxiv.org/pdf/2211.07638", "status": "GREEN", "license": null, "disclaimer": "Notice: Paper or abstract available at https://arxiv.org/abs/2211.07638, which is subject to the license by the author or copyright owner provided with this content. Please go to the source to verify the license and copyright information for your use."}, "publicationTypes": ["JournalArticle"], "authors": [{"authorId": "2107063491", "name": "Ananye Agarwal"}, {"authorId": "2118069675", "name": "Ashish Kumar"}, {"authorId": "143751119", "name": "Jitendra Malik"}, {"authorId": "2004879394", "name": "Deepak Pathak"}], "abstract": "Animals are capable of precise and agile locomotion using vision. Replicating this ability has been a long-standing goal in robotics. The traditional approach has been to decompose this problem into elevation mapping and foothold planning phases. The elevation mapping, however, is susceptible to failure and large noise artifacts, requires specialized hardware, and is biologically implausible. In this paper, we present the first end-to-end locomotion system capable of traversing stairs, curbs, stepping stones, and gaps. We show this result on a medium-sized quadruped robot using a single front-facing depth camera. The small size of the robot necessitates discovering specialized gait patterns not seen elsewhere. The egocentric camera requires the policy to remember past information to estimate the terrain under its hind feet. We train our policy in simulation. Training has two phases - first, we train a policy using reinforcement learning with a cheap-to-compute variant of depth image and then in phase 2 distill it into the final policy that uses depth using supervised learning. The resulting policy transfers to the real world and is able to run in real-time on the limited compute of the robot. It can traverse a large variety of terrain while being robust to perturbations like pushes, slippery surfaces, and rocky terrain. Videos are at https://vision-locomotion.github.io"}, {"paperId": "1fa23c9e8ad8d11eeb316bc8ac3d7ad67da7b0e1", "externalIds": {"DBLP": "journals/jfr/BelterLS16", "MAG": "2101207292", "DOI": "10.1002/rob.21610", "CorpusId": 28322267}, "title": "Adaptive Motion Planning for Autonomous Rough Terrain Traversal with a Walking Robot", "venue": "J. Field Robotics", "year": 2016, "citationCount": 81, "openAccessPdf": {"url": "", "status": "CLOSED", "license": null, "disclaimer": "Notice: The following paper fields have been elided by the publisher: {'abstract'}. Paper or abstract available at https://api.unpaywall.org/v2/10.1002/rob.21610?email=<INSERT_YOUR_EMAIL> or https://doi.org/10.1002/rob.21610, which is subject to the license by the author or copyright owner provided with this content. Please go to the source to verify the license and copyright information for your use."}, "publicationTypes": ["JournalArticle"], "authors": [{"authorId": "3141152", "name": "D. Belter"}, {"authorId": "3021331", "name": "Przemyslaw Labecki"}, {"authorId": "1940667", "name": "P. Skrzypczy\u0144ski"}], "abstract": null}, {"paperId": "fc69f17e61de3021a6819b0a6efa1ca3643133ce", "externalIds": {"CorpusId": 207905503}, "title": "Rough Terrain Modelling and Classification for Foothold Selection in a Six-legged Robot", "venue": "", "year": 2010, "citationCount": 0, "openAccessPdf": {"url": "", "status": null, "license": null, "disclaimer": "Notice: The following paper fields have been elided by the publisher: {'abstract'}. Paper or abstract available at http://www3.uji.es/~sanzp/rss2010/Paper%2083.pdf, which is subject to the license by the author or copyright owner provided with this content. Please go to the source to verify the license and copyright information for your use."}, "publicationTypes": null, "authors": [], "abstract": null}, {"paperId": "86a7fc91887de831cafae1736cdf4ace3de7c553", "externalIds": {"DBLP": "journals/tie/GuZ24", "DOI": "10.1109/TIE.2023.3329255", "CorpusId": 265183552}, "title": "Workspace-Based Motion Planning for Quadrupedal Robots on Rough Terrain", "venue": "IEEE transactions on industrial electronics (1982. Print)", "year": 2024, "citationCount": 3, "openAccessPdf": {"url": "", "status": "CLOSED", "license": null, "disclaimer": "Notice: Paper or abstract available at https://api.unpaywall.org/v2/10.1109/TIE.2023.3329255?email=<INSERT_YOUR_EMAIL> or https://doi.org/10.1109/TIE.2023.3329255, which is subject to the license by the author or copyright owner provided with this content. Please go to the source to verify the license and copyright information for your use."}, "publicationTypes": ["JournalArticle"], "authors": [{"authorId": "2266775936", "name": "Yaru Gu"}, {"authorId": "2059112979", "name": "Ting Zou"}], "abstract": "Legged robots have demonstrated high potential when dealing with rough terrain, for which an efficient motion planner becomes crucial. This article presents a novel approach for quadrupedal robot motion planning on rough terrain that is both conceptually straightforward and computationally efficient. Implementing the concept of workspace constitutes the cornerstone of this method: both body poses and swing-leg footholds are chosen within their corresponding workspace. A novel approach called the \u201ccross-diagonal method\u201d is developed to facilitate the search for new body poses. Based on the obtained body pose, the foothold for a swing leg selected within its foot workspace satisfies the reachability constraint automatically. The proposed motion planning scheme is integrated with an elevation mapping module and a state estimation module, enabling quadrupedal robots to travel through uneven terrains with high efficiency. The significance of this work is validated through simulation and physical experiments with a quadrupedal robot, which achieves high success rates in overcoming difficult terrains without prior knowledge of the environment. This approach offers the advantages of high computational efficiency, simplicity, and adaptability to different types of terrain, making it a promising solution for real-world applications."}]}
