{"total": 10607, "offset": 0, "next": 10, "data": [{"paperId": "f65a1ce8c49380f7e90633a9367b1efd80b90442", "externalIds": {"DBLP": "journals/mva/SarkerSSGTBS24", "ArXiv": "2405.11903", "DOI": "10.1007/s00138-024-01543-1", "CorpusId": 269916694}, "title": "A comprehensive overview of deep learning techniques for 3D point cloud classification and semantic segmentation", "venue": "Machine Vision and Applications", "year": 2024, "citationCount": 76, "openAccessPdf": {"url": "", "status": null, "license": null, "disclaimer": "Notice: Paper or abstract available at https://arxiv.org/abs/2405.11903, which is subject to the license by the author or copyright owner provided with this content. Please go to the source to verify the license and copyright information for your use."}, "publicationTypes": ["JournalArticle", "Review"], "authors": [{"authorId": "2286883462", "name": "Sushmita Sarker"}, {"authorId": "2187685337", "name": "Prithul Sarker"}, {"authorId": "2132751042", "name": "Gunner Stone"}, {"authorId": "2055553783", "name": "Ryan Gorman"}, {"authorId": "2273344983", "name": "Alireza Tavakkoli"}, {"authorId": "1808451", "name": "G. Bebis"}, {"authorId": "2275088834", "name": "J. Sattarvand"}], "abstract": "Point cloud analysis has a wide range of applications in many areas such as computer vision, robotic manipulation, and autonomous driving. While deep learning has achieved remarkable success on image-based tasks, there are many unique challenges faced by deep neural networks in processing massive, unordered, irregular and noisy 3D points. To stimulate future research, this paper analyzes recent progress in deep learning methods employed for point cloud processing and presents challenges and potential directions to advance this field. It serves as a comprehensive review on two major tasks in 3D point cloud processing\u2014namely, 3D shape classification and semantic segmentation."}, {"paperId": "3639153005add4183dde79dd0c947ec9a88846b3", "externalIds": {"DBLP": "conf/cvpr/Li0SKQRLM22", "DOI": "10.1109/CVPR52688.2022.01451", "CorpusId": 249917304}, "title": "HybridCR: Weakly-Supervised 3D Point Cloud Semantic Segmentation via Hybrid Contrastive Regularization", "venue": "Computer Vision and Pattern Recognition", "year": 2022, "citationCount": 103, "openAccessPdf": {"url": "", "status": null, "license": null, "disclaimer": "Notice: Paper or abstract available at https://api.unpaywall.org/v2/10.1109/CVPR52688.2022.01451?email=<INSERT_YOUR_EMAIL> or https://doi.org/10.1109/CVPR52688.2022.01451, which is subject to the license by the author or copyright owner provided with this content. Please go to the source to verify the license and copyright information for your use."}, "publicationTypes": ["JournalArticle", "Conference"], "authors": [{"authorId": "2145676474", "name": "Mengtian Li"}, {"authorId": "2154871672", "name": "Yuan Xie"}, {"authorId": "1862967", "name": "Yunhang Shen"}, {"authorId": "2142465226", "name": "Bo Ke"}, {"authorId": "2835750", "name": "Ruizhi Qiao"}, {"authorId": "1999889514", "name": "Bohan Ren"}, {"authorId": "3431378", "name": "Shaohui Lin"}, {"authorId": "2149343311", "name": "Lizhuang Ma"}], "abstract": "To address the huge labeling cost in large-scale point cloud semantic segmentation, we propose a novel hybrid contrastive regularization (HybridCR) framework in weakly-supervised setting, which obtains competitive performance compared to its fully-supervised counterpart. Specifically, HybridCR is the first framework to leverage both point consistency and employ contrastive regularization with pseudo labeling in an end-to-end manner. Fundamentally, HybridCR explicitly and effectively considers the semantic similarity between local neighboring points and global characteristics of 3D classes. We further design a dynamic point cloud augmentor to generate diversity and robust sample views, whose transformation parameter is jointly optimized with model training. Through extensive experiments, HybridCR achieves significant performance improvement against the SOTA methods on both indoor and outdoor datasets, e.g., S3DIS, ScanNet-V2, Semantic3D, and SemanticKITTI."}, {"paperId": "af2dd339204ed2650eb09e6e7ca76941f95810d0", "externalIds": {"DBLP": "conf/cvpr/AnS0LWWGB24", "ArXiv": "2403.00592", "DOI": "10.1109/CVPR52733.2024.00383", "CorpusId": 268230514}, "title": "Rethinking Few-shot 3D Point Cloud Semantic Segmentation", "venue": "Computer Vision and Pattern Recognition", "year": 2024, "citationCount": 34, "openAccessPdf": {"url": "https://arxiv.org/pdf/2403.00592", "status": "GREEN", "license": null, "disclaimer": "Notice: Paper or abstract available at https://arxiv.org/abs/2403.00592, which is subject to the license by the author or copyright owner provided with this content. Please go to the source to verify the license and copyright information for your use."}, "publicationTypes": ["JournalArticle", "Conference"], "authors": [{"authorId": "1952847889", "name": "Zhaochong An"}, {"authorId": "15839174", "name": "Guolei Sun"}, {"authorId": "2289948385", "name": "Yun Liu"}, {"authorId": "2146423021", "name": "Fayao Liu"}, {"authorId": "2243310641", "name": "Zongwei Wu"}, {"authorId": "2304966889", "name": "Dan Wang"}, {"authorId": "2246990749", "name": "L. V. Gool"}, {"authorId": "2292468933", "name": "Serge J. Belongie"}], "abstract": "This paper revisits few-shot 3D point cloud semantic segmentation (FS-PCS), with a focus on two significant is-sues in the state-of-the-art: foreground leakage and sparse point distribution. The former arises from non-uniform point sampling, allowing models to distinguish the density disparities between foreground and background for easier segmentation. The latter results from sampling only 2,048 points, limiting semantic information and deviating from the real-world practice. To address these issues, we in-troduce a standardized FS-PCS setting, upon which a new benchmark is built. Moreover, we propose a novel FS-PCS model. While previous methods are based on feature op-timization by mainly refining support features to enhance prototypes, our method is based on correlation optimization, referred to as Correlation Optimization Segmentation (COSeg). Specifically, we compute Class-specific Multi-prototypical Correlation (CMC) for each query point, rep-resenting its correlations to category prototypes. Then, we propose the Hyper Correlation Augmentation (HCA) mod-ule to enhance CMC. Furthermore, tackling the inherent property of few-shot training to incur base susceptibility for models, we propose to learn non-parametric prototypes for the base classes during training. The learned base proto-types are used to calibrate correlations for the background class through a Base Prototypes Calibration (BPC) module. Experiments on popular datasets demonstrate the superior-ity of COSeg over existing methods. The code is available at github.com/ZhaochongAnICOSeg."}, {"paperId": "35549d6a4c5e09e8d2b3de95940dde38e41905ec", "externalIds": {"DBLP": "journals/corr/abs-2006-12052", "ArXiv": "2006.12052", "MAG": "3036436924", "DOI": "10.1109/CVPR46437.2021.00876", "CorpusId": 219966318}, "title": "Few-shot 3D Point Cloud Semantic Segmentation", "venue": "Computer Vision and Pattern Recognition", "year": 2020, "citationCount": 150, "openAccessPdf": {"url": "https://arxiv.org/pdf/2006.12052", "status": "GREEN", "license": null, "disclaimer": "Notice: Paper or abstract available at https://arxiv.org/abs/2006.12052, which is subject to the license by the author or copyright owner provided with this content. Please go to the source to verify the license and copyright information for your use."}, "publicationTypes": ["JournalArticle", "Conference"], "authors": [{"authorId": "2055269901", "name": "Na Zhao"}, {"authorId": "144078686", "name": "Tat-Seng Chua"}, {"authorId": "35181410", "name": "Gim Hee Lee"}], "abstract": "Many existing approaches for 3D point cloud semantic segmentation are fully supervised. These fully supervised approaches heavily rely on large amounts of labeled training data that are difficult to obtain and cannot segment new classes after training. To mitigate these limitations, we propose a novel attention-aware multi-prototype transductive few-shot point cloud semantic segmentation method to segment new classes given a few labeled examples. Specifically, each class is represented by multiple prototypes to model the complex data distribution of labeled points. Subsequently, we employ a transductive label propagation method to exploit the affinities between labeled multi-prototypes and unlabeled points, and among the unlabeled points. Furthermore, we design an attention-aware multi-level feature learning network to learn the discriminative features that capture the geometric dependencies and semantic correlations between points. Our proposed method shows significant and consistent improvements compared to baselines in different few-shot point cloud semantic segmentation settings (i.e. 2/3-way 1/5-shot) on two benchmark datasets. Our code is available at https://github.com/Na-Z/attMPTI."}, {"paperId": "f1111224a301b7a1519c0f644df730b4fb83a7ff", "externalIds": {"DBLP": "journals/corr/abs-2410-22489", "ArXiv": "2410.22489", "CorpusId": 273696085}, "title": "Multimodality Helps Few-Shot 3D Point Cloud Semantic Segmentation", "venue": "International Conference on Learning Representations", "year": 2024, "citationCount": 34, "openAccessPdf": {"url": "", "status": null, "license": null, "disclaimer": "Notice: Paper or abstract available at https://arxiv.org/abs/2410.22489, which is subject to the license by the author or copyright owner provided with this content. Please go to the source to verify the license and copyright information for your use."}, "publicationTypes": ["JournalArticle"], "authors": [{"authorId": "1952847889", "name": "Zhaochong An"}, {"authorId": "2325237941", "name": "Guolei Sun"}, {"authorId": "2289948385", "name": "Yun Liu"}, {"authorId": "2218943944", "name": "Runjia Li"}, {"authorId": "2328971515", "name": "Min Wu"}, {"authorId": "2331127159", "name": "Ming-Ming Cheng"}, {"authorId": "1796918", "name": "E. Konukoglu"}, {"authorId": "2292468933", "name": "Serge J. Belongie"}], "abstract": "Few-shot 3D point cloud segmentation (FS-PCS) aims at generalizing models to segment novel categories with minimal annotated support samples. While existing FS-PCS methods have shown promise, they primarily focus on unimodal point cloud inputs, overlooking the potential benefits of leveraging multimodal information. In this paper, we address this gap by introducing a multimodal FS-PCS setup, utilizing textual labels and the potentially available 2D image modality. Under this easy-to-achieve setup, we present the MultiModal Few-Shot SegNet (MM-FSS), a model effectively harnessing complementary information from multiple modalities. MM-FSS employs a shared backbone with two heads to extract intermodal and unimodal visual features, and a pretrained text encoder to generate text embeddings. To fully exploit the multimodal information, we propose a Multimodal Correlation Fusion (MCF) module to generate multimodal correlations, and a Multimodal Semantic Fusion (MSF) module to refine the correlations using text-aware semantic guidance. Additionally, we propose a simple yet effective Test-time Adaptive Cross-modal Calibration (TACC) technique to mitigate training bias, further improving generalization. Experimental results on S3DIS and ScanNet datasets demonstrate significant performance improvements achieved by our method. The efficacy of our approach indicates the benefits of leveraging commonly-ignored free modalities for FS-PCS, providing valuable insights for future research. The code is available at https://github.com/ZhaochongAn/Multimodality-3D-Few-Shot"}, {"paperId": "ab79b60c02bf97eb1e6385391786e048dbb90357", "externalIds": {"DOI": "10.3390/rs17071256", "CorpusId": 277535345}, "title": "SAMNet++: A Segment Anything Model for Supervised 3D Point Cloud Semantic Segmentation", "venue": "Remote Sensing", "year": 2025, "citationCount": 6, "openAccessPdf": {"url": "https://doi.org/10.3390/rs17071256", "status": "GOLD", "license": "CCBY", "disclaimer": "Notice: Paper or abstract available at https://api.unpaywall.org/v2/10.3390/rs17071256?email=<INSERT_YOUR_EMAIL> or https://doi.org/10.3390/rs17071256, which is subject to the license by the author or copyright owner provided with this content. Please go to the source to verify the license and copyright information for your use."}, "publicationTypes": ["JournalArticle"], "authors": [{"authorId": "2334269262", "name": "Mohsen Shahraki"}, {"authorId": "97894092", "name": "Ahmed Elamin"}, {"authorId": "2273130048", "name": "A. El-Rabbany"}], "abstract": "Segmentation of 3D point clouds is essential for applications such as environmental monitoring and autonomous navigation, where making accurate distinctions between different classes from high-resolution 3D datasets is critical. Segmenting 3D point clouds often requires a trade-off between preserving spatial information and achieving computational efficiency. In this paper, we present SAMNet++, a hybrid 3D segmentation model that integrates segment anything model (SAM) and adopted PointNet++ in a sequential two-stage pipeline. Firstly, SAM performs an initial unsupervised segmentation, which is then refined using adopted PointNet++ to improve the accuracy. The key innovations of SAMNet++ include its hybrid architecture, which combines SAM\u2019s generalization with PointNet++\u2019s local feature extraction, and a feature refinement strategy that enhances precision while reducing computational overhead. Additionally, SAMNet++ minimizes the reliance on extensive supervised training, while maintaining high accuracy. The proposed model is tested on three urban datasets, which are collected by an unmanned aerial vehicle (UAV). The proposed SAMNet++ model demonstrates high segmentation performance, achieving accuracy, precision, recall, and F1-score values above 0.97 across all classes on our experimental datasets. Furthermore, its mean intersection over union (mIoU) of 86.93% on a public benchmark dataset signifies a more balanced and precise segmentation across all classes, surpassing previous state-of-the-art methods. In addition to its improved accuracy, SAMNet++ showcases remarkable computational efficiency, requiring almost half the processing time of standard PointNet++ and nearly one-sixteenth of the time needed by the original PointNet algorithm."}, {"paperId": "7bc4f1ddc66c17ee89fcda6ffc6d090a008ada47", "externalIds": {"DBLP": "journals/tip/HeJJD23", "ArXiv": "2305.14335", "DOI": "10.1109/TIP.2023.3279660", "CorpusId": 258840994, "PubMed": "37252865"}, "title": "Prototype Adaption and Projection for Few- and Zero-Shot 3D Point Cloud Semantic Segmentation", "venue": "IEEE Transactions on Image Processing", "year": 2023, "citationCount": 75, "openAccessPdf": {"url": "https://arxiv.org/pdf/2305.14335", "status": "GREEN", "license": null, "disclaimer": "Notice: Paper or abstract available at https://arxiv.org/abs/2305.14335, which is subject to the license by the author or copyright owner provided with this content. Please go to the source to verify the license and copyright information for your use."}, "publicationTypes": ["JournalArticle"], "authors": [{"authorId": "2115300944", "name": "Shuting He"}, {"authorId": "2115901329", "name": "Xudong Jiang"}, {"authorId": "30401303", "name": "Wei Jiang"}, {"authorId": "49441320", "name": "Henghui Ding"}], "abstract": "In this work, we address the challenging task of few-shot and zero-shot 3D point cloud semantic segmentation. The success of few-shot semantic segmentation in 2D computer vision is mainly driven by the pre-training on large-scale datasets like imagenet. The feature extractor pre-trained on large-scale 2D datasets greatly helps the 2D few-shot learning. However, the development of 3D deep learning is hindered by the limited volume and instance modality of datasets due to the significant cost of 3D data collection and annotation. This results in less representative features and large intra-class feature variation for few-shot 3D point cloud segmentation. As a consequence, directly extending existing popular prototypical methods of 2D few-shot classification/segmentation into 3D point cloud segmentation won\u2019t work as well as in 2D domain. To address this issue, we propose a Query-Guided Prototype Adaption (QGPA) module to adapt the prototype from support point clouds feature space to query point clouds feature space. With such prototype adaption, we greatly alleviate the issue of large feature intra-class variation in point cloud and significantly improve the performance of few-shot 3D segmentation. Besides, to enhance the representation of prototypes, we introduce a Self-Reconstruction (SR) module that enables prototype to reconstruct the support mask as well as possible. Moreover, we further consider zero-shot 3D point cloud semantic segmentation where there is no support sample. To this end, we introduce category words as semantic information and propose a semantic-visual projection model to bridge the semantic and visual spaces. Our proposed method surpasses state-of-the-art algorithms by a considerable 7.90% and 14.82% under the 2-way 1-shot setting on S3DIS and ScanNet benchmarks, respectively."}, {"paperId": "83f710f5011bfe4950213559b3dad605f5cba922", "externalIds": {"DBLP": "journals/corr/abs-2408-01356", "ArXiv": "2408.01356", "DOI": "10.48550/arXiv.2408.01356", "CorpusId": 271693333}, "title": "Balanced Residual Distillation Learning for 3D Point Cloud Class-Incremental Semantic Segmentation", "venue": "Expert systems with applications", "year": 2024, "citationCount": 13, "openAccessPdf": {"url": "", "status": null, "license": null, "disclaimer": "Notice: Paper or abstract available at https://arxiv.org/abs/2408.01356, which is subject to the license by the author or copyright owner provided with this content. Please go to the source to verify the license and copyright information for your use."}, "publicationTypes": ["JournalArticle"], "authors": [{"authorId": "2228240959", "name": "Yuanzhi Su"}, {"authorId": "2215703782", "name": "Siyuan Chen"}, {"authorId": "2314788158", "name": "Yuan-Gen Wang"}], "abstract": "Class-incremental learning (CIL) enables continuous learning of new classes while mitigating catastrophic forgetting of old ones. For the performance breakthrough of CIL, it is essential yet challenging to effectively refine past knowledge from the base model and balance it with new learning. However, such a challenge has not been considered in current research. This work proposes a balanced residual distillation learning framework (BRDL) to address this gap and advance CIL performance. BRDL introduces a residual distillation strategy to dynamically refine past knowledge by expanding the network structure and a balanced pseudo-label learning strategy to mitigate class bias and balance learning between old and new classes. We apply the proposed BRDL to a challenging 3D point cloud semantic segmentation task where the data is unordered and unstructured. Extensive experimental results demonstrate that BRDL sets a new benchmark with an outstanding balance capability in class-biased scenarios."}, {"paperId": "1315db190ed3cd126b9aee7cd29221500d883e2f", "externalIds": {"DOI": "10.1080/01431161.2024.2439082", "CorpusId": 274876487}, "title": "Semantic segmentation via fusing 2D image and 3D point cloud data with shared multi-layer perceptron", "venue": "International Journal of Remote Sensing", "year": 2024, "citationCount": 6, "openAccessPdf": {"url": "", "status": null, "license": null, "disclaimer": "Notice: Paper or abstract available at https://api.unpaywall.org/v2/10.1080/01431161.2024.2439082?email=<INSERT_YOUR_EMAIL> or https://doi.org/10.1080/01431161.2024.2439082, which is subject to the license by the author or copyright owner provided with this content. Please go to the source to verify the license and copyright information for your use."}, "publicationTypes": ["JournalArticle"], "authors": [{"authorId": "2312889576", "name": "Xueqiang Zhao"}, {"authorId": "2307568344", "name": "Jiancheng Wang"}, {"authorId": "2323718653", "name": "Zheng Wu"}, {"authorId": "2327861687", "name": "Yangbo Chen"}], "abstract": "ABSTRACT Three-dimensional (3D) semantic segmentation based on point clouds has become a critical technology in the field of intelligent spatial perception and scene understanding. However, most existing methods cannot fully exploit the spatial feature of 3D point cloud data and the orderliness of two-dimensional (2D) image information, resulting in an inability to effectively improve segmentation accuracy. This study proposes a novel 2D image and 3D point cloud fusion method named shared multi-layer perceptron fusion semantic segmentation (SMFusionSeg) for semantic segmentation. The rich features of 2D image segmentation and spatial information of 3D point clouds are integrated by designing a fusion architecture that facilitates the transfer of 2D semantics to 3D semantics. Specifically, the fusion architecture concatenates the features from both 2D and 3D domains, which are then further integrated through a shared multi-layer perceptron (MLP) and optimized using an attention mechanism to enhance feature effectiveness and distinctiveness. Moreover, a knowledge distillation strategy is introduced to improve the learning capability and segmentation accuracy in parsing complex scenes. Experimental results on the SemanticKITTI dataset demonstrate that the proposed SMFusionSeg achieves a mean Intersection over Union ($mIoU$mIoU) of 65.4%, significantly outperforming traditional single-modal methods and many existing segmentation techniques, thereby effectively enhancing the precision and robustness of geographic feature recognition."}, {"paperId": "3814f13131325d2e390cca18bf1d7dd6da289ebb", "externalIds": {"DOI": "10.32604/cmc.2024.049450", "CorpusId": 270082951}, "title": "SGT-Net: A Transformer-Based Stratified Graph Convolutional Network for 3D Point Cloud Semantic Segmentation", "venue": "Computers, Materials &amp; Continua", "year": 2024, "citationCount": 7, "openAccessPdf": {"url": "https://www.techscience.com/cmc/online/detail/20714/pdf", "status": "GOLD", "license": "other-oa", "disclaimer": "Notice: Paper or abstract available at https://api.unpaywall.org/v2/10.32604/cmc.2024.049450?email=<INSERT_YOUR_EMAIL> or https://doi.org/10.32604/cmc.2024.049450, which is subject to the license by the author or copyright owner provided with this content. Please go to the source to verify the license and copyright information for your use."}, "publicationTypes": ["JournalArticle"], "authors": [{"authorId": "2269039485", "name": "Suyi Liu"}, {"authorId": "2686775", "name": "Jianning Chi"}, {"authorId": "2238041387", "name": "Chengdong Wu"}, {"authorId": "2195990463", "name": "Fang Xu"}, {"authorId": "9305845", "name": "Xiaosheng Yu"}], "abstract": "In recent years, semantic segmentation on 3D point cloud data has attracted much attention. Unlike 2D images where pixels distribute regularly in the image domain, 3D point clouds in non-Euclidean space are irregular and inherently sparse. Therefore, it is very difficult to extract long-range contexts and effectively aggregate local features for semantic segmentation in 3D point cloud space. Most current methods either focus on local feature aggregation or long-range context dependency, but fail to directly establish a global-local feature extractor to complete the point cloud semantic segmentation tasks. In this paper, we propose a Transformer-based stratified graph convolutional network (SGT-Net), which enlarges the effective receptive field and builds direct long-range dependency. Specifically, we first propose a novel dense-sparse sampling strategy that provides dense local vertices and sparse long-distance vertices for subsequent graph convolutional network (GCN). Secondly, we propose a multi-key self-attention mechanism based on the Transformer to further weight augmentation for crucial neighboring relationships and enlarge the effective receptive field. In addition, to further improve the efficiency of the network, we propose a similarity measurement module to determine whether the neighborhood near the center point is effective. We demonstrate the validity and superiority of our method on the S3DIS and ShapeNet datasets. Through ablation experiments and segmentation visualization, we verify that the SGT model can improve the performance of the point cloud semantic segmentation."}]}
