{"total": 1499, "offset": 0, "next": 10, "data": [{"paperId": "48e3a94bf37d571a7e4d314e03ed6eaffd16509f", "externalIds": {"DBLP": "journals/remotesensing/LiYZLLT17", "MAG": "2611946301", "DOI": "10.3390/rs9050433", "CorpusId": 43149445}, "title": "An Improved RANSAC for 3D Point Cloud Plane Segmentation Based on Normal Distribution Transformation Cells", "venue": "Remote Sensing", "year": 2017, "citationCount": 272, "openAccessPdf": {"url": "https://www.mdpi.com/2072-4292/9/5/433/pdf?version=1493813523", "status": "GOLD", "license": "CCBY", "disclaimer": "Notice: Paper or abstract available at https://api.unpaywall.org/v2/10.3390/rs9050433?email=<INSERT_YOUR_EMAIL> or https://doi.org/10.3390/rs9050433, which is subject to the license by the author or copyright owner provided with this content. Please go to the source to verify the license and copyright information for your use."}, "publicationTypes": ["JournalArticle"], "authors": [{"authorId": "144457305", "name": "Lin Li"}, {"authorId": "2158027981", "name": "Fan Yang"}, {"authorId": "47297580", "name": "Haihong Zhu"}, {"authorId": "2108467644", "name": "Dalin Li"}, {"authorId": "2110860121", "name": "You Li"}, {"authorId": "143903132", "name": "Lei Tang"}], "abstract": "Plane segmentation is a basic task in the automatic reconstruction of indoor and urban environments from unorganized point clouds acquired by laser scanners. As one of the most common plane-segmentation methods, standard Random Sample Consensus (RANSAC) is often used to continually detect planes one after another. However, it suffers from the spurious-plane problem when noise and outliers exist due to the uncertainty of randomly sampling the minimum subset with 3 points. An improved RANSAC method based on Normal Distribution Transformation (NDT) cells is proposed in this study to avoid spurious planes for 3D point-cloud plane segmentation. A planar NDT cell is selected as a minimal sample in each iteration to ensure the correctness of sampling on the same plane surface. The 3D NDT represents the point cloud with a set of NDT cells and models the observed points with a normal distribution within each cell. The geometric appearances of NDT cells are used to classify the NDT cells into planar and non-planar cells. The proposed method is verified on three indoor scenes. The experimental results show that the correctness exceeds 88.5% and the completeness exceeds 85.0%, which indicates that the proposed method identifies more reliable and accurate planes than standard RANSAC. It also executes faster. These results validate the suitability of the method."}, {"paperId": "2d4ce93029655cfb8a428f5f7484dc88b1fa2ef1", "externalIds": {"MAG": "2973459380", "DOI": "10.1109/ICIEA.2019.8834367", "CorpusId": 202686443}, "title": "3D Point Cloud Plane Segmentation Method Based on RANSAC And Support Vector Machine", "venue": "2019 14th IEEE Conference on Industrial Electronics and Applications (ICIEA)", "year": 2019, "citationCount": 14, "openAccessPdf": {"url": "", "status": null, "license": null, "disclaimer": "Notice: Paper or abstract available at https://api.unpaywall.org/v2/10.1109/ICIEA.2019.8834367?email=<INSERT_YOUR_EMAIL> or https://doi.org/10.1109/ICIEA.2019.8834367, which is subject to the license by the author or copyright owner provided with this content. Please go to the source to verify the license and copyright information for your use."}, "publicationTypes": ["Conference"], "authors": [{"authorId": "2116458507", "name": "Dong Xu"}, {"authorId": "2146329948", "name": "Fanghui Li"}, {"authorId": "30302913", "name": "Hongxing Wei"}], "abstract": "Recently, three-dimensional (3D) laser scanning technology has gradually become a main method of retrieving geometric information of objects and scenes.By processing the point cloud data obtained,we can implement 3D object recognition and the automatic reconstruction of indoor and urban environments,which are significant contents of the research fields of computer vision and robotics.As one of the primary tasks of point cloud processing, plane segmentation has also drawn attention of scholars from all around the world and become a very promising research area. Among different plane-segmentation methods,Random Sample Consensus (RANSAC) is a highly robust method and enjoys a strong capability of anti-interference.However,it suffers from the problems of generating spurious planes and relatively low accuracy in plane segmentation of complex environments.Two improved methods based on basic RANSAC are proposed in this study to enhance the accuracy of plane segmentation.Our method use Support Vector Ma-chine(SVM),the supervised learning model used for classification of the point clouds,into basic RANSAC to predict the category of a certain point according to its three-dimensional coordinate and rgb value.Every category corresponds to a plane.In this way,the high accuracy of SVM in classification and the preciseness of taking every point into consideration can result in the improved accuracy of plane segmentation.The results of experiments validate the effect of our method."}, {"paperId": "5ea906a34405bb57c7e2019a81a415f31ec9221a", "externalIds": {"DBLP": "journals/jei/ChenCWH21", "DOI": "10.1117/1.JEI.30.5.053022", "CorpusId": 240357193}, "title": "Plane segmentation for a building roof combining deep learning and the RANSAC method from a 3D point cloud", "venue": "J. Electronic Imaging", "year": 2021, "citationCount": 5, "openAccessPdf": {"url": "", "status": null, "license": null, "disclaimer": "Notice: Paper or abstract available at https://api.unpaywall.org/v2/10.1117/1.JEI.30.5.053022?email=<INSERT_YOUR_EMAIL> or https://doi.org/10.1117/1.JEI.30.5.053022, which is subject to the license by the author or copyright owner provided with this content. Please go to the source to verify the license and copyright information for your use."}, "publicationTypes": ["JournalArticle"], "authors": [{"authorId": "2155552282", "name": "Hui Chen"}, {"authorId": "2138516663", "name": "Wanlou Chen"}, {"authorId": "150287468", "name": "R. Wu"}, {"authorId": "2108832467", "name": "Yunfeng Huang"}], "abstract": "Abstract. The segmentation of a point cloud on the roof plane is of great significance to the reconstruction of building models. However, the traditional segmentation methods segment the aerial point cloud of the roof, which cannot fully express the geometric structure of the roof, whereas the deep learning-based methods have problems such as too much manual annotation and training time. In this work, a plane segmentation method for a building roof based on the PointNet network combined with the random sample consensus (RANSAC) algorithm is proposed to directly segment the whole point cloud of the building, but it is not limited to the point cloud of the roof. With the proposed framework, the roof part is extracted from the building by an improved PointNet network, and then the roof semantic point cloud is segmented by the RANSAC algorithm to complete the roof extraction. Based on the experimental results gained from multiple building point clouds, it is shown that the proposed method achieves the segmentation of a roof on most multi-plane roof building point clouds and that it has strong practical value."}, {"paperId": "314ea03f3c50f7c59b5710ac108fa3b34d0ead36", "externalIds": {"DOI": "10.54097/jfqs4b09", "CorpusId": 268615768}, "title": "A Point Cloud Contour Extraction Method based on Plane Segmentation", "venue": "Frontiers in Computing and Intelligent Systems", "year": 2024, "citationCount": 1, "openAccessPdf": {"url": "https://drpress.org/ojs/index.php/fcis/article/download/17637/17131", "status": "HYBRID", "license": "CCBY", "disclaimer": "Notice: Paper or abstract available at https://api.unpaywall.org/v2/10.54097/jfqs4b09?email=<INSERT_YOUR_EMAIL> or https://doi.org/10.54097/jfqs4b09, which is subject to the license by the author or copyright owner provided with this content. Please go to the source to verify the license and copyright information for your use."}, "publicationTypes": ["JournalArticle"], "authors": [{"authorId": "2292897793", "name": "Lei Lu"}, {"authorId": "2292803729", "name": "Ran Gao"}, {"authorId": "2291587676", "name": "Wei Pan"}, {"authorId": "2293268147", "name": "Wenming Tang"}], "abstract": "A method based on plane segmentation and dimensionality reduction for extracting incomplete and slow contour features of object point clouds is proposed. The method consists of two main steps: plane segmentation and contour extraction. In plane segmentation, the random sample consensus (Random Sample Consensus, RANSAC) algorithm is optimized based on principal component analysis (Principal Component Analysis, PCA); the optimized planar point cloud is then subjected to dimensionality reduction, and the contour features are extracted using gradients. Experimental results show that the method can effectively segment point clouds and extract the contours of target surfaces, and has great potential for application in industrial inspection and other fields."}, {"paperId": "cb2d21c4a92e14e8b07d098a4f639ee19bd6b295", "externalIds": {"MAG": "2848881297", "DOI": "10.1109/CCDC.2018.8407394", "CorpusId": 49657898}, "title": "A new plane segmentation method of point cloud based on mean shift and RANSAC", "venue": "Chinese Control and Decision Conference", "year": 2018, "citationCount": 16, "openAccessPdf": {"url": "", "status": "CLOSED", "license": null, "disclaimer": "Notice: Paper or abstract available at https://api.unpaywall.org/v2/10.1109/CCDC.2018.8407394?email=<INSERT_YOUR_EMAIL> or https://doi.org/10.1109/CCDC.2018.8407394, which is subject to the license by the author or copyright owner provided with this content. Please go to the source to verify the license and copyright information for your use."}, "publicationTypes": ["Conference"], "authors": [{"authorId": "2058051739", "name": "Wenlong Yue"}, {"authorId": "2081957", "name": "Junguo Lu"}, {"authorId": "119796931", "name": "Weihang Zhou"}, {"authorId": "2053093507", "name": "Yubin Miao"}], "abstract": "Three dimensional laser scanning technology has been widely used in machine vision and reverse engineering. Plane segmentation is an important step for object recognition in the point cloud obtained by laser scanner. Traditional plane segmentation method cannot obtain a specific plane accurately when normal is unknown. This paper proposes a new method based on Mean Shift normal clustering and RANSAC with constraints and initial point to segment the specific plane whose the normal is unknown. Firstly, the point cloud is down sampled using Voxel Grid method. Secondly, the algorithm uses Mean Shift clustering method on the normal sphere to obtain the actual normal of the plane to be segmented. Thirdly, with stopping point as initial condition and actual normal as constraint, RANSAC algorithm is used to segment the specific plane. Finally this algorithm is experimentally validated in point cloud data of actual scene."}, {"paperId": "a233840a257731b6b585c6e89adf2133ab551f0d", "externalIds": {"DOI": "10.1364/josaa.579923", "CorpusId": 284195986, "PubMed": "41841943"}, "title": "Weld seam recognition algorithm based on a fast\u00a0point cloud plane fitting method.", "venue": "Journal of The Optical Society of America A-optics Image Science and Vision", "year": 2025, "citationCount": 0, "openAccessPdf": {"url": "", "status": null, "license": null, "disclaimer": "Notice: Paper or abstract available at https://api.unpaywall.org/v2/10.1364/josaa.579923?email=<INSERT_YOUR_EMAIL> or https://doi.org/10.1364/josaa.579923, which is subject to the license by the author or copyright owner provided with this content. Please go to the source to verify the license and copyright information for your use."}, "publicationTypes": ["JournalArticle"], "authors": [{"authorId": "2244589711", "name": "Xingyu Gao"}, {"authorId": "2258552923", "name": "Xi Xiong"}, {"authorId": "2193663934", "name": "Weiming Li"}, {"authorId": "2194773985", "name": "Shuibiao Chen"}, {"authorId": "2259755891", "name": "Yu Li"}], "abstract": "Aiming at the problems of low accuracy and slow speed of existing point cloud weld extraction algorithms in 3D vision-based robotic intelligent welding, this study proposes a novel, to our knowledge, three-stage automatic point cloud weld extraction method. In the plane segmentation stage, the random sample consensus (RANSAC) algorithm is improved: by narrowing the selection range of sampling points to the local neighborhood and optimizing neighborhood construction with dynamic curvature detection, the efficiency of plane fitting is enhanced. In the feature point extraction stage, based on plane parameters, the plane intersection line method and distance threshold method are adopted to obtain weld seam feature points. In the curve fitting stage, farthest point sampling (FPS) is used to denoise and resample the feature points, and then the weld curve is fitted to achieve high-precision contour reconstruction. Experiments show that the method exhibits high efficiency, robustness, and engineering adaptability."}, {"paperId": "af8cacc20e2d89e582842df080ccc1d9f3105ce1", "externalIds": {"DOI": "10.1166/jno.2024.3572", "CorpusId": 269117827}, "title": "An Improved RANSAC Based Segmentation Algorithm for the Belt Wedge Point Cloud of the Automotive V-Ribbed Belt", "venue": "Journal of Nanoelectronics and Optoelectronics", "year": 2024, "citationCount": 0, "openAccessPdf": {"url": "", "status": "CLOSED", "license": null, "disclaimer": "Notice: Paper or abstract available at https://api.unpaywall.org/v2/10.1166/jno.2024.3572?email=<INSERT_YOUR_EMAIL> or https://doi.org/10.1166/jno.2024.3572, which is subject to the license by the author or copyright owner provided with this content. Please go to the source to verify the license and copyright information for your use."}, "publicationTypes": ["JournalArticle"], "authors": [{"authorId": "2160468527", "name": "Wu-Sheng Tang"}, {"authorId": "2296585966", "name": "Yun-Fei Guo"}, {"authorId": "2160361766", "name": "Chunmei Yin"}, {"authorId": "2161720134", "name": "Jinhua Zhang"}, {"authorId": "2160595822", "name": "Yaochen Shi"}, {"authorId": "2296565283", "name": "Qing-Hua Li"}], "abstract": "Point cloud segmentation is an important part of the belt wedge dimension measurement of automotive V-ribbed belt, and accurate segmentation is the basis of the subsequent dimension calculation of the belt wedge. In view of the problem of randomly selecting initial points and over-segmented\n plane in orthodox RANSAC algorithm, this text presents an modified RANSAC arithmetic for segmentation of belt wedge point clouds of automotive V-ribbed belt, which uses the radius space to redefine the selection method of initial points, obtains the optimal plane result through multiple iterations,\n and uses the angle and distance of vectors to prevent over-segmentation of point clouds. In the experiment, RANSAC and improved RANSAC are used to segment the belt wedge point cloud datas of cloud data of the PK type automotive V-ribbed belt collected by line laser displacement sensor. Compare\n segmentation results, Facts prove that the improved RANSAC algorithm has better segmentation effect, the proportion of plane points h is increased by 7.5%."}, {"paperId": "a6cd50aaddfe92ea1177f58532272f17c519fbe4", "externalIds": {"ArXiv": "2402.00692", "DBLP": "journals/corr/abs-2402-00692", "DOI": "10.48550/arXiv.2402.00692", "CorpusId": 267365218}, "title": "A Framework for Building Point Cloud Cleaning, Plane Detection and Semantic Segmentation", "venue": "arXiv.org", "year": 2024, "citationCount": 2, "openAccessPdf": {"url": "", "status": null, "license": null, "disclaimer": "Notice: Paper or abstract available at https://arxiv.org/abs/2402.00692, which is subject to the license by the author or copyright owner provided with this content. Please go to the source to verify the license and copyright information for your use."}, "publicationTypes": ["JournalArticle"], "authors": [{"authorId": "1899555", "name": "Ilyass Abouelaziz"}, {"authorId": "3415332", "name": "Youssef Mourchid"}], "abstract": "This paper presents a framework to address the challenges involved in building point cloud cleaning, plane detection, and semantic segmentation, with the ultimate goal of enhancing building modeling. We focus in the cleaning stage on removing outliers from the acquired point cloud data by employing an adaptive threshold technique based on z-score measure. Following the cleaning process, we perform plane detection using the robust RANSAC paradigm. The goal is to carry out multiple plane segmentations, and to classify segments into distinct categories, such as floors, ceilings, and walls. The resulting segments can generate accurate and detailed point clouds representing the building's architectural elements. Moreover, we address the problem of semantic segmentation, which plays a vital role in the identification and classification of different components within the building, such as walls, windows, doors, roofs, and objects. Inspired by the PointNet architecture, we propose a deep learning architecture for efficient semantic segmentation in buildings. The results demonstrate the effectiveness of the proposed framework in handling building modeling tasks, paving the way for improved accuracy and efficiency in the field of building modelization."}, {"paperId": "d432ac607bacef53254df3dc115dc7cc69883162", "externalIds": {"MAG": "3193754631", "DOI": "10.46300/9106.2021.15.104", "CorpusId": 238679422}, "title": "Ground Segmentation Algorithm of Lidar Point Cloud Based on Ray-Ransac", "venue": "International Journal of Circuits, Systems and Signal Processing", "year": 2021, "citationCount": 3, "openAccessPdf": {"url": "https://doi.org/10.46300/9106.2021.15.104", "status": "GOLD", "license": "publisher-specific, author manuscript", "disclaimer": "Notice: Paper or abstract available at https://api.unpaywall.org/v2/10.46300/9106.2021.15.104?email=<INSERT_YOUR_EMAIL> or https://doi.org/10.46300/9106.2021.15.104, which is subject to the license by the author or copyright owner provided with this content. Please go to the source to verify the license and copyright information for your use."}, "publicationTypes": null, "authors": [{"authorId": "9083639", "name": "Yawei Zhao"}, {"authorId": "2108157072", "name": "Yanju Liu"}, {"authorId": "2152847054", "name": "Yang Yu"}, {"authorId": "2354605177", "name": "Jiawei Zhou"}], "abstract": "Aiming at the problems of poor segmentation effect, low efficiency and poor robustness of the Ransac ground segmentation algorithm, this paper proposes a radar segmentation algorithm based on Ray-Ransac. This algorithm combines the structural characteristics of three-dimensional lidar and uses ray segmentation to generate the original seed point set. The random sampling of Ransac algorithm is limited to the original seed point set, which reduces the probability that Ransac algorithm extracts outliers and reduces the calculation. The Ransac algorithm is used to modify the ground model parameters so that the algorithm can adapt to the undulating roads. The standard deviation of the distance from the point to the plane model is used as the distance threshold, and the allowable error range of the actual point cloud data is considered to effectively eliminate the abnormal points and error points. The algorithm was tested on the simulation platform and the test vehicle. The experimental results show that the lidar point cloud ground segmentation algorithm proposed in this paper takes an average of 5.784 milliseconds per frame, which has fast speed and good precision. It can adapt to uneven road surface and has high robustness."}, {"paperId": "57c070c4ee20eb730699b8277c6559fe88dc0862", "externalIds": {"DOI": "10.1117/12.3084363", "CorpusId": 281626510}, "title": "Optimization segmentation method for roof surface point cloud based on RANSACN and regional growth", "venue": "International Conference on Remote Sensing, Mapping, and Geographic Systems", "year": 2025, "citationCount": 0, "openAccessPdf": {"url": "", "status": null, "license": null, "disclaimer": "Notice: Paper or abstract available at https://api.unpaywall.org/v2/10.1117/12.3084363?email=<INSERT_YOUR_EMAIL> or https://doi.org/10.1117/12.3084363, which is subject to the license by the author or copyright owner provided with this content. Please go to the source to verify the license and copyright information for your use."}, "publicationTypes": ["Conference"], "authors": [{"authorId": "2297809301", "name": "Kejie Zhang"}], "abstract": "The accurate segmentation of roof point cloud will directly affect the quality of building model reconstruction. Because of the complexity of building roof structure, the uneven distribution of point cloud density obtained by lidar, and the interference of external environment, it is very difficult to accurately segment the point cloud on the roof. In order to improve the quality of point cloud segmentation, this paper proposes a joint optimization method of region growth and RANSAC for Airborne LIDAR point cloud segmentation. Firstly, the point cloud is voxeled, and the normal vector and curvature of the point cloud are calculated based on principal component analysis (PCA). After setting the correlation threshold, the region growing algorithm is used to extract the initial reliable patch. Then, RANSAC algorithm is used to regularize the irregular or deviation areas in the extracted patch, optimize and set new roof surface parameters. Finally, for the unclassified points, the Euclidean distance to each plane is calculated. According to the minimum distance principle and the set distance threshold, they are classified to the corresponding roof surface, and the segmentation results are refined. Tests on several representative building point clouds show that this method significantly improves the accuracy, recall and overall accuracy of roof point cloud segmentation, and provides high-quality basic data for building 3D model reconstruction"}]}
