{"total": 294, "offset": 0, "next": 10, "data": [{"paperId": "0188b86fa6a6a23b1cff9f7aea85f67cbf790ad8", "externalIds": {"DBLP": "journals/access/LiWL23", "DOI": "10.1109/ACCESS.2023.3285713", "CorpusId": 259160211}, "title": "3D Reconstruction and Volume Estimation of Jujube Using Consumer-Grade RGB-Depth Sensor", "venue": "IEEE Access", "year": 2023, "citationCount": 10, "openAccessPdf": {"url": "https://ieeexplore.ieee.org/ielx7/6287639/10005208/10149328.pdf", "status": "GOLD", "license": "CCBYNCND", "disclaimer": "Notice: Paper or abstract available at https://api.unpaywall.org/v2/10.1109/ACCESS.2023.3285713?email=<INSERT_YOUR_EMAIL> or https://doi.org/10.1109/ACCESS.2023.3285713, which is subject to the license by the author or copyright owner provided with this content. Please go to the source to verify the license and copyright information for your use."}, "publicationTypes": ["JournalArticle"], "authors": [{"authorId": "46276037", "name": "Jun Yu Li"}, {"authorId": "2395739223", "name": "Mingqing Wu"}, {"authorId": "2220676817", "name": "Hengzheng Li"}], "abstract": "In order to solve the problem of three-dimensional (3D) feature measurement in grading of jujubes, a volume and surface area measurement method based on 3D point cloud registration and reconstruction was proposed. First, use the RGB-D camera to collect the multi angle point cloud data of jujubes and perform filtering processing on it. Then, the Random Sample Consensus (RANSAC) algorithm was used to fit the plane and cylinder. After fitting, divide and remove the plane point cloud, obtain the central axis parameters of the cylinder, rotate the jujube around the central axis of the cylinder at a fixed angle, and collect the images of jujube from the same perspective, The Fast Point Feature Histogram (FPFH) and Sample Consciousness Initial Alignment (SAC-IA) algorithms were used to complete the 1/4 point cloud registration, the point to surface Iterative Closest Point (ICP) algorithm is used to complete the entire 1/2 registration, and the reconstructed jujube point cloud model is intercepted by the pass through algorithm. Finally, the jujubes point cloud model was smoothed and was filled of holes. The 3D coordinate method and convex hull method were used to calculate the jujube volume surface area. The correlation coefficients of the volume were 74.4 % and 74.5 %, and the correlation coefficients of the surface area was 83.2 % and 77.7 %. The experimental results show that this method can effectively calculate the 3D characteristic parameters of jujube, and can provide a reference for phenotype measurement and classification of jujube."}, {"paperId": "89e25971c7dfad6729a50625ab3957d1dd2cadcb", "externalIds": {"MAG": "1980967702", "DOI": "10.1007/3DRES.03(2010)06", "CorpusId": 45415308}, "title": "Automatic scan registration using 3D linear and planar features", "venue": "", "year": 2010, "citationCount": 38, "openAccessPdf": {"url": "", "status": "CLOSED", "license": null, "disclaimer": "Notice: The following paper fields have been elided by the publisher: {'abstract'}. Paper or abstract available at https://api.unpaywall.org/v2/10.1007/3DRES.03(2010)06?email=<INSERT_YOUR_EMAIL> or https://doi.org/10.1007/3DRES.03(2010)06, which is subject to the license by the author or copyright owner provided with this content. Please go to the source to verify the license and copyright information for your use."}, "publicationTypes": null, "authors": [{"authorId": "114689671", "name": "Jian Yao"}, {"authorId": "2785958", "name": "M. Ruggeri"}, {"authorId": "40341757", "name": "P. Taddei"}, {"authorId": "2511503", "name": "V. Sequeira"}], "abstract": null}, {"paperId": "f395b5fdf4a268fb332dfa30b68c224a61134375", "externalIds": {"MAG": "2263841870", "DBLP": "journals/remotesensing/LiuTCLSXCJY16", "DOI": "10.3390/rs8020082", "CorpusId": 15631466}, "title": "A Linear Feature-Based Approach for the Registration of Unmanned Aerial Vehicle Remotely-Sensed Images and Airborne LiDAR Data", "venue": "Remote Sensing", "year": 2016, "citationCount": 39, "openAccessPdf": {"url": "https://www.mdpi.com/2072-4292/8/2/82/pdf?version=1453711287", "status": "GOLD", "license": "CCBY", "disclaimer": "Notice: Paper or abstract available at https://api.unpaywall.org/v2/10.3390/rs8020082?email=<INSERT_YOUR_EMAIL> or https://doi.org/10.3390/rs8020082, which is subject to the license by the author or copyright owner provided with this content. Please go to the source to verify the license and copyright information for your use."}, "publicationTypes": ["JournalArticle"], "authors": [{"authorId": "2023843151", "name": "Shijie Liu"}, {"authorId": "1681978", "name": "X. Tong"}, {"authorId": null, "name": "Jie Chen"}, {"authorId": "48032404", "name": "Xiangfeng Liu"}, {"authorId": "9701365", "name": "Wenzheng Sun"}, {"authorId": "144522097", "name": "Huan Xie"}, {"authorId": "49490637", "name": "Peng Chen"}, {"authorId": "2157835887", "name": "Yanmin Jin"}, {"authorId": "145307599", "name": "Z. Ye"}], "abstract": "Compared with traditional manned airborne photogrammetry, unmanned aerial vehicle remote sensing (UAVRS) has the advantages of lower cost and higher flexibility in data acquisition. It has, therefore, found various applications in fields such as three-dimensional (3D) mapping, emergency management, and so on. However, due to the instability of the UAVRS platforms and the low accuracy of the onboard exterior orientation (EO) observations, the use of direct georeferencing image data leads to large location errors. Light detection and ranging (LiDAR) data, which is highly accurate 3D information, is treated as a complementary data source to the optical images. This paper presents a semi-automatic approach for the registration of UAVRS images and airborne LiDAR data based on linear control features. The presented approach consists of three main components, as follows. (1) Buildings are first separated from the point cloud by the integrated use of height and size filtering and RANdom SAmple Consensus (RANSAC) plane fitting, and the 3D line segments of the building ridges and boundaries are semi-automatically extracted through plane intersection and boundary regularization with manual selections; (2) the 3D line segments are projected to the image space using the initial EO parameters to obtain the approximate locations, and all the corresponding 2D line segments are semi-automatically extracted from the UAVRS images. Meanwhile, the tie points of the UAVRS images are generated using a Forstner operator and least-squares image matching; and (3) by use of the equations derived from the coplanarity constraints of the linear control features and the colinear constraints of the tie points, block bundle adjustment is carried out to update the EO parameters of the UAVRS images in the coordinate framework of the LiDAR data, achieving the co-registration of the two datasets. Experiments were performed to demonstrate the validity and effectiveness of the presented method, and a comparison with the traditional registration method based on LiDAR intensity images showed that the presented method is more accurate, and a sub-pixel accuracy level can be achieved."}, {"paperId": "0062cda172919a68bde181f6fbd8cbe07bb34f6a", "externalIds": {"CorpusId": 44816378, "PubMed": "25333124"}, "title": "Histology to microCT data matching using landmarks and a density biased RANSAC.", "venue": "International Conference on Medical Image Computing and Computer-Assisted Intervention", "year": 2014, "citationCount": 5, "openAccessPdf": {"url": "", "status": null, "license": null}, "publicationTypes": ["JournalArticle", "Conference"], "authors": [{"authorId": "48665665", "name": "N. Chicherova"}, {"authorId": "1754232", "name": "K. Fundana"}, {"authorId": "143729816", "name": "B. M\u00fcller"}, {"authorId": "1692368", "name": "P. Cattin"}], "abstract": null}, {"paperId": "b8be10cd536d025061e2c590ce9f72eb477a3586", "externalIds": {"CorpusId": 199602365}, "title": "Multi-modal matching of 2 D images with 3 D medical data", "venue": "", "year": 2018, "citationCount": 0, "openAccessPdf": {"url": "", "status": null, "license": null, "disclaimer": "Notice: The following paper fields have been elided by the publisher: {'abstract'}. Paper or abstract available at https://edoc.unibas.ch/65136/1/thesis.pdf, which is subject to the license by the author or copyright owner provided with this content. Please go to the source to verify the license and copyright information for your use."}, "publicationTypes": null, "authors": [{"authorId": "2055668861", "name": "T. Jung"}, {"authorId": "145051740", "name": "A. Maier"}], "abstract": null}, {"paperId": "350b08f6e8fc69108e5bd6f28242e45ac0628beb", "externalIds": {"DOI": "10.1109/IBCAST51254.2021.9393166", "CorpusId": 233262310}, "title": "RGB-D Images for Objects Recognition using 3D Point Clouds and RANSAC Plane Fitting", "venue": "International Bhurban Conference on Applied Sciences and Technology", "year": 2021, "citationCount": 61, "openAccessPdf": {"url": "", "status": null, "license": null, "disclaimer": "Notice: Paper or abstract available at https://api.unpaywall.org/v2/10.1109/IBCAST51254.2021.9393166?email=<INSERT_YOUR_EMAIL> or https://doi.org/10.1109/IBCAST51254.2021.9393166, which is subject to the license by the author or copyright owner provided with this content. Please go to the source to verify the license and copyright information for your use."}, "publicationTypes": ["Conference"], "authors": [{"authorId": "2310478401", "name": "Ahmad Jalal"}, {"authorId": "2077525353", "name": "M. Sarwar"}, {"authorId": "2110007038", "name": "Kibum Kim"}], "abstract": "in this paper, we highlighted object localization and recognition using RGB-D images that is top of RGB scenarios and provide semantically richer pixel-level support aps for individual object. Indeed, depth information levels with disparity-range of various objects in an image are used to extract objects of interest. Using proposed methodology, we extract point clouds from a depth image to proper plane fitting using Random Sample Consensus (RANSAC). RANSAC is challenging to handle the contour with thin edges. After local segmentation, we extracts various features like HOG and shape cues values to explore spatial properties of each object class. For object classification, we applied two well-known classifiers i.e., random forest (RF) and linear SVM. In the experimental evaluation, we achieved a gain of 16% relative improvement over current state-of-the-art methods. The proposed architecture can be used in autonomous cars, traffic monitoring and sports scenes."}, {"paperId": "6260b87aa5cb6bc83f8d76c7aaef432527f26d6d", "externalIds": {"DBLP": "journals/access/DaoTNLN25", "DOI": "10.1109/ACCESS.2025.3567621", "CorpusId": 278419819}, "title": "gTRAVEL+: Enhancing Ground Segmentation for 3D Point Cloud With Temporal Noise Removal and Adaptive Plane Fitting for Urban and Off-Road Environments", "venue": "IEEE Access", "year": 2025, "citationCount": 1, "openAccessPdf": {"url": "https://doi.org/10.1109/access.2025.3567621", "status": "GOLD", "license": "CCBY", "disclaimer": "Notice: Paper or abstract available at https://api.unpaywall.org/v2/10.1109/ACCESS.2025.3567621?email=<INSERT_YOUR_EMAIL> or https://doi.org/10.1109/ACCESS.2025.3567621, which is subject to the license by the author or copyright owner provided with this content. Please go to the source to verify the license and copyright information for your use."}, "publicationTypes": ["JournalArticle"], "authors": [{"authorId": "2316758445", "name": "Truong Giang Dao"}, {"authorId": "10799620", "name": "D. Tran"}, {"authorId": "33545501", "name": "Duc Manh Nguyen"}, {"authorId": "2178376308", "name": "Joo-Ho Lee"}, {"authorId": "2190964105", "name": "A. Q. Nguyen"}], "abstract": "Ground segmentation plays an increasingly important role as a preprocessing module for numerous applications such as Simultaneous Localization and Mapping (SLAM), place recognition, and point cloud registration. The efficiency and accuracy of ground segmentation can directly influence the performance of these applications. While several methods have been proposed, they continue to struggle to meet the comprehensive requirements of robust ground segmentation. To this end, we propose a ground segmentation method called gTRAVEL+, an improvement of TRAVEL that focuses exclusively on enhancing ground segmentation performance. Our method exploits a temporal and locally-aware noise removal strategy, termed Temporal Node-Wise Noise Removal (TNNR), which effectively eliminates noise points that compromise the ground plane fitting process. Additionally, Merge Node Plane Fitting (MNPF) is proposed to address issues of partial under-segmentation arising from suboptimal region sizing. Finally, Rejected Ground Node Revert (RNGR) ensures thorough geometric relationship verification, significantly improving true positives. Quantitative and qualitative experiments conducted on both urban and off-road environments show that our proposed method demonstrates superior performance, achieving a ${F} {_{{1}}}$ -score of 95.16% and competitive speed compared to state-of-the-art methods."}, {"paperId": "9855f5317fdb3c0ab0e3e0936d64e6770e79b1b7", "externalIds": {"DBLP": "journals/tvt/FanJK20", "MAG": "3107148370", "DOI": "10.1109/TVT.2020.3040014", "CorpusId": 229632721}, "title": "Highly Accurate Scale Estimation from Multiple Keyframes Using RANSAC Plane Fitting With a Novel Scoring Method", "venue": "IEEE Transactions on Vehicular Technology", "year": 2020, "citationCount": 14, "openAccessPdf": {"url": "", "status": null, "license": null, "disclaimer": "Notice: Paper or abstract available at https://api.unpaywall.org/v2/10.1109/TVT.2020.3040014?email=<INSERT_YOUR_EMAIL> or https://doi.org/10.1109/TVT.2020.3040014, which is subject to the license by the author or copyright owner provided with this content. Please go to the source to verify the license and copyright information for your use."}, "publicationTypes": ["JournalArticle"], "authors": [{"authorId": "3274226", "name": "Ming-Ying Fan"}, {"authorId": "30993544", "name": "Seung\u2010Won Jung"}, {"authorId": "7021627", "name": "Sung-Jea Ko"}], "abstract": "Due to the projective nature of a single camera, monocular visual simultaneous localization and mapping (vSLAM) algorithms suffer from scale drift. Recent studies have addressed the scale drift by estimating the height of the camera from the fitted ground plane. However, the low accuracy of 3D ground point (3DGP) reconstruction and the insufficient number of 3DGPs from the textureless ground region make the fitted plane inaccurate for scale estimation. In this paper, we introduce a novel accuracy measure of the fitted plane. From the previous keyframe, we first obtain the 3D points from the intersection of the fitted plane with a ray passing through the camera center and the 2D feature points on the ground region. We then transform the 3D points and 2D feature points to the current keyframe using their respective planar homography. Finally, we project the transformed 3D points onto the image plane of the current keyframe and measure the average Euclidean distance between the projected points and the transformed feature points. The proposed method achieves the average translation error of 1.03% on the KITTI dataset, which outperforms the state-of-the-art monocular vSLAM methods."}, {"paperId": "a233840a257731b6b585c6e89adf2133ab551f0d", "externalIds": {"DOI": "10.1364/josaa.579923", "CorpusId": 284195986, "PubMed": "41841943"}, "title": "Weld seam recognition algorithm based on a fast\u00a0point cloud plane fitting method.", "venue": "Journal of The Optical Society of America A-optics Image Science and Vision", "year": 2025, "citationCount": 0, "openAccessPdf": {"url": "", "status": null, "license": null, "disclaimer": "Notice: Paper or abstract available at https://api.unpaywall.org/v2/10.1364/josaa.579923?email=<INSERT_YOUR_EMAIL> or https://doi.org/10.1364/josaa.579923, which is subject to the license by the author or copyright owner provided with this content. Please go to the source to verify the license and copyright information for your use."}, "publicationTypes": ["JournalArticle"], "authors": [{"authorId": "2244589711", "name": "Xingyu Gao"}, {"authorId": "2258552923", "name": "Xi Xiong"}, {"authorId": "2193663934", "name": "Weiming Li"}, {"authorId": "2194773985", "name": "Shuibiao Chen"}, {"authorId": "2259755891", "name": "Yu Li"}], "abstract": "Aiming at the problems of low accuracy and slow speed of existing point cloud weld extraction algorithms in 3D vision-based robotic intelligent welding, this study proposes a novel, to our knowledge, three-stage automatic point cloud weld extraction method. In the plane segmentation stage, the random sample consensus (RANSAC) algorithm is improved: by narrowing the selection range of sampling points to the local neighborhood and optimizing neighborhood construction with dynamic curvature detection, the efficiency of plane fitting is enhanced. In the feature point extraction stage, based on plane parameters, the plane intersection line method and distance threshold method are adopted to obtain weld seam feature points. In the curve fitting stage, farthest point sampling (FPS) is used to denoise and resample the feature points, and then the weld curve is fitted to achieve high-precision contour reconstruction. Experiments show that the method exhibits high efficiency, robustness, and engineering adaptability."}, {"paperId": "c8776f08a617c4d08024cad9c69475816225b0d1", "externalIds": {"DOI": "10.1109/CISP-BMEI68103.2025.11259348", "CorpusId": 283469954}, "title": "High-Precision Fingertip Touch Detection in Human-Computer Interaction Based on RGB-D Plane Fitting", "venue": "2025 18th International Congress on Image and Signal Processing, BioMedical Engineering and Informatics (CISP-BMEI)", "year": 2025, "citationCount": 0, "openAccessPdf": {"url": "", "status": null, "license": null, "disclaimer": "Notice: Paper or abstract available at https://api.unpaywall.org/v2/10.1109/CISP-BMEI68103.2025.11259348?email=<INSERT_YOUR_EMAIL> or https://doi.org/10.1109/CISP-BMEI68103.2025.11259348, which is subject to the license by the author or copyright owner provided with this content. Please go to the source to verify the license and copyright information for your use."}, "publicationTypes": null, "authors": [{"authorId": "2380573806", "name": "Gege Wang"}, {"authorId": "2276803284", "name": "Xinyao Tong"}, {"authorId": "2630515", "name": "Yanyu Lu"}, {"authorId": "2306873917", "name": "Shan Fu"}], "abstract": "Fingertip touch detection, as a crucial method for human-computer interaction behavior analysis, provides a solid theoretical foundation for understanding human behaviors and optimizing interface design by analyzing user interaction patterns with devices. However, traditional fingertip touch detection methods often suffer from discrepancies between the actual contact position and the detected position, which limits detection accuracy. This paper proposes an RGB-D-based fingertip touch plane fitting method to eliminate detection deviations and achieve high-precision fingertip touch detection. The study first employs the RANSAC algorithm to perform a plane fitting on a precollected 3D point set of fingertip trajectories adhering to the screen surface, thereby constructing a touch-plane model. During actual detection, the touch state is determined by computing the perpendicular distance between the fingertip coordinates and the fitted plane. Experimental results demonstrate that the proposed method effectively corrects detection deviations and exhibits strong adaptability and robustness under varying camera angles, providing essential technical support for high-precision fingertip touch detection."}]}
