{"total": 5386, "offset": 0, "next": 10, "data": [{"paperId": "801c2b334c0b361a9f3482ac146df77af4fb5e23", "externalIds": {"DOI": "10.3390/machines13090809", "CorpusId": 281162346}, "title": "Adaptive PCA-Based Normal Estimation for Automatic Drilling System of Large-Curvature Aerospace Components", "venue": "Machines", "year": 2025, "citationCount": 3, "openAccessPdf": {"url": "", "status": null, "license": null, "disclaimer": "Notice: Paper or abstract available at https://api.unpaywall.org/v2/10.3390/machines13090809?email=<INSERT_YOUR_EMAIL> or https://doi.org/10.3390/machines13090809, which is subject to the license by the author or copyright owner provided with this content. Please go to the source to verify the license and copyright information for your use."}, "publicationTypes": ["JournalArticle"], "authors": [{"authorId": "2344829509", "name": "Hailong Yang"}, {"authorId": "2345880564", "name": "Renzhi Gao"}, {"authorId": "2357327809", "name": "Baorui Du"}, {"authorId": "2379349217", "name": "Yu Bai"}, {"authorId": "2407639449", "name": "Yingwei Qi"}], "abstract": "AI-integrated robotics in Industry 5.0 demands advanced manufacturing systems capable of autonomously interpreting complex geometries and dynamically adjusting machining strategies in real time\u2014particularly when dealing with aerospace components featuring large-curvature surfaces. Large-curvature aerospace components present significant challenges for precision drilling due to surface-normal deviations caused by curvature, roughness, and thin-wall deformation. This study presents a robotic drilling system that integrates adaptive PCA-based surface normal estimation with in-process pre-drilling correction and post-drilling verification. This system integrates a 660 nm wavelength linear laser projector and a 1.3-megapixel industrial camera arranged at a fixed 30\u00b0 angle, which project and capture structured-light fringes. Based on triangulation, high-resolution point clouds are reconstructed for precise surface analysis. By adaptively selecting localized point-cloud regions during machining, the proposed algorithm converts raw measurements into precise normal vectors, thereby achieving an accurate solution of the normal direction of the surface of large curvature parts. Experimental validation on a 400 mm-diameter cylinder shows that using point clouds within a 100 mm radius yields deviations within an acceptable range of theoretical normals, demonstrating both high precision and reliability. Moreover, experiments on cylindrical aerospace-grade specimens demonstrate normal direction accuracy \u2264 0.2\u00b0 and hole position error \u2264 0.25 mm, maintained across varying curvature radii and roughness levels. The research will make up for the shortcomings of existing manual drilling methods, improve the accuracy of hole-making positions, and meet the high fatigue service needs of aerospace and other industries. This system is significant in promoting the development of industrial automation and improving the productivity of enterprises by improving drilling precision and repeatability, enabling reliable assembly of high-curvature aerospace structures within stringent tolerance requirements."}, {"paperId": "14e4828fa3b48835a6b6ef4033a3dad9890b881b", "externalIds": {"DOI": "10.1109/ICAACE69793.2026.11508844", "CorpusId": 288188014}, "title": "Robust Point Cloud Registration via Adaptive Hierarchical Segmentation", "venue": "2026 9th International Conference on Advanced Algorithms and Control Engineering (ICAACE)", "year": 2026, "citationCount": 0, "openAccessPdf": {"url": "", "status": null, "license": null, "disclaimer": "Notice: Paper or abstract available at https://api.unpaywall.org/v2/10.1109/ICAACE69793.2026.11508844?email=<INSERT_YOUR_EMAIL> or https://doi.org/10.1109/ICAACE69793.2026.11508844, which is subject to the license by the author or copyright owner provided with this content. Please go to the source to verify the license and copyright information for your use."}, "publicationTypes": ["Conference"], "authors": [{"authorId": "2310362131", "name": "Jun Yang"}, {"authorId": "2434467621", "name": "Kangyou Cui"}, {"authorId": "2214979919", "name": "Weijun Wang"}, {"authorId": "66469358", "name": "Cheng-Chen Yang"}], "abstract": "In the field of three-dimensional inspection and monitoring of large-scale industrial components, point cloud registration technology faces multiple challenges including large initial pose deviations, degraded geometric constraints, and low data overlap rates. Although the traditional Iterative Closest Point (ICP) algorithm performs excellently under ideal conditions, it is prone to falling into local optima when processing components such as wind turbine blades that exhibit significant length-towidth ratios and - surface features. To address these issues, this study proposes a robust registration method based on an adaptive hierarchical strategy. This method innovatively constructs a multidimensional attribute evaluation system, quantifying the sphericity and normal vector variation rate of point clouds through Principal Component Analysis (PCA) to characterize geometric complexity. Additionally, it introduces factors such as mirror symmetry measurement, overlap volume estimation, and point cloud density assessment to dynamically determine the optimal number of segments. Experimental results demonstrate that under extreme conditions including large-angle rotation (90\u00b0), axial sliding (20% of full length), and low overlap rate $(40 {\\%})$, the Root Mean Square Error (RMSE) of the proposed algorithm remains at the sub-centimeter level, significantly outperforming mainstream registration algorithms such as RANSAC, FGR, and SANDRO. This research provides reliable technical support for high-precision three-dimensional reconstruction and deformation monitoring of large-scale complex industrial components."}, {"paperId": "0f499ee5da706126a8cc85f012be1b3a5172d559", "externalIds": {"MAG": "2019535803", "DOI": "10.1117/12.2050108", "CorpusId": 121573780}, "title": "Robust normal estimation of point cloud with sharp features via subspace clustering", "venue": "International Conference on Graphic and Image Processing", "year": 2014, "citationCount": 6, "openAccessPdf": {"url": "", "status": "CLOSED", "license": null, "disclaimer": "Notice: The following paper fields have been elided by the publisher: {'abstract'}. Paper or abstract available at https://api.unpaywall.org/v2/10.1117/12.2050108?email=<INSERT_YOUR_EMAIL> or https://doi.org/10.1117/12.2050108, which is subject to the license by the author or copyright owner provided with this content. Please go to the source to verify the license and copyright information for your use."}, "publicationTypes": ["Conference"], "authors": [{"authorId": "2111741798", "name": "Pei Luo"}, {"authorId": "144787254", "name": "Zhuangzhi Wu"}, {"authorId": "2056987092", "name": "Chunhe Xia"}, {"authorId": "2117841863", "name": "Lu Feng"}, {"authorId": "2142639044", "name": "Bo Jia"}], "abstract": null}, {"paperId": "7d62ab973920d33bb3ef42e3f6dadaa05a772b4f", "externalIds": {"MAG": "2530472562", "CorpusId": 53477503}, "title": "Terrain Traversability Analysis using Organized Point Cloud, Superpixel Surface Normals-based segmentation and PCA-based Classification", "venue": "", "year": 2014, "citationCount": 5, "openAccessPdf": {"url": "", "status": null, "license": null, "disclaimer": "Notice: The following paper fields have been elided by the publisher: {'abstract'}. Paper or abstract available at https://agrosy.informatik.uni-kl.de/fileadmin/Literatur/Dargazany14.pdf, which is subject to the license by the author or copyright owner provided with this content. Please go to the source to verify the license and copyright information for your use."}, "publicationTypes": null, "authors": [{"authorId": "2686685", "name": "Aras R. Dargazany"}, {"authorId": "145841965", "name": "K. Berns"}], "abstract": null}, {"paperId": "8d942699ad631ca5dd615ad836e6536e7bb37123", "externalIds": {"MAG": "2322138768", "DOI": "10.1115/DETC2015-46484", "CorpusId": 125070205}, "title": "A Novel Method of Normal Estimation for 3D Surface Reconstruction", "venue": "", "year": 2015, "citationCount": 2, "openAccessPdf": {"url": "", "status": "CLOSED", "license": null, "disclaimer": "Notice: The following paper fields have been elided by the publisher: {'abstract'}. Paper or abstract available at https://api.unpaywall.org/v2/10.1115/DETC2015-46484?email=<INSERT_YOUR_EMAIL> or https://doi.org/10.1115/DETC2015-46484, which is subject to the license by the author or copyright owner provided with this content. Please go to the source to verify the license and copyright information for your use."}, "publicationTypes": null, "authors": [{"authorId": "2115846359", "name": "Xiaoyang Yuan"}, {"authorId": "37805305", "name": "Q. Peng"}, {"authorId": "2095530839", "name": "Wu Lushen"}, {"authorId": "31003061", "name": "Chen Huawei"}], "abstract": null}, {"paperId": "2a52d6c7a2770c84be9e76cc4c3ad649248ad27d", "externalIds": {"MAG": "57283666", "DBLP": "books/daglib/p/CastilloLZ13", "DOI": "10.1007/978-3-642-34141-0_13", "CorpusId": 10818691}, "title": "Point Cloud Segmentation and Denoising via Constrained Nonlinear Least Squares Normal Estimates", "venue": "Innovations for Shape Analysis, Models and Algorithms", "year": 2013, "citationCount": 59, "openAccessPdf": {"url": "", "status": "CLOSED", "license": null, "disclaimer": "Notice: The following paper fields have been elided by the publisher: {'abstract'}. Paper or abstract available at https://api.unpaywall.org/v2/10.1007/978-3-642-34141-0_13?email=<INSERT_YOUR_EMAIL> or https://doi.org/10.1007/978-3-642-34141-0_13, which is subject to the license by the author or copyright owner provided with this content. Please go to the source to verify the license and copyright information for your use."}, "publicationTypes": null, "authors": [{"authorId": "143699774", "name": "E. Castillo"}, {"authorId": "152421148", "name": "Jian Liang"}, {"authorId": "40351551", "name": "Hongkai Zhao"}], "abstract": null}, {"paperId": "0294982c322c43fd078d5916d13bcf3c2da0c761", "externalIds": {"DBLP": "conf/icip/GilaniAL16", "MAG": "2514945547", "DOI": "10.1109/ICIP.2016.7532479", "CorpusId": 13996362}, "title": "Robust building roof segmentation using airborne point cloud data", "venue": "International Conference on Information Photonics", "year": 2016, "citationCount": 18, "openAccessPdf": {"url": "", "status": "CLOSED", "license": null, "disclaimer": "Notice: The following paper fields have been elided by the publisher: {'abstract'}. Paper or abstract available at https://api.unpaywall.org/v2/10.1109/ICIP.2016.7532479?email=<INSERT_YOUR_EMAIL> or https://doi.org/10.1109/ICIP.2016.7532479, which is subject to the license by the author or copyright owner provided with this content. Please go to the source to verify the license and copyright information for your use."}, "publicationTypes": ["JournalArticle", "Conference"], "authors": [{"authorId": "32498456", "name": "Syed Ali Naqi Gilani"}, {"authorId": "2136284", "name": "M. Awrangjeb"}, {"authorId": "1748411", "name": "Guojun Lu"}], "abstract": null}, {"paperId": "d8888ba32b25f7aaed84baeed329b66108ebdb88", "externalIds": {"MAG": "2097292888", "DOI": "10.1109/3DTV.2011.5877161", "CorpusId": 21412967}, "title": "Self-adaptive normal estimation and position adjustment for MVS reconstruction", "venue": "2011 3DTV Conference: The True Vision - Capture, Transmission and Display of 3D Video (3DTV-CON)", "year": 2011, "citationCount": 0, "openAccessPdf": {"url": "", "status": "CLOSED", "license": null, "disclaimer": "Notice: The following paper fields have been elided by the publisher: {'abstract'}. Paper or abstract available at https://api.unpaywall.org/v2/10.1109/3DTV.2011.5877161?email=<INSERT_YOUR_EMAIL> or https://doi.org/10.1109/3DTV.2011.5877161, which is subject to the license by the author or copyright owner provided with this content. Please go to the source to verify the license and copyright information for your use."}, "publicationTypes": ["Conference"], "authors": [{"authorId": "2114898867", "name": "Yanjun Qian"}, {"authorId": "144954808", "name": "Qionghai Dai"}, {"authorId": "2160553", "name": "Guihua Er"}], "abstract": null}, {"paperId": "72c6a44c84424d885f3fe35bbdaf8cc1457ad5f9", "externalIds": {"DBLP": "journals/tog/HuangLZAC09", "MAG": "1988317275", "DOI": "10.1145/1661412.1618522", "CorpusId": 5213506}, "title": "Consolidation of unorganized point clouds for surface reconstruction", "venue": "ACM Transactions on Graphics", "year": 2009, "citationCount": 517, "openAccessPdf": {"url": "http://www.cs.sfu.ca/~haoz/pubs/siga09_consolidater_reduced.pdf", "status": "CLOSED", "license": null, "disclaimer": "Notice: The following paper fields have been elided by the publisher: {'abstract'}. Paper or abstract available at https://api.unpaywall.org/v2/10.1145/1661412.1618522?email=<INSERT_YOUR_EMAIL> or https://doi.org/10.1145/1661412.1618522, which is subject to the license by the author or copyright owner provided with this content. Please go to the source to verify the license and copyright information for your use."}, "publicationTypes": ["JournalArticle", "Book"], "authors": [{"authorId": "40586368", "name": "Hui Huang"}, {"authorId": "2150383243", "name": "Dan Li"}, {"authorId": "2144612291", "name": "Hao Zhang"}, {"authorId": "1966230", "name": "U. Ascher"}, {"authorId": "1388323541", "name": "D. Cohen-Or"}], "abstract": null}, {"paperId": "969c44b7d4f4ecb659c9040ea4fb4adeaeada26e", "externalIds": {"MAG": "2784917123", "CorpusId": 65483473}, "title": "Plane fitting methods of LiDAR point cloud", "venue": "", "year": 2008, "citationCount": 14, "openAccessPdf": {"url": "", "status": null, "license": null, "disclaimer": "Notice: The following paper fields have been elided by the publisher: {'abstract'}. Paper or abstract available at http://pdi.topografia.upm.es/an_dom/Doctorado/lidaryestrobusta.pdf, which is subject to the license by the author or copyright owner provided with this content. Please go to the source to verify the license and copyright information for your use."}, "publicationTypes": null, "authors": [{"authorId": "2144640827", "name": "Chien-Ming Huang"}, {"authorId": "31996673", "name": "Y. Tseng"}], "abstract": null}]}
