{"total": 4497, "offset": 0, "next": 10, "data": [{"paperId": "aa4707885727a7c773d3fc0c60f6f6b8eb1e685b", "externalIds": {"DBLP": "journals/sensors/WangFJJWH24", "PubMedCentral": "11398225", "DOI": "10.3390/s24175693", "CorpusId": 272362491, "PubMed": "39275604"}, "title": "The Improvement of Density Peaks Clustering Algorithm and Its Application to Point Cloud Segmentation of LiDAR", "venue": "Italian National Conference on Sensors", "year": 2024, "citationCount": 3, "openAccessPdf": {"url": "https://doi.org/10.3390/s24175693", "status": "GOLD", "license": "CCBY", "disclaimer": "Notice: Paper or abstract available at https://pmc.ncbi.nlm.nih.gov/articles/PMC11398225, which is subject to the license by the author or copyright owner provided with this content. Please go to the source to verify the license and copyright information for your use."}, "publicationTypes": ["JournalArticle"], "authors": [{"authorId": "2255353387", "name": "Zheng-Feng Wang"}, {"authorId": "2184027431", "name": "Xintong Fang"}, {"authorId": "31008265", "name": "Yandan Jiang"}, {"authorId": "1797892", "name": "H. Ji"}, {"authorId": "1759878", "name": "Baoliang Wang"}, {"authorId": "2189696894", "name": "Zhiyao Huang"}], "abstract": "This work focuses on the improvement of the density peaks clustering (DPC) algorithm and its application to point cloud segmentation in LiDAR. The improvement of DPC focuses on avoiding the manual determination of the cut-off distance and the manual selection of cluster centers. And the clustering process of the improved DPC is automatic without manual intervention. The cut-off distance is avoided by forming a voxel structure and using the number of points in the voxel as the local density of the voxel. The automatic selection of cluster centers is realized by selecting the voxels whose gamma values are greater than the gamma value of the inflection point of the fitted \u03b3 curve as cluster centers. Finally, a new merging strategy is introduced to overcome the over-segmentation problem and obtain the final clustering result. To verify the effectiveness of the improved DPC, experiments on point cloud segmentation of LiDAR under different scenes were conducted. The basic DPC, K-means, and DBSCAN were introduced for comparison. The experimental results showed that the improved DPC is effective and its application to point cloud segmentation of LiDAR is successful. Compared with the basic DPC, K-means, the improved DPC has better clustering accuracy. And, compared with DBSCAN, the improved DPC has comparable or slightly better clustering accuracy without nontrivial parameters."}, {"paperId": "345d66b9ae41be65dd3ae6e802276787579c4acc", "externalIds": {"PubMedCentral": "12349206", "DOI": "10.3390/s25154781", "CorpusId": 280620339, "PubMed": "40807946"}, "title": "Research on Ground Point Cloud Segmentation Algorithm Based on Local Density Plane Fitting in Road Scene", "venue": "Italian National Conference on Sensors", "year": 2025, "citationCount": 2, "openAccessPdf": {"url": "", "status": null, "license": "CCBY", "disclaimer": "Notice: Paper or abstract available at https://pmc.ncbi.nlm.nih.gov/articles/PMC12349206, which is subject to the license by the author or copyright owner provided with this content. Please go to the source to verify the license and copyright information for your use."}, "publicationTypes": ["JournalArticle"], "authors": [{"authorId": "2288174121", "name": "Tao Wang"}, {"authorId": "2284029290", "name": "Yiming Fu"}, {"authorId": "2116764812", "name": "Zhi Zhang"}, {"authorId": "2345065044", "name": "Xing Cheng"}, {"authorId": "2344856660", "name": "Lin Li"}, {"authorId": "2304328630", "name": "Zhen-Yu He"}, {"authorId": "2109542272", "name": "Haonan Wang"}, {"authorId": "2256124673", "name": "Kexin Gong"}], "abstract": "In road scenes, the collected 3D point cloud data is usually accompanied by a large amount of interference mainly composed of ground point clouds and the property of uneven density distribution, which will bring difficulties to subsequent recognition and prediction. To address these problems, this paper proposes a ground point cloud segmentation algorithm based on local density plane fitting. Firstly, for the uneven density distribution of 3D point clouds, density segmentation is used to obtain several regions with balanced density. Then, candidate sample selection and plane validity detection are carried out for each region. The modified classical DBSCAN clustering algorithm is used to obtain effective fitting planes and perform clustering according to the fitting planes. Finally, different planes are divided according to the clustering results, and abnormal inspection is performed on the obtained results to screen out the most reasonable result. This scheme can effectively improve the scalability of the algorithm, reduce training costs, and improve deployment efficiency and universality. Experimental results show that the algorithm used in this paper has advantages compared with advanced algorithms of the same category, and can greatly reduce ground interference."}, {"paperId": "d57e29c9cebc7f87db7ca037da0a83cb458f4cfa", "externalIds": {"DOI": "10.3390/jmmp8060287", "CorpusId": 274650218}, "title": "An Identification and Localization Method for 3D Workpiece Welds Based on the DBSCAN Point Cloud Clustering Algorithm", "venue": "Journal of Manufacturing and Materials Processing", "year": 2024, "citationCount": 12, "openAccessPdf": {"url": "", "status": null, "license": null, "disclaimer": "Notice: Paper or abstract available at https://api.unpaywall.org/v2/10.3390/jmmp8060287?email=<INSERT_YOUR_EMAIL> or https://doi.org/10.3390/jmmp8060287, which is subject to the license by the author or copyright owner provided with this content. Please go to the source to verify the license and copyright information for your use."}, "publicationTypes": ["JournalArticle"], "authors": [{"authorId": "2334771090", "name": "Nian Zhou"}, {"authorId": "2321415723", "name": "Ping Jiang"}, {"authorId": "2327383843", "name": "Shiliang Jiang"}, {"authorId": "2235780", "name": "Leshi Shu"}, {"authorId": "2334814987", "name": "Xiaoxian Ni"}, {"authorId": "2047337811", "name": "Linjun Zhong"}], "abstract": "With the development of robotic welding automation, there is a strong interest in welding seam identification and localization methods with high accuracy, real-time performance, and robustness. This paper proposed a 3D workpiece weld identification and localization method based on DBSCAN (density-based spatial clustering of applications with noise) to realize stable feature extraction for multiple joint types. Firstly, this method employs combinatorial filtering to effectively eliminate non-target point clouds, including outliers and installation platform point clouds, which can minimize the computational load. Secondly, DBSCAN is used to classify workpiece point clouds into different clusters, which can be used for point cloud segmentation of flat workpieces and curved workpieces. Thirdly, the edge detection and feature extraction methods are used to obtain joint gap and weld feature points while combining the information of point clouds for different types of welds. Finally, based on the identification and localization of the welds, welding path planning and attitude planning are implemented. Experimentation results indicated that the proposed method exhibits robustness across various types of welded joints, including butt joints with straight seams, butt joints with curved seams, butt joints with curved workpieces, and lap joints. Meanwhile, the average error of joint gap detection was 0.11 mm and the processing time of a 90 mm straight-seam butt joint is 701.12 ms."}, {"paperId": "248948034f4bac939b89bc479d821d9cc72b4299", "externalIds": {"DOI": "10.20535/1970.69(1).2025.333512", "CorpusId": 279785211}, "title": "INTEGRATED APPROACH FOR 3D POINT CLOUD SEGMENTATION IN TANK CALIBRATION", "venue": "Bulletin of Kyiv Polytechnic Institute. Series Instrument Making", "year": 2025, "citationCount": 1, "openAccessPdf": {"url": "", "status": null, "license": null, "disclaimer": "Notice: Paper or abstract available at https://api.unpaywall.org/v2/10.20535/1970.69(1).2025.333512?email=<INSERT_YOUR_EMAIL> or https://doi.org/10.20535/1970.69(1).2025.333512, which is subject to the license by the author or copyright owner provided with this content. Please go to the source to verify the license and copyright information for your use."}, "publicationTypes": ["JournalArticle"], "authors": [{"authorId": "2224407615", "name": "D. Proskurenko"}, {"authorId": "2238330032", "name": "M. Bezuglyi"}], "abstract": "The paper presents a hybrid method for segmenting 3D point clouds for the calibration of cylindrical horizontal tanks, combining RANSAC and DBSCAN algorithms with subsequent boundary refinement based on local geometric features. \nAnalysis of prior research indicates that RANSAC is effective for detecting cylindrical surfaces but sensitive to noise, while DBSCAN excels in clustering noisy data but requires parameter optimization. Hybrid methods combining these algorithms demonstrate improved results; however, their robustness to low-density point clouds and accuracy in transition zones remain underexplored. The objective of this study is to develop and evaluate a hybrid 3D point cloud segmentation method integrating RANSAC, DBSCAN, and boundary refinement to achieve automated tank calibration with high accuracy across densities levels ranging from ~1 million to ~18 million points. \nThe research results are based on a comparison of a scanned model (18,012,345 points at maximum density) and an ideal model (17,986,543 points) of the tank. The hybrid method enabled precise estimation of geometric parameters: radius (R \u2248 1.5 m, error \u00b10.03 m) and length (L \u2248 10.8 m, error \u00b10.05 m). The segmentation identified the front bottom (372,890 points, ~2.07\u00a0%), rear bottom (411,230 points, ~2.28\u00a0%), and noise (2,181,240 points, ~12.1\u00a0%). The proportionality of point reduction for bottoms with decreasing density was confirmed by linear approximation (Fig. 1): slopes of ~20,700\u201322,800 points/million for the scanned model and ~20,900\u201321,100 for the ideal model, with R\u00b2 \u2248 0.999. Relative segmentation errors range from 0.1\u20130.7\u00a0% for the front bottom and 8.3\u20138.9\u00a0% for the rear bottom, indicating higher accuracy for the front bottom and a need for improvement in the rear bottom. The stability of noise (~12.1\u201312.2\u00a0%) confirms the effectiveness of DBSCAN. The method maintained accuracy even at low density (~1 million points), although the increased error for the rear bottom (~8.75\u00a0%) suggests potential loss of detail. \nIn conclusion, the developed hybrid method is robust to noise, scalable for densities levels of 1\u201318 million points, and suitable for automated tank calibration. The proportionality of components and stable noise level highlight the method\u2019s reliability, while visualization (cylinder \u2013 red, front bottom \u2013 green, rear bottom \u2013 blue) illustrates clear component separation. Future research may focus on optimizing DBSCAN for low-density point clouds and reducing errors for the rear bottom in transition zones."}, {"paperId": "f9434f6efd411651271f8c3851c39518ba06e155", "externalIds": {"DOI": "10.1109/ICBASE53849.2021.00034", "CorpusId": 246533941}, "title": "Application of Improved DBSCAN Clustering Method in Point Cloud Data Segmentation", "venue": "2021 2nd International Conference on Big Data & Artificial Intelligence & Software Engineering (ICBASE)", "year": 2021, "citationCount": 8, "openAccessPdf": {"url": "", "status": null, "license": null, "disclaimer": "Notice: Paper or abstract available at https://api.unpaywall.org/v2/10.1109/ICBASE53849.2021.00034?email=<INSERT_YOUR_EMAIL> or https://doi.org/10.1109/ICBASE53849.2021.00034, which is subject to the license by the author or copyright owner provided with this content. Please go to the source to verify the license and copyright information for your use."}, "publicationTypes": ["Conference"], "authors": [{"authorId": "2155679480", "name": "Chunxiao Wang"}, {"authorId": "2152863528", "name": "Xiaoqing Xiong"}, {"authorId": "2997814", "name": "Houqun Yang"}, {"authorId": "2177354731", "name": "Xiaojuan Liu"}, {"authorId": "145412331", "name": "Lu Liu"}, {"authorId": "2115316680", "name": "Shihao Sun"}], "abstract": "Point cloud data segmentation is the main task of point cloud data processing and it is also the prerequisite and key link for realizing automatic recognition of features. A laser point cloud data segmentation method based on the density clustering method is proposed in this paper and is verified in airborne cloud data segmentation. The method is an unsupervised clustering technique and the experiments show that this method has the advantages o multi-dimensional, good segmentation effect and high robustness."}, {"paperId": "f8957aa3d2e2316e365f77fc086db6bc5ce94a0f", "externalIds": {"PubMedCentral": "12894331", "DOI": "10.3389/fpls.2025.1705564", "CorpusId": 285219013, "PubMed": "41695536"}, "title": "PointNeXt-DBSCAN: a hybrid point cloud deep learning framework for multi-stage cotton leaf instance segmentation", "venue": "Frontiers in Plant Science", "year": 2026, "citationCount": 0, "openAccessPdf": {"url": "", "status": null, "license": "CCBY", "disclaimer": "Notice: Paper or abstract available at https://pmc.ncbi.nlm.nih.gov/articles/PMC12894331, which is subject to the license by the author or copyright owner provided with this content. Please go to the source to verify the license and copyright information for your use."}, "publicationTypes": ["JournalArticle"], "authors": [{"authorId": "2038515176", "name": "Zeyu Lei"}, {"authorId": "2384204988", "name": "Debin Zeng"}, {"authorId": "2221644751", "name": "Liangfang Zheng"}], "abstract": "This study addresses the challenge of organ-level instance segmentation in cotton point clouds, which arises from significant morphological variations and leaf occlusion across growth stages. To achieve high-precision leaf extraction, a hybrid framework integrating PointNeXt and DBSCAN is proposed. A dataset containing 1,065 cotton plants from seedling to boll-opening stages was constructed via multi-view image reconstruction and augmented through random rotation and scaling. Methodologically, a two-stage pipeline was designed: semantic segmentation was first performed using the PointNeXt network, where its residual MLP blocks enhanced edge and local feature learning; instance segmentation was then conducted by applying density-adaptive DBSCAN clustering to the semantic results, effectively mitigating over-segmentation in emerging leaves. Experimental results indicate that the semantic segmentation achieved an mIoU of 0.9846, representing a 7.2% improvement over PointNet++. The subsequent instance segmentation attained an ARI of 0.983, reduced the over-segmentation rate by 63%, and maintained an error below 3% for leaves smaller than 5 cm2. The framework provides reliable technical support for the automated extraction of key phenotypic traits such as leaf area index and leaf inclination distribution."}, {"paperId": "0f6d9f188efbe435eae8eac08873b5508cb885f1", "externalIds": {"DBLP": "conf/dependsys/PengXW24", "DOI": "10.1109/DependSys64276.2024.00013", "CorpusId": 276994826}, "title": "Unsupervised Point Cloud Segmentation for Power Corridor Line Inspection", "venue": "International Conference on Dependability in Sensor, Cloud, and Big Data Systems and Applications", "year": 2024, "citationCount": 1, "openAccessPdf": {"url": "", "status": "CLOSED", "license": null, "disclaimer": "Notice: Paper or abstract available at https://api.unpaywall.org/v2/10.1109/DependSys64276.2024.00013?email=<INSERT_YOUR_EMAIL> or https://doi.org/10.1109/DependSys64276.2024.00013, which is subject to the license by the author or copyright owner provided with this content. Please go to the source to verify the license and copyright information for your use."}, "publicationTypes": ["JournalArticle", "Conference"], "authors": [{"authorId": "2054591651", "name": "Bo Peng"}, {"authorId": "2298516522", "name": "Xueping Xie"}, {"authorId": "2242914181", "name": "Yonghua Wu"}], "abstract": "In recent years, learning based methods are introduced to identify the elements in the point cloud, which are easily captured with UAV and LiDAR. However, supervised learning needs great efforts in data labeling, and cannot well adapt to the point clouds in different places. In this paper, we propose an unsupervised point cloud segmentation method that can can distinguish identical elements from the point cloud. Firstly, with the collected point cloud, pre-processing including denoising and downsampling is conducted. After that, cloud elements such as transmission lines, towers, buildings, roads and vegetation are extracted with unsupervised algorithms including DBSCAN, and other point cloud processing algorithms such as cloth filtering and PCA. To be specific, intrinsic features, e.g., the evaluation, the density, the curvature, of the point clouds are used in the unsupervised learning and clustering. Finally, with the safety distance rules, potential danger points that locate close to the transmission lines are detected, and a danger point report is further generated. In addition, based on the algorithm, a point analysis and management system is developed. With a B/S architecture, the system provide the function of point cloud uploading, viewing, analysis, and danger point prediction. The research results is hoped to be applied in grid enterprise to improve the intelligent level of power grid management and maintenance."}, {"paperId": "bb8e9c532a803711a44e746b4b987b189d00d004", "externalIds": {"DOI": "10.23919/CCC63176.2024.10662744", "CorpusId": 272707398}, "title": "Planar point cloud segmentation based on edge point extraction and redistribution", "venue": "Cybersecurity and Cyberforensics Conference", "year": 2024, "citationCount": 0, "openAccessPdf": {"url": "", "status": "CLOSED", "license": null, "disclaimer": "Notice: Paper or abstract available at https://api.unpaywall.org/v2/10.23919/CCC63176.2024.10662744?email=<INSERT_YOUR_EMAIL> or https://doi.org/10.23919/CCC63176.2024.10662744, which is subject to the license by the author or copyright owner provided with this content. Please go to the source to verify the license and copyright information for your use."}, "publicationTypes": ["Conference"], "authors": [{"authorId": "2155552871", "name": "Hui Chen"}, {"authorId": "2301777121", "name": "Rongyu Zhou"}, {"authorId": "2257046744", "name": "Tingting Xie"}], "abstract": "The main challenge of 3D plane segmentation is to distinguish different planes, and for the density clustering method DBSCAN, the method is invalid if the density is uniform among the planes. To address this shortcoming, this paper proposes a method for edge point extraction and plane matching based on DBSCAN. Firstly, normal vector estimation and connectivity score calculation are performed to distinguish edge points and plane points. DBSCAN clustering is performed on planar points, and then planar matching is performed on edge points based on the clustering results. We conducted experiments on both synthetic and real data. The results show that the method can accurately extract and recognize the edge points with strong robustness, and the method has high accuracy and short computation time."}, {"paperId": "7b0052a403205fcb1bac066db3c5e19f5c8e15e1", "externalIds": {"MAG": "2954877643", "DOI": "10.1155/2019/3026758", "CorpusId": 198454076}, "title": "An Automatic Density Clustering Segmentation Method for Laser Scanning Point Cloud Data of Buildings", "venue": "Mathematical Problems in Engineering", "year": 2019, "citationCount": 10, "openAccessPdf": {"url": "https://downloads.hindawi.com/journals/mpe/2019/3026758.pdf", "status": "GOLD", "license": null, "disclaimer": "Notice: Paper or abstract available at https://api.unpaywall.org/v2/10.1155/2019/3026758?email=<INSERT_YOUR_EMAIL> or https://doi.org/10.1155/2019/3026758, which is subject to the license by the author or copyright owner provided with this content. Please go to the source to verify the license and copyright information for your use."}, "publicationTypes": null, "authors": [{"authorId": "9396706", "name": "Zhao Jianghong"}, {"authorId": "31402664", "name": "Yanxue Dong"}, {"authorId": "2025845550", "name": "Ma Siyu"}, {"authorId": "48446876", "name": "Huajun Liu"}, {"authorId": "9460249", "name": "Wei Shuangfeng"}, {"authorId": "2101708781", "name": "Zhang Ruiju"}, {"authorId": "2145308894", "name": "Xi Chen"}], "abstract": "Segmentation is an important step in point cloud data feature extraction and three-dimensional modelling. Currently, it is also a challenging problem in point cloud processing. There are some disadvantages of the DBSCAN method, such as requiring the manual definition of parameters and low efficiency when it is used for large amounts of calculation. This paper proposes the AQ-DBSCAN algorithm, which is a density clustering segmentation method combined with Gaussian mapping. The algorithm improves upon the DBSCAN algorithm by solving the problem of automatic estimation of the parameter neighborhood radius. The improved algorithm can carry out density clustering processing quickly by reducing the amount of computation required."}, {"paperId": "b335575e16e5d78a5d10ff576ad5f7af913ae9aa", "externalIds": {"DOI": "10.1109/JSEN.2026.3652231", "CorpusId": 284803314}, "title": "Target Point Cloud Segmentation for Battery Swapping Robot Based on Multiscale Attention Aggregation", "venue": "IEEE Sensors Journal", "year": 2026, "citationCount": 0, "openAccessPdf": {"url": "", "status": null, "license": null, "disclaimer": "Notice: Paper or abstract available at https://api.unpaywall.org/v2/10.1109/JSEN.2026.3652231?email=<INSERT_YOUR_EMAIL> or https://doi.org/10.1109/JSEN.2026.3652231, which is subject to the license by the author or copyright owner provided with this content. Please go to the source to verify the license and copyright information for your use."}, "publicationTypes": ["JournalArticle"], "authors": [{"authorId": "2284825502", "name": "Yuanyuan Ren"}, {"authorId": "2154649706", "name": "Lihui Wang"}, {"authorId": "2405717299", "name": "Yueyi Tian"}, {"authorId": "2061383180", "name": "W. Gu"}, {"authorId": "2248384508", "name": "Zehua Ying"}], "abstract": "Rapid and accurate segmentation of 3-D point clouds is critical for optimizing battery-swapping robots and ensuring precise assembly. To address the challenges of computational inefficiency and insufficient accuracy for small fasteners in large-scale scenes, this article proposes multiscale attention RandLA-Net (MSA-RandLA-Net), a novel segmentation network based on multiscale attention aggregation (MSAA). Specifically, the method first uses a preprocessing scheme combining radius filtering and density-based spatial clustering of applications with noise (DBSCAN) clustering to effectively eliminate background noise, thereby ensuring high-quality input data. Subsequently, an MSAA module is embedded within the residual blocks of the network to adaptively capture fine-grained geometric details and enhance edge feature extraction. Experimental results on our real-world battery-swapping dataset demonstrate superior performance, achieving a mean intersection over union (mIoU) of 94.2%, mean accuracy (mAcc) of 97.1%, and overall accuracy (OAcc) of 93.2%. Notably, the model maintains a lightweight design with only 1.02M parameters and a 30-ms inference time, fully satisfying the stringent requirements for real-time battery swapping."}]}
