{"total": 2533, "offset": 0, "next": 10, "data": [{"paperId": "d6d877156c75033159084f295fe6e94fc64c1700", "externalIds": {"DBLP": "journals/access/ChenXSGZCZY24", "DOI": "10.1109/ACCESS.2024.3480333", "CorpusId": 273369013}, "title": "Point Cloud Segmentation Algorithm Based on Improved Euclidean Clustering", "venue": "IEEE Access", "year": 2024, "citationCount": 9, "openAccessPdf": {"url": "https://doi.org/10.1109/access.2024.3480333", "status": "GOLD", "license": "CCBYNCND", "disclaimer": "Notice: Paper or abstract available at https://api.unpaywall.org/v2/10.1109/ACCESS.2024.3480333?email=<INSERT_YOUR_EMAIL> or https://doi.org/10.1109/ACCESS.2024.3480333, which is subject to the license by the author or copyright owner provided with this content. Please go to the source to verify the license and copyright information for your use."}, "publicationTypes": ["JournalArticle"], "authors": [{"authorId": "2304394365", "name": "Fangrui Chen"}, {"authorId": "2304205421", "name": "Feifei Xie"}, {"authorId": "2304297848", "name": "Lin Sun"}, {"authorId": "2326396270", "name": "Yuchao Gu"}, {"authorId": "2304212504", "name": "Zhipeng Zhang"}, {"authorId": "2304290193", "name": "Jinpeng Chen"}, {"authorId": "2304219087", "name": "Jinrui Zhang"}, {"authorId": "2304228309", "name": "Mingzhe Yi"}], "abstract": "Point cloud segmentation is a crucial technique for object recognition and localization, widely employed in various applications such as point cloud registration, 3D reconstruction, object recognition, and robotic grasping. However, in practical scenarios, challenges such as sparse object features, significant pose variations, or instances of object adhesion, stacking, and occlusion can lead to difficulties and poor stability in point cloud segmentation. In response to these challenges, this paper proposes a novel point cloud segmentation algorithm based on enhanced Euclidean clustering. To address the issue of over-segmentation and under-segmentation in cases of object adhesion and stacking in unordered scenes, a method is introduced for discriminating collision points based on normal angle constraints. Subsequently, an adaptive search radius is employed to determine the clustering distance threshold, enhancing the algorithm\u2019s ability to handle different object arrangements. Finally, the collision points are reintegrated into the clustering results to ensure the completeness of the segmented target point cloud. Experimental results using the ROBI public dataset and real-world point cloud segmentation scenarios demonstrate that the proposed algorithm effectively resolves challenges associated with the segmentation of adhering and stacking objects. The improved algorithm exhibits higher accuracy and robustness in multi-object segmentation across diverse scenes."}, {"paperId": "b569e2bc1cacafd0c1d34186bcf772b0238ba504", "externalIds": {"PubMedCentral": "11574232", "DOI": "10.1038/s41598-024-77097-z", "CorpusId": 274138903, "PubMed": "39557979"}, "title": "SPBA-Net point cloud object detection with sparse attention and box aligning", "venue": "Scientific Reports", "year": 2024, "citationCount": 2, "openAccessPdf": {"url": "https://doi.org/10.1038/s41598-024-77097-z", "status": "GOLD", "license": "CCBYNCND", "disclaimer": "Notice: Paper or abstract available at https://pmc.ncbi.nlm.nih.gov/articles/PMC11574232, which is subject to the license by the author or copyright owner provided with this content. Please go to the source to verify the license and copyright information for your use."}, "publicationTypes": ["JournalArticle"], "authors": [{"authorId": "2297900800", "name": "Haojie Sha"}, {"authorId": "2291391852", "name": "Qingrui Gao"}, {"authorId": "2242924383", "name": "H. Zeng"}, {"authorId": "2158259772", "name": "Kai Li"}, {"authorId": "2205075337", "name": "Wang Li"}, {"authorId": "2108232351", "name": "Xuande Zhang"}, {"authorId": "2394059222", "name": "Xiaohui Wang"}], "abstract": "Object detection in point clouds is essential for various applications, including autonomous navigation, household robots, and augmented/virtual reality. However, during voxelization and Bird\u2019s Eye View transformation, local point cloud data often remains sparse due to non-target areas and noise points, posing a significant challenge for feature extraction. In this paper, we propose a novel mechanism named Keypoint Guided Sparse Attention (KGSA) to enhance the semantic information of point clouds by calculating Euclidean distances between selected keypoints and others. Additionally, we introduce Instance-wise Box Aligning, a method for expanding predicted boxes and clustering the points within them to achieve precise alignment between predicted bounding boxes and ground-truth targets. Experimental results demonstrate the superiority of our proposed SPBA-Net in 3D object detection on point clouds compared to other state-of-the-art methods.The datasets used and/or analysed during the current study available from the corresponding author on reasonable request."}, {"paperId": "c04c60b176c1934aecb742ed03b8018bf348f93b", "externalIds": {"PubMedCentral": "13225636", "DOI": "10.1371/journal.pone.0348581", "CorpusId": 288893583}, "title": "3D object detection for vehicle-mounted LiDAR based on deep learning and euclidean clustering algorithm", "venue": "PLoS ONE", "year": 2026, "citationCount": 0, "openAccessPdf": {"url": "", "status": null, "license": null, "disclaimer": "Notice: Paper or abstract available at https://pmc.ncbi.nlm.nih.gov/articles/PMC13225636, which is subject to the license by the author or copyright owner provided with this content. Please go to the source to verify the license and copyright information for your use."}, "publicationTypes": ["JournalArticle"], "authors": [{"authorId": "2290695343", "name": "Nan Zhang"}, {"authorId": "2342021406", "name": "Maolong Xi"}, {"authorId": "2324708496", "name": "Juan Fang"}, {"authorId": "2440073762", "name": "Fangqin Wang"}], "abstract": "Object Detection (OD) stands as a fundamental task in the area of autonomous driving environment perception. This study introduces a 3D OD method grounded in deep learning and an improved Euclidean clustering algorithm, aiming to improve the accuracy and efficiency of point cloud segmentation and OD. The core methodological innovations include: (1) the integration of the Cloth Simulation Filter (CSF) for accurate ground and non-ground point separation, combined with a K-Dimensional Tree (KD-Tree) structure and an adaptive parameter mechanism to enhance clustering robustness and efficiency; and (2) an enhanced PointNet architecture incorporating multi-scale grouping (MSG), multi-resolution grouping (MRG), and skip connections to improve local feature extraction and multi-level feature fusion. This method is differentiated from prior works by its holistic integration of density-aware segmentation and hierarchical feature aggregation, addressing key bottlenecks in handling sparse and uneven LiDAR data. The proposed method is rigorously evaluated on the KITTI and NuScenes benchmarks. It achieves segmentation accuracies of 94.96% and 93.12%, with single-frame processing times of 15.63\u2009ms and 17.24\u2009ms, respectively, demonstrating a superior balance of speed and precision compared to traditional Euclidean clustering and other baseline methods. For the 3D OD task, the model attains average detection accuracies of 94.36% and 92.68% on the respective datasets, representing statistically significant improvements (p\u2009<\u20090.001) over the standard PointNet. The detection speed reaches 34 fps and 31 fps, meeting real-time requirements while outperforming existing frameworks in challenging scenarios involving occluded and multi-scale objects. The findings confirm that the proposed framework provides a robust, efficient, and generalizable solution for 3D environmental perception in autonomous driving systems."}, {"paperId": "67462994e9ff7fd4ec25d08dd974039b5c34b489", "externalIds": {"DOI": "10.1088/1742-6596/2897/1/012035", "CorpusId": 274519862}, "title": "Street tree segmentation method combining image semantic segmentation and point cloud clustering", "venue": "Journal of Physics: Conference Series", "year": 2024, "citationCount": 0, "openAccessPdf": {"url": "https://doi.org/10.1088/1742-6596/2897/1/012035", "status": "GOLD", "license": null, "disclaimer": "Notice: Paper or abstract available at https://api.unpaywall.org/v2/10.1088/1742-6596/2897/1/012035?email=<INSERT_YOUR_EMAIL> or https://doi.org/10.1088/1742-6596/2897/1/012035, which is subject to the license by the author or copyright owner provided with this content. Please go to the source to verify the license and copyright information for your use."}, "publicationTypes": ["JournalArticle", "Conference"], "authors": [{"authorId": "2333973269", "name": "Hesen Zhu"}, {"authorId": "2152570044", "name": "Shuang Song"}, {"authorId": "2194768292", "name": "Yunlong Gao"}, {"authorId": "2280632987", "name": "Guifang Shao"}, {"authorId": "2296968740", "name": "Qingyuan Zhu"}], "abstract": "As a common object in the park scene, the 3D information of street trees is crucial for digital cities, and extracting individual trees from point cloud data accurately and efficiently is a hotspot and a difficult point-in-point cloud processing. Aiming at the interference problem of complex non-tree objects and dynamic objects in the park environment, a tree point cloud segmentation method combining a deep learning network framework with a point cloud clustering algorithm is proposed in this paper. First, this paper applies the YOLOv8 to the semantic segmentation of camera images, and fuses image semantics with point cloud data, to build the semantic point cloud model. Then, preliminary extraction for street trees is performed using the semantic information of this point cloud model, and radius filtering is used to reduce the outliers. Finally, the individual tree segmentation is realized using an enhanced multi-level Euclidean clustering algorithm based on KD-Tree. Experimental results indicate that the proposed method performs well in extracting and segmenting the roadway trees, with a recall of 94.5%, a precision of 80.7%, and an F1-score of 87.0%."}, {"paperId": "5a253295f4530d131dc2b473c4e5aa4c5e41d5fa", "externalIds": {"DOI": "10.1117/12.3106617", "CorpusId": 285662072}, "title": "Object detection and tracking based on image and point cloud instance segmentation matching for robot", "venue": "International Conference on Mechanical Engineering and Materials", "year": 2026, "citationCount": 1, "openAccessPdf": {"url": "", "status": null, "license": null, "disclaimer": "Notice: Paper or abstract available at https://api.unpaywall.org/v2/10.1117/12.3106617?email=<INSERT_YOUR_EMAIL> or https://doi.org/10.1117/12.3106617, which is subject to the license by the author or copyright owner provided with this content. Please go to the source to verify the license and copyright information for your use."}, "publicationTypes": ["Conference"], "authors": [{"authorId": "2406761066", "name": "Hongxing Wang"}, {"authorId": "2407435213", "name": "Rui Zhu"}, {"authorId": "1390788961", "name": "Huandi Wu"}, {"authorId": "2407146583", "name": "Zelin Ye"}, {"authorId": "2312686162", "name": "Shaobo Deng"}, {"authorId": "2411200681", "name": "Bing Li"}], "abstract": "To address the challenge of fusing semantic information from camera images with precise spatial measurements from LiDAR point clouds in robotic environmental perception, a fusion-based detection framework is presented based on image-point-cloud instance-segmentation matching. Two-dimensional object masks are first obtained from camera images by an instance-segmentation network and projected onto the 3D point cloud to extract object-specific clusters. These clusters are processed with Euclidean clustering to generate 3D detection boxes, which are then back-projected to the image plane to complete multimodal fusion detection. On this basis, a tracking-gate mechanism is introduced for multi-object data association and lifecycle management, and Kalman filter is employed for object tracking and motion-state estimation. Experiments demonstrate that the proposed approach effectively integrates image and point-cloud data, achieving accurate and efficient estimation of object position, size, and velocity, and exhibiting robust performance across diverse scenarios."}, {"paperId": "9ef33664740cad86c7d4013eed21c65ae1132922", "externalIds": {"DOI": "10.1117/12.3103346", "CorpusId": 285566473}, "title": "Point cloud segmentation and object extraction in industrial indoor environments", "venue": "International symposium on Robotics and Artificial Intelligence (ISRAI 2025)", "year": 2026, "citationCount": 0, "openAccessPdf": {"url": "", "status": null, "license": null, "disclaimer": "Notice: Paper or abstract available at https://api.unpaywall.org/v2/10.1117/12.3103346?email=<INSERT_YOUR_EMAIL> or https://doi.org/10.1117/12.3103346, which is subject to the license by the author or copyright owner provided with this content. Please go to the source to verify the license and copyright information for your use."}, "publicationTypes": null, "authors": [{"authorId": "2242955248", "name": "Fan Zheng"}, {"authorId": "2291966599", "name": "Jianhong Xu"}, {"authorId": "2243755714", "name": "Yujie Lu"}, {"authorId": "2242950906", "name": "Mu Fang"}, {"authorId": "2366938932", "name": "Yanyu Zhang"}], "abstract": "This paper presents a lightweight CPU-based method for segmenting point cloud maps and extracting key structural elements in industrial indoor environments. Our approach processes raw point cloud data through a multi-stage pipeline that sequentially identifies ground planes, roofs, walls, pillars, beams, and miscellaneous objects using a combination of 2D/3D grid partitioning, RANSAC, PCA-based planar analysis, and Euclidean clustering. Designed to operate efficiently without GPU acceleration, the method achieves complete segmentation of a warehouse scene in less than 80 seconds on a laptop CPU, processing over 10 million points. Experimental results on a real warehouse dataset demonstrate robust performance in extracting major structural components, making it suitable for applications in robotic mapping, inspection, and semantic understanding of industrial spaces."}, {"paperId": "ceadbf0e5149b41c0951dd7dd9fccf68d9330330", "externalIds": {"DOI": "10.3390/electronics12051175", "CorpusId": 257295560}, "title": "Research on Railway Obstacle Detection Method Based on Developed Euclidean Clustering", "venue": "Electronics", "year": 2023, "citationCount": 25, "openAccessPdf": {"url": "https://www.mdpi.com/2079-9292/12/5/1175/pdf?version=1677659604", "status": "GOLD", "license": "CCBY", "disclaimer": "Notice: Paper or abstract available at https://api.unpaywall.org/v2/10.3390/electronics12051175?email=<INSERT_YOUR_EMAIL> or https://doi.org/10.3390/electronics12051175, which is subject to the license by the author or copyright owner provided with this content. Please go to the source to verify the license and copyright information for your use."}, "publicationTypes": null, "authors": [{"authorId": "1806128471", "name": "J. Qu"}, {"authorId": "2118846405", "name": "Shaobin Li"}, {"authorId": "2154568064", "name": "Yanman Li"}, {"authorId": "144117143", "name": "L. Liu"}], "abstract": "To prevent the problem of safety accidents caused by the intrusion of obstacles into railway clearance, this paper proposes an obstacle detection method based on Light Detection and Ranging (LiDAR) to obtain and process rich three-dimensional (3D) information and depth information of the railway scene. The method first preprocesses the point cloud of the railway scenario collected by LiDAR to divide a basic area containing the rails. Then, the method divides the roadbed plane and fits the rails with the random sample consensus (RANSAC) algorithm, dividing the detection area according to the position of the rails. To address the issue of over or under-segmentation in the traditional Euclidean clustering method, which is due to sparser point clouds the farther the object is from the LiDAR, this paper improves the conventional Euclidean clustering. It introduces an adaptive distance threshold to categorize obstacles. Finally, compared with traditional Euclidean clustering, K-means clustering, and density-based spatial clustering of applications with noise (DBSCAN) clustering, the improved Euclidean cluster has achieved better results in terms of computing time and segmentation accuracy. Experimental results show the ability of the method to detect railway obstacles successfully."}, {"paperId": "d852706d6acb2afc2c701d1217711fc1d5e15d24", "externalIds": {"DOI": "10.1109/ICCRD54409.2022.9730356", "CorpusId": 247477339}, "title": "A Simultaneous Object Detection and Tracking Framework Based on Point Cloud", "venue": "International Conference on Computer Research and Development", "year": 2022, "citationCount": 3, "openAccessPdf": {"url": "", "status": null, "license": null, "disclaimer": "Notice: Paper or abstract available at https://api.unpaywall.org/v2/10.1109/ICCRD54409.2022.9730356?email=<INSERT_YOUR_EMAIL> or https://doi.org/10.1109/ICCRD54409.2022.9730356, which is subject to the license by the author or copyright owner provided with this content. Please go to the source to verify the license and copyright information for your use."}, "publicationTypes": ["Conference"], "authors": [{"authorId": "2276254957", "name": "Zhaohui Xiang"}], "abstract": "Achieving accurate and effective detection and multi-object tracking plays a very important role in the field of automatic driving. Accurate detection of pedestrians, cars, cyclists, and other objects can improve the performance of the downstream tasks, such as obstacle avoidance and path planning. Based on the object detection results, multi-object tracking can identify and track moving targets in a period of time. The traditional tracking-by-detection methods can not handle the occlusion situation or long-term tracking problem well. In this paper, we propose a simultaneous detection and tracking method based on spatial temporal map, which has superior performance of trajectory connectivity and tracking accuracy in a long period of time. In the detection module, we use RANSAC algorithm to extract and segment the plane for each frame of lidar data, and then, cluster and classify different objects using the Euclidean Clustering algorithm. In the tracking module, we propose a two-frame and multi-frame switchable architecture for online tracking. In two-frame tracking, we use Kalman filter to update the object location measurements to match the same object in the current frame. For long-term and multi-frame tracking, the trajectories of objects are directly represented on spatial temporal map, and we fit polylines in the map to find the best data association. Experiment results on the KITTI dataset show that our 3D object detection and tracking framework is elegant and complete, the tracking module is robust, widely applicable, and low in cost."}, {"paperId": "dc9480a72f4418f9bb8cffceec5d4474be3d0c7e", "externalIds": {"DOI": "10.25139/inform.v7i1.4417", "CorpusId": 246355080}, "title": "3D Object Detection Based on Point Cloud Data", "venue": "Inform : Jurnal Ilmiah Bidang Teknologi Informasi dan Komunikasi", "year": 2022, "citationCount": 3, "openAccessPdf": {"url": "", "status": "CLOSED", "license": null, "disclaimer": "Notice: Paper or abstract available at https://api.unpaywall.org/v2/10.25139/inform.v7i1.4417?email=<INSERT_YOUR_EMAIL> or https://doi.org/10.25139/inform.v7i1.4417, which is subject to the license by the author or copyright owner provided with this content. Please go to the source to verify the license and copyright information for your use."}, "publicationTypes": null, "authors": [{"authorId": "2289137679", "name": "Dewi Mutiara"}, {"authorId": "2201100784", "name": "Alfan Rizaldy Pratama"}, {"authorId": "2127304", "name": "D. Pramadihanto"}, {"authorId": "31231482", "name": "Bayu Sandi Marta"}], "abstract": "In the Industrial robotic, computer vision is an important part of the system. The popular object used in the industrial field is a 3D pipe. The problem that is currently being developed is how to detect an object. This research aims to estimate the object detection that is, in this case, is a 3D pipe in various lighting conditions. The camera used in this research is Time of Flight. The methods applied are Remove NaN data for Pre-processing, Random Sample Consensus (RANSAC) for Segmentation, Euclidean Distance for Clustering, and Viewpoint Feature Histogram (VFH) for the object detection. A study conducted on five different objects found that the system could detect each one with a success rate of 100% for the first object, 98.05 percent for the second object, 93.97 percent for the third object, 94 percent for the fourth object, and 99.48 percent for the fifth object. Overall, the system's accuracy in detecting the object is 97.1 percent when four different lighting conditions are applied to five different objects in total."}, {"paperId": "d51cb11ab1d3c687427c368a37fe171e9d31ef25", "externalIds": {"DBLP": "journals/tim/XuZYCTL21", "DOI": "10.1109/TIM.2021.3102739", "CorpusId": 237000522}, "title": "Object Detection Based on Fusion of Sparse Point Cloud and Image Information", "venue": "IEEE Transactions on Instrumentation and Measurement", "year": 2021, "citationCount": 27, "openAccessPdf": {"url": "", "status": null, "license": null, "disclaimer": "Notice: Paper or abstract available at https://api.unpaywall.org/v2/10.1109/TIM.2021.3102739?email=<INSERT_YOUR_EMAIL> or https://doi.org/10.1109/TIM.2021.3102739, which is subject to the license by the author or copyright owner provided with this content. Please go to the source to verify the license and copyright information for your use."}, "publicationTypes": ["JournalArticle"], "authors": [{"authorId": "152257342", "name": "Xiaobin Xu"}, {"authorId": "2152836795", "name": "Lei Zhang"}, {"authorId": "2286397650", "name": "Jian Yang"}, {"authorId": "2151197091", "name": "Chenfei Cao"}, {"authorId": "1474191545", "name": "Zhiying Tan"}, {"authorId": "144148226", "name": "Minzhou Luo"}], "abstract": "With the rapid development of mobile robots, environmental perception based on a single sensor can hardly meet the task requirements of the robots for object detection and path planning in complex scenarios. In this article, an object detection fusion algorithm based on both the information of the LiDAR point cloud and the camera image is proposed. First, YOLOv4 is used to detect the objects in the image. Then, the point cloud is projected into the image, and the target point cloud is filtered out according to the range of the 2-D detection frame. The target point cloud is used to perform density clustering and generate the output of a bounding box with semantic labels. Meanwhile, the original point cloud data are processed by an improved four-neighborhood clustering algorithm based on the Euclidean distance and angle threshold to generate the output of another bounding box without semantic labels. Finally, the clusters obtained by different methods are fused and judged to produce the output of the final object detection results. The test using the KITTI dataset shows that the accuracy of the improved four-neighbor clustering algorithm is increased to 0.835. The final semantic segmentation results have an average positioning error of 0.033 and 0.073 m in the $x$ - and $y$ -directions. The average angular error of the vehicle direction is 0.90\u00b0. Compared with the other two types of point cloud segmentation networks, our approach has the highest accuracy and sufficient real-time performance, which can reach 9.96 Hz in the experiment."}]}
