{"total": 2455, "offset": 0, "next": 10, "data": [{"paperId": "d5831645e3c198cd3c44cca91d282cdb26cb2bab", "externalIds": {"DOI": "10.3390/agronomy15030740", "CorpusId": 277174794}, "title": "A Corn Point Cloud Stem-Leaf Segmentation Method Based on Octree Voxelization and Region Growing", "venue": "Agronomy", "year": 2025, "citationCount": 3, "openAccessPdf": {"url": "https://doi.org/10.3390/agronomy15030740", "status": "GOLD", "license": "CCBY", "disclaimer": "Notice: Paper or abstract available at https://api.unpaywall.org/v2/10.3390/agronomy15030740?email=<INSERT_YOUR_EMAIL> or https://doi.org/10.3390/agronomy15030740, which is subject to the license by the author or copyright owner provided with this content. Please go to the source to verify the license and copyright information for your use."}, "publicationTypes": ["JournalArticle"], "authors": [{"authorId": "2327698516", "name": "Qinzhe Zhu"}, {"authorId": "2272923770", "name": "Ming Yu"}], "abstract": "Plant phenotyping is crucial for advancing precision agriculture and modern breeding, with 3D point cloud segmentation of plant organs being essential for phenotypic parameter extraction. Nevertheless, although existing approaches maintain segmentation precision, they struggle to efficiently process complex geometric configurations and large-scale point cloud datasets, significantly increasing computational costs. Furthermore, their heavy reliance on high-quality annotated data restricts their use in high-throughput settings. To address these limitations, we propose a novel multi-stage region-growing algorithm based on an octree structure for efficient stem-leaf segmentation in maize point cloud data. The method first extracts key geometric features through octree voxelization, significantly improving segmentation efficiency. In the region-growing phase, a preliminary structural segmentation strategy using fitted cylinder parameters is applied. A refinement strategy is then applied to improve segmentation accuracy in complex regions. Finally, stem segmentation consistency is enhanced through central axis fitting and distance-based filtering. In this study, we utilize the Pheno4D dataset, which comprises three-dimensional point cloud data of maize plants at different growth stages, collected from greenhouse environments. Experimental results show that the proposed algorithm achieves an average precision of 98.15% and an IoU of 84.81% on the Pheno4D dataset, demonstrating strong robustness across various growth stages. Segmentation time per instance is reduced to 4.8 s, offering over a fourfold improvement compared to PointNet while maintaining high accuracy and efficiency. Additionally, validation experiments on tomato point cloud data confirm the proposed method\u2019s strong generalization capability. In this paper, we present an algorithm that addresses the shortcomings of traditional methods in complex agricultural environments. Specifically, our approach improves efficiency and accuracy while reducing dependency on high-quality annotated data. This solution not only delivers high precision and faster computational performance but also lays a strong technical foundation for high-throughput crop management and precision breeding."}, {"paperId": "8c1363802d3c2d364694c45a83b849a70205ae57", "externalIds": {"DOI": "10.1007/s12524-025-02179-y", "CorpusId": 277559690}, "title": "Facet-Segmentation of Point Cloud Based on Multiscale Hypervoxel Region Growing", "venue": "Journal of the Indian Society of Remote Sensing", "year": 2025, "citationCount": 6, "openAccessPdf": {"url": "", "status": "CLOSED", "license": null, "disclaimer": "Notice: The following paper fields have been elided by the publisher: {'abstract'}. Paper or abstract available at https://api.unpaywall.org/v2/10.1007/s12524-025-02179-y?email=<INSERT_YOUR_EMAIL> or https://doi.org/10.1007/s12524-025-02179-y, which is subject to the license by the author or copyright owner provided with this content. Please go to the source to verify the license and copyright information for your use."}, "publicationTypes": ["JournalArticle"], "authors": [{"authorId": "2249527736", "name": "Xijiang Chen"}, {"authorId": "2342917525", "name": "Juanjuan Mao"}, {"authorId": "1485298328", "name": "Bufan Zhao"}, {"authorId": "2290638492", "name": "Chong Wu"}, {"authorId": "2342305110", "name": "Mengjiao Qin"}], "abstract": null}, {"paperId": "ba49ce07b91f119e9e47ad3dd8db43a6567fc617", "externalIds": {"DOI": "10.1109/CEPET67280.2025.11390764", "CorpusId": 286019926}, "title": "Segmentation and Extraction of Cable-Tooling Point Cloud Based on Region Growing Algorithm", "venue": "2025 International Conference on Energy Power and Electrical Technology (CEPET)", "year": 2025, "citationCount": 0, "openAccessPdf": {"url": "", "status": null, "license": null, "disclaimer": "Notice: Paper or abstract available at https://api.unpaywall.org/v2/10.1109/CEPET67280.2025.11390764?email=<INSERT_YOUR_EMAIL> or https://doi.org/10.1109/CEPET67280.2025.11390764, which is subject to the license by the author or copyright owner provided with this content. Please go to the source to verify the license and copyright information for your use."}, "publicationTypes": ["Conference"], "authors": [{"authorId": "41214178", "name": "Jiang Chang"}, {"authorId": "2394359710", "name": "Kaiyu Chen"}, {"authorId": "2183248826", "name": "Zhijian Lu"}, {"authorId": "2149192393", "name": "Wei Wei"}, {"authorId": "2420591615", "name": "Xiaobin Bai"}, {"authorId": "2369650518", "name": "Lanjun Yang"}], "abstract": "This study addresses the segmentation requirements of cable-tooling mixed point clouds, overcoming the limitations of traditional algorithms in filtering close-range linear redundant point clouds and the efficiency bottlenecks caused by large data volumes. It adopts a technical workflow of \u201cfiltering + voxel grid downsampling + region growing algorithm\u201d for experiments. First, linear redundant point clouds in the raw data are effectively removed through visual interactive screening. Subsequently, a controlled variable experiment is designed to optimize the voxel grid downsampling parameters. It is determined that a voxel size of 1.1 mm reduces the point cloud data volume by $73.19 \\%$ while controlling the Hausdorff distance to 0.9322 mm, achieving a balance between data compression and morphological preservation. Finally, the region growing algorithm is used to complete the segmentation, successfully extracting cable end point clouds accounting for $\\mathbf{2 5. 7 8 \\%}$ of the total, with intact geometric features and no significant contamination from tooling point clouds. Experimental results show that this workflow can efficiently achieve precise segmentation of cable-tooling point clouds, providing high-quality data support for subsequent industrial applications such as cable inspection and modeling."}, {"paperId": "a389d87b8bb5233b40a575a9f2816561bfd203d7", "externalIds": {"DOI": "10.5194/isprs-annals-x-1-w2-2025-155-2025", "CorpusId": 282800499}, "title": "An improved multi-rule region growing method for point cloud segmentation of rock structural planes", "venue": "ISPRS Annals of the Photogrammetry, Remote Sensing and Spatial Information Sciences", "year": 2025, "citationCount": 0, "openAccessPdf": {"url": "", "status": null, "license": null, "disclaimer": "Notice: Paper or abstract available at https://api.unpaywall.org/v2/10.5194/isprs-annals-x-1-w2-2025-155-2025?email=<INSERT_YOUR_EMAIL> or https://doi.org/10.5194/isprs-annals-x-1-w2-2025-155-2025, which is subject to the license by the author or copyright owner provided with this content. Please go to the source to verify the license and copyright information for your use."}, "publicationTypes": ["JournalArticle", "Review"], "authors": [{"authorId": "2353302949", "name": "Mengxi Sun"}, {"authorId": "2300824740", "name": "Yansong Duan"}, {"authorId": "2353334233", "name": "Hui Cao"}, {"authorId": "2335309605", "name": "Wei Qin"}], "abstract": "Abstract. Accurately and efficiently identifying rock mass structural planes and extracting their characteristic information is crucial for rock mass stability assessment. Three-dimensional (3D) laser scanning technology can significantly enhance both the efficiency and accuracy of structural plane surveying; however, current mainstream point cloud segmentation algorithms exhibit notable shortcomings, including blurred recognition of structural plane edges, insufficient segmentation accuracy, and poor integration precision among segmented blocks. To address these problems, this study proposes an improved multi-rule region growing point cloud segmentation method for rock structural planes. Specifically, plane fitting residuals are calculated from the point cloud data, and these residual values are then used to optimize seed point selection, thereby improving the segmentation accuracy of planar point sets. Next, considering the spatial relationship between the location of rock structural plane point clouds and their neighborhoods, a KD-tree data structure is employed to perform voxel downsampling for nearest-neighbor searching, and the RANSAC-based region growing algorithm is further refined. By adjusting the region growing segmentation parameters using multiple feature values and segmenting structural planes based on point cloud normal vector differences and final feature values, the proposed method facilitates the extraction of structural plane orientation, spacing, and extent, improving the overall segmentation quality. Experimental results demonstrate that the error between the segmented rock structural plane area and dimensions obtained by this method and those computed using CAD is only 1.07%, which meets the engineering error tolerance. Consequently, the proposed method provides stable and effective technical support for the identification and segmentation of rock structural planes."}, {"paperId": "be4bba11bd673bf3173b40120f6bff69550e9290", "externalIds": {"DOI": "10.3390/app14072852", "CorpusId": 268830164}, "title": "A Rapid Segmentation Method of Highway Surface Point Cloud Data Based on a Supervoxel and Improved Region Growing Algorithm", "venue": "Applied Sciences", "year": 2024, "citationCount": 6, "openAccessPdf": {"url": "https://www.mdpi.com/2076-3417/14/7/2852/pdf?version=1711633636", "status": "GOLD", "license": "CCBY", "disclaimer": "Notice: Paper or abstract available at https://api.unpaywall.org/v2/10.3390/app14072852?email=<INSERT_YOUR_EMAIL> or https://doi.org/10.3390/app14072852, which is subject to the license by the author or copyright owner provided with this content. Please go to the source to verify the license and copyright information for your use."}, "publicationTypes": ["JournalArticle", "Review"], "authors": [{"authorId": "47749018", "name": "Wenshuo Zhao"}, {"authorId": "80934567", "name": "Yipeng Ning"}, {"authorId": "2294907857", "name": "Xiang Jia"}, {"authorId": "104316893", "name": "Dashuai Chai"}, {"authorId": "2210659726", "name": "Fei Su"}, {"authorId": "2294565721", "name": "Shengli Wang"}], "abstract": "Mobile laser scanning (MLS) systems have become an important technology for collecting and measuring road information for highway maintenance and reconstruction services. However, the efficient and accurate extraction of unstructured road surfaces from MLS point cloud data collected on highways is challenging. Specifically, the complex and unstructured characteristics of road surveying point cloud data lead to traditional 3D point cloud segmentation. When traditional 3D point cloud algorithms extract unstructured road surfaces, over-segmentation and under-segmentation often occur, which affects efficiency and accuracy. To solve these problems, this study introduces an enhanced road extraction method that integrates supervoxel and trajectory information into a traditional region growing algorithm. The method involves two main steps: first, a supervoxel data structure is applied to reconstruct the original MLS point cloud data, which diminishes the calculation time of the point cloud feature vector and accelerates the merging speed of a similar region; second, the trajectory information of the vehicle is used to optimize the seed selection strategy of the regio growing algorithm, which improves the accuracy of road surface extraction. Finally, two typical highway section tests (flat road and slope road) were conducted to validate the positioning performance of the proposed algorithm in an MLS point cloud. The results show that, compared with three kinds of traditional road surface segmentation algorithms, our method achieves an average extraction recall and precision of 99.1% and 96.0%, and by calculating the recall and precision, an F1 score of 97.5% can be obtained to evaluate the performance of the proposed method, for both datasets. Additionally, our method exhibits an average road surface extraction time that is 45.0%, 50.3%, and 55.8% faster than those of the other three automated segmentation algorithms."}, {"paperId": "8f32a6a46571f0b3de2df8beaedae86d14507446", "externalIds": {"DBLP": "journals/access/WangZGJWH23", "DOI": "10.1109/ACCESS.2023.3270709", "CorpusId": 258372896}, "title": "Indoor Point Cloud Segmentation Using a Modified Region Growing Algorithm and Accurate Normal Estimation", "venue": "IEEE Access", "year": 2023, "citationCount": 19, "openAccessPdf": {"url": "https://ieeexplore.ieee.org/ielx7/6287639/6514899/10108962.pdf", "status": "GOLD", "license": "CCBYNCND", "disclaimer": "Notice: Paper or abstract available at https://api.unpaywall.org/v2/10.1109/ACCESS.2023.3270709?email=<INSERT_YOUR_EMAIL> or https://doi.org/10.1109/ACCESS.2023.3270709, which is subject to the license by the author or copyright owner provided with this content. Please go to the source to verify the license and copyright information for your use."}, "publicationTypes": ["JournalArticle"], "authors": [{"authorId": "49337119", "name": "W. Wang"}, {"authorId": "2153912247", "name": "Yi Zhang"}, {"authorId": "2064354398", "name": "Gengyu Ge"}, {"authorId": "2196623251", "name": "Zhiqiang Shi"}, {"authorId": null, "name": "Yang Wang"}, {"authorId": "2153121625", "name": "Lihe Hu"}], "abstract": "With the development of 3D sensors, 3D point cloud data can now be obtained conveniently. Therefore, it is crucial to process point cloud data automatically. Region growing is a commonly used algorithm to segment point clouds, which greatly depends on the accuracy of points\u2019 normals and requires tuning two thresholds; i.e., the increment of curvature ( $\\sigma _{th}$ ) and normal angles ( $\\theta _{th}$ ). In this paper, we improve the region growing algorithm in two ways: Accurate normal estimation and strengthening the region growing criteria. For the first aspect, principal component analysis (PCA) is utilized to estimate the initial normals of the point cloud. Then, the points are divided into regular points (RP) and sharp feature points (SFP), according to their initial normals. A robust estimator-based PCA is then applied to refine the SFP normals. For the latter aspect, non-connected and non-coplanar points are detected and ignored when region grows. Finally, the segmentation performance of the proposed method is evaluated using internal and external indices. The results indicate that the proposed method can accurately estimate the point normals within an acceptable time, and obtain a better result than the classic PCA-based region growing algorithm and advanced DetMM-based methods."}, {"paperId": "824cabc7d983f778e52d2b1738ec727c4d731b4d", "externalIds": {"DBLP": "journals/cea/LiuMLSQWLZ26", "DOI": "10.1016/j.compag.2026.111474", "CorpusId": 285127628}, "title": "A stem-leaf segmentation method of maize plant point cloud based on region growing and leaf phenotypic parameters measurement", "venue": "Computers and Electronics in Agriculture", "year": 2026, "citationCount": 1, "openAccessPdf": {"url": "", "status": null, "license": null, "disclaimer": "Notice: Paper or abstract available at https://api.unpaywall.org/v2/10.1016/j.compag.2026.111474?email=<INSERT_YOUR_EMAIL> or https://doi.org/10.1016/j.compag.2026.111474, which is subject to the license by the author or copyright owner provided with this content. Please go to the source to verify the license and copyright information for your use."}, "publicationTypes": ["JournalArticle"], "authors": [{"authorId": "2237604854", "name": "Mengjie Liu"}, {"authorId": "145479679", "name": "Yanlong Miao"}, {"authorId": "2301246598", "name": "Yida Li"}, {"authorId": "2342306376", "name": "Wenyi Sheng"}, {"authorId": "34271068", "name": "Ruicheng Qiu"}, {"authorId": "2312334830", "name": "Minjuan Wang"}, {"authorId": "2118384995", "name": "Han Li"}, {"authorId": "2241948901", "name": "Man Zhang"}], "abstract": null}, {"paperId": "00f491c3d7df0676bcc353571f17b9a9471c0c6f", "externalIds": {"DOI": "10.1016/j.jer.2026.03.002", "CorpusId": 286561730}, "title": "Point cloud segmentation method for rock pile particle size analysis based on edge detection and region growing", "venue": "Journal of Engineering Research", "year": 2026, "citationCount": 0, "openAccessPdf": {"url": "", "status": null, "license": null, "disclaimer": "Notice: Paper or abstract available at https://api.unpaywall.org/v2/10.1016/j.jer.2026.03.002?email=<INSERT_YOUR_EMAIL> or https://doi.org/10.1016/j.jer.2026.03.002, which is subject to the license by the author or copyright owner provided with this content. Please go to the source to verify the license and copyright information for your use."}, "publicationTypes": ["JournalArticle"], "authors": [{"authorId": "2313784965", "name": "Qiang Yao"}, {"authorId": "2197167717", "name": "Peng Ji"}, {"authorId": "2238917650", "name": "Yu Wu"}, {"authorId": "98465044", "name": "Yabin Liao"}, {"authorId": "2358416079", "name": "Jiayu Wang"}, {"authorId": "2325117655", "name": "Mengnan Shi"}], "abstract": null}, {"paperId": "75b0684555696ab3d86ac65841c4a230d1623b70", "externalIds": {"DBLP": "journals/ijprai/LuoJW21", "MAG": "3092275581", "DOI": "10.1142/s0218001421540070", "CorpusId": 225135704}, "title": "Supervoxel-Based Region Growing Segmentation for Point Cloud Data", "venue": "International journal of pattern recognition and artificial intelligence", "year": 2021, "citationCount": 25, "openAccessPdf": {"url": "", "status": null, "license": null, "disclaimer": "Notice: Paper or abstract available at https://api.unpaywall.org/v2/10.1142/s0218001421540070?email=<INSERT_YOUR_EMAIL> or https://doi.org/10.1142/s0218001421540070, which is subject to the license by the author or copyright owner provided with this content. Please go to the source to verify the license and copyright information for your use."}, "publicationTypes": ["JournalArticle"], "authors": [{"authorId": "1455972457", "name": "Nan Luo"}, {"authorId": "2117807772", "name": "Yuanyuan Jiang"}, {"authorId": "2117949954", "name": "Quan Wang"}], "abstract": "Point cloud segmentation is a crucial fundamental step in 3D reconstruction, object recognition and scene understanding. This paper proposes a supervoxel-based point cloud segmentation algorithm in region growing principle to solve the issues of inaccurate boundaries and nonsmooth segments in the existing methods. To begin with, the input point cloud is voxelized and then pre-segmented into sparse supervoxels by flow constrained clustering, considering the spatial distance and local geometry between voxels. Afterwards, plane fitting is applied to the over-segmented supervoxels and seeds for region growing are selected with respect to the fitting residuals. Starting from pruned seed patches, adjacent supervoxels are merged in region growing style to form the final segments, according to the normalized similarity measure that integrates the smoothness and shape constraints of supervoxels. We determine the values of parameters via experimental tests, and the final results show that, by voxelizing and pre-segmenting the point clouds, the proposed algorithm is robust to noises and can obtain smooth segmentation regions with accurate boundaries in high efficiency."}, {"paperId": "d34bf77c7e6b6d3e595a7df99c20513359c26b20", "externalIds": {"DOI": "10.1109/ICCEA58433.2023.10135468", "CorpusId": 259028511}, "title": "3D Point Cloud Segmentation Algorithm Based on Improved Region Growing", "venue": "International Conference Civil Engineering and Architecture", "year": 2023, "citationCount": 5, "openAccessPdf": {"url": "", "status": null, "license": null, "disclaimer": "Notice: Paper or abstract available at https://api.unpaywall.org/v2/10.1109/ICCEA58433.2023.10135468?email=<INSERT_YOUR_EMAIL> or https://doi.org/10.1109/ICCEA58433.2023.10135468, which is subject to the license by the author or copyright owner provided with this content. Please go to the source to verify the license and copyright information for your use."}, "publicationTypes": ["Conference"], "authors": [{"authorId": "2162509269", "name": "Changfu Yu"}, {"authorId": "2184785714", "name": "Wenqiang Fan"}, {"authorId": "2210546236", "name": "Jing Xiang"}], "abstract": "Point cloud segmentation is the key link of point cloud data processing, which can provide important information for subsequent surface reconstruction and feature extraction. In the point cloud segmentation algorithm based on regional growth, the selection strategy of seed points and the judgment basis of growth or not are the two factors that have the greatest influence on the segmentation effect. In this paper, the point with the smallest curvature is used as the seed point. According to the density of the point cloud and the number of points fitting the surface adaptively, the normal vector of each point on the surface of the point cloud is calculated. Then, by calculating the mean and standard deviation of the angle difference between the normal vectors of the points in the neighborhood of various sub-points, the confidence interval is set as the condition of regional growth. Experimental results show that the proposed algorithm improves the effect of point cloud segmentation obviously compared with the traditional region growing algorithm."}]}
