{"total": 617, "offset": 0, "next": 10, "data": [{"paperId": "b01db626869591596ed76d8404db295ebee316b9", "externalIds": {"DOI": "10.1088/1361-6501/adf000", "CorpusId": 280186780}, "title": "A fast and accurate LiDAR-inertial odometry based on ground segmentation", "venue": "Measurement science and technology", "year": 2025, "citationCount": 0, "openAccessPdf": {"url": "", "status": null, "license": null, "disclaimer": "Notice: Paper or abstract available at https://api.unpaywall.org/v2/10.1088/1361-6501/adf000?email=<INSERT_YOUR_EMAIL> or https://doi.org/10.1088/1361-6501/adf000, which is subject to the license by the author or copyright owner provided with this content. Please go to the source to verify the license and copyright information for your use."}, "publicationTypes": ["JournalArticle"], "authors": [{"authorId": "2309666632", "name": "Zhihao Yu"}, {"authorId": "1569771517", "name": "Juntong Yun"}, {"authorId": "2308239852", "name": "Du Jiang"}, {"authorId": "2244279941", "name": "Li Huang"}, {"authorId": "2118596017", "name": "Yuan-liang Xie"}, {"authorId": "2155355409", "name": "Ying Liu"}, {"authorId": "2295594396", "name": "Baojia Chen"}], "abstract": "Ground segmentation-based point cloud processing methods have gained significant attention in simultaneous localization and mapping (SLAM) for LiDAR-inertial odometry applications, particularly in autonomous vehicles. However, existing methods often lack robustness in complex environments, such as uneven terrains or obstructed areas. To address these challenges, we propose a novel point cloud segmentation algorithm that combines vector iteration processing and ground expansion techniques. This method iteratively updates the reference vector using the normal vectors of successfully fitted planes, while expanding the ground points by incorporating neighboring planes. Furthermore, to mitigate redundant calculations in conventional approaches, we introduce a grid-based local plane fitting method. By partitioning the ground into smaller regions and employing a custom node structure, this technique updates plane parameters iteratively, improving both fitting accuracy and computational efficiency. For non-ground point clouds, we propose an iterative principal component analysis method combined with outlier filtering. Experimental evaluations were conducted using 20 sequences from four public datasets and a custom campus dataset. The proposed method achieved an average time savings of 26.7% compared to state-of-the-art approaches, while maintaining superior map accuracy. This work contributes to advancing robust and efficient point cloud processing for autonomous vehicle applications in challenging environments."}, {"paperId": "8e75b6683a67a8f57b94cc3120523c108b4a7725", "externalIds": {"DOI": "10.3390/electronics13050841", "CorpusId": 268026653}, "title": "A Staged Real-Time Ground Segmentation Algorithm of 3D LiDAR Point Cloud", "venue": "Electronics", "year": 2024, "citationCount": 14, "openAccessPdf": {"url": "https://www.mdpi.com/2079-9292/13/5/841/pdf?version=1708593758", "status": "GOLD", "license": "CCBY", "disclaimer": "Notice: Paper or abstract available at https://api.unpaywall.org/v2/10.3390/electronics13050841?email=<INSERT_YOUR_EMAIL> or https://doi.org/10.3390/electronics13050841, which is subject to the license by the author or copyright owner provided with this content. Please go to the source to verify the license and copyright information for your use."}, "publicationTypes": ["JournalArticle"], "authors": [{"authorId": "2338080225", "name": "Weiye Deng"}, {"authorId": "2260282469", "name": "Xiaoping Chen"}, {"authorId": "9105331", "name": "Jing-Qiang Jiang"}], "abstract": "Ground segmentation is a crucial task in the field of 3D LiDAR perception for autonomous driving. It is commonly used as a preprocessing step for tasks such as object detection and road extraction. However, the existing ground segmentation algorithms often struggle to meet the requirements of robustness and real-time performance due to significant variations in ground slopes and flatness across different scenes, as well as the influence of objects such as grass, flowerbeds, and trees in the environment. To address these challenges, this paper proposes a staged real-time ground segmentation algorithm. The proposed algorithm not only achieves high real-time performance but also exhibits improved robustness. Based on a concentric zone model, the algorithm filters out reflected noise points and vertical non-ground points in the first stage, improving the validity of the fitted ground plane. In the second stage, the algorithm effectively addresses the issue of undersegmentation of ground points through three steps: ground plane fitting, ground plane validity judgment, and ground plane repair. The experimental results on the SemanticKITTI dataset demonstrate that the proposed algorithm outperforms the existing methods in terms of segmentation results."}, {"paperId": "c405b4da60aeb1a3bb4f996f2a37a9dfc4b1748d", "externalIds": {"DOI": "10.1109/BEC61458.2024.10737955", "CorpusId": 273825491}, "title": "Camera-LiDAR Fusion based Object Segmentation in Adverse Weather Conditions for Autonomous Driving", "venue": "2024 19th Biennial Baltic Electronics Conference (BEC)", "year": 2024, "citationCount": 1, "openAccessPdf": {"url": "", "status": "CLOSED", "license": null, "disclaimer": "Notice: Paper or abstract available at https://api.unpaywall.org/v2/10.1109/BEC61458.2024.10737955?email=<INSERT_YOUR_EMAIL> or https://doi.org/10.1109/BEC61458.2024.10737955, which is subject to the license by the author or copyright owner provided with this content. Please go to the source to verify the license and copyright information for your use."}, "publicationTypes": ["Conference"], "authors": [{"authorId": "2282143209", "name": "Junyi Gu"}, {"authorId": "2300240352", "name": "Mauro Bellone"}, {"authorId": "16787623", "name": "Artjom Lind"}], "abstract": "This paper presents the results of a series of machine learning experiments that focus on the domain adaption between different training datasets for autonomous driving. The experiments use a neural network model obtained through transfer learning from the Waymo Open Dataset and then tested with our custom dataset, which was recorded at the TalTech campus in different weather conditions. In this work, we developed a set of tools to extract and process the sensory data from the iseAuto shuttle. The camera and LiDAR sensors of the iseAuto shuttle were calibrated, and the point clouds data of the LiDAR sensor was projected onto the camera plane. We present, here, our publicly available iseAuto dataset which was used for a classification task under adverse weather and low illumination conditions. The iseAuto dataset contains 8000 frames of camera and LiDAR data for traffic object detection and segmentation. We provide ground truth annotations of 2400 frames, in which the object contours were manually labeled out. In addition, we provided the manual-labeled ground-truth segmentations of cars and humans in images, which can be used by the community to test the accuracy of the segmentation of their models. An additional focus of this paper is to demonstrate that with a few custom annotated data, using transfer learning and semi-supervised learning, it is possible to obtain reasonable accuracy on noisy real-world data. The current performance in vehicle segmentation ranges from 65% to 85% in intersection over union (IoU) and between 43% and 60% IoU for pedestrian segmentation in challenging scenarios such as nighttime and rainy weather."}, {"paperId": "d98b54a9bea92fcf3b21758d014af5d1c7ac04d1", "externalIds": {"DBLP": "journals/tiv/MijitFYLZH24", "DOI": "10.1109/TIV.2023.3329824", "CorpusId": 265009712}, "title": "LR-Seg: A Ground Segmentation Method for Low-Resolution LiDAR Point Clouds", "venue": "IEEE Transactions on Intelligent Vehicles", "year": 2024, "citationCount": 9, "openAccessPdf": {"url": "", "status": "CLOSED", "license": null, "disclaimer": "Notice: Paper or abstract available at https://api.unpaywall.org/v2/10.1109/TIV.2023.3329824?email=<INSERT_YOUR_EMAIL> or https://doi.org/10.1109/TIV.2023.3329824, which is subject to the license by the author or copyright owner provided with this content. Please go to the source to verify the license and copyright information for your use."}, "publicationTypes": ["JournalArticle"], "authors": [{"authorId": "2221819477", "name": "Tayir Mijit"}, {"authorId": "88728613", "name": "Eksan Firkat"}, {"authorId": "9320150", "name": "Xiaming Yuan"}, {"authorId": "2283319040", "name": "Yu Liang"}, {"authorId": "2108701107", "name": "Jihong Zhu"}, {"authorId": "50075755", "name": "Askar Hamdulla"}], "abstract": "In outdoor environments, ground segmentation is an important pre-processing task for the local environment perception of autonomous vehicle platforms and is the basis for obstacle detection, classification, and path planning. However, existing ground segmentation algorithms primarily focus on dense point cloud data and often struggle to achieve satisfactory accuracy when applied to sparse point cloud data. In light of this challenge, we propose a novel ground segmentation method, LR-Seg, specifically tailored for sparse point cloud data. Our method aims to address the limitations observed in previous approaches and provide improved performance, particularly on sparse point cloud data. To achieve faster processing speed, the method first divides the original point cloud into sub-regions of different sizes based on the distribution characteristics of the sparse point cloud data in the XOY plane. Then, the point clouds are appropriately assigned, and most of the non-ground points in each sub-region are removed using the PCA plane fitting method. Finally, the point cloud geometric feature information within each sub-region is used to reduce over-segmentation. The experimental results show that our method can perform ground segmentation quickly on flat and slope road sections, and the average F1 score can be maintained above 90% with an average time of 3 ms, which is suitable for various road environments."}, {"paperId": "3bbc126fafb65e4c3f52699fb27baa03857ee84d", "externalIds": {"DOI": "10.1109/APCAP62011.2024.10881917", "CorpusId": 276509138}, "title": "Fast Ground Segmentation for 3D LiDAR Point Cloud with Height-based Candidate Values", "venue": "IEEE Asia-Pacific Conference on Antennas and Propagation", "year": 2024, "citationCount": 0, "openAccessPdf": {"url": "", "status": "CLOSED", "license": null, "disclaimer": "Notice: Paper or abstract available at https://api.unpaywall.org/v2/10.1109/APCAP62011.2024.10881917?email=<INSERT_YOUR_EMAIL> or https://doi.org/10.1109/APCAP62011.2024.10881917, which is subject to the license by the author or copyright owner provided with this content. Please go to the source to verify the license and copyright information for your use."}, "publicationTypes": ["Conference"], "authors": [{"authorId": "2347803404", "name": "Shaochun Liu"}, {"authorId": "2280896041", "name": "Mu Zhou"}, {"authorId": "46330383", "name": "Liangbo Xie"}, {"authorId": "2224111015", "name": "Nan Du"}], "abstract": "LiDAR plays a crucial role in self-driving technology as it provides advanced detection capabilities that enable Autonomous Vehicles (AVs) to gather extensive environmental information. Ground segmentation is of utmost importance for AVs, as it allows them to effectively navigate and recognize neighboring objects. Unfortunately, some current algorithms suffer from issues such as unavailability on complex terrains, and excessive time and memory usage. To tackle these problems, this paper presents a novel ground segmentation framework. First of all, the point cloud is projected onto a 2 D plane, followed by grid region segmentation. Second, candidate grids for the ground are identified based on the flatness criterion, and height-based candidate values are obtained by using Kernel Density Estimation (KDE) on candidate grid heights. Third, the ground segmentation is performed by using region-wise ground plane fitting with height-based candidate values. Finally, experimental verification on SemanticKITTI datasets demonstrates the promising performance of the proposed framework, outperforming three existing methods in terms of segmentation accuracy. Furthermore, the proposed framework achieves an impressive average processing time of only 0.05 s for a single scan data from a 64-beam LiDAR, fully satisfying the real-time performance requirement of AVs."}, {"paperId": "b773bcde0ddbd3fd296598797afda8d425cfe9be", "externalIds": {"DBLP": "journals/access/RotjanakarinK25", "DOI": "10.1109/ACCESS.2025.3593664", "CorpusId": 280511195}, "title": "Fast Point Cloud Ground Segmentation Using Frequency Analysis and Linear Plane Estimation", "venue": "IEEE Access", "year": 2025, "citationCount": 0, "openAccessPdf": {"url": "", "status": null, "license": null, "disclaimer": "Notice: Paper or abstract available at https://api.unpaywall.org/v2/10.1109/ACCESS.2025.3593664?email=<INSERT_YOUR_EMAIL> or https://doi.org/10.1109/ACCESS.2025.3593664, which is subject to the license by the author or copyright owner provided with this content. Please go to the source to verify the license and copyright information for your use."}, "publicationTypes": ["JournalArticle"], "authors": [{"authorId": "2374856990", "name": "Warintorn Rotjanakarin"}, {"authorId": "3242669", "name": "Watcharin Kaewapichai"}], "abstract": "Deploying fully autonomous vehicles requires a reliable and secure Advanced Driving Assistance System (ADAS) which, crucially, must also offer real-time performance. This study proposes fast ground segmentation for LiDAR point clouds, utilizing frequency analysis and plane estimation. The process consists of four main steps: data sampling, intensity filtering, height filtering, and ground plane estimation. Data sampling selects partial data based on the vehicle\u2019s LiDAR installation. Intensity filtering extracts points within the most frequent intensity range, while height filtering utilizes unimodal thresholding to extract points in the dominant frequent height range, and together these filtered points estimate the plane of the segmentation boundary. Our experimental results, utilizing the SemanticKITTI dataset, have collected sampling width ratios (<inline-formula> <tex-math notation=\"LaTeX\">$R_{w}$ </tex-math></inline-formula>), standard deviation multipliers (K), and tolerance coefficients (<inline-formula> <tex-math notation=\"LaTeX\">$\\varDelta T$ </tex-math></inline-formula>), which were evaluated using ANOVA. The optimal parameter combination yielded 91% accuracy, 84% precision, 94% recall, and an F1 score of 89%, all taking 2.7 ms of processing time."}, {"paperId": "f490661af3df59dd4e8eccc60e593d8f1f42fbdf", "externalIds": {"DOI": "10.56038/ejrnd.v4i4.527", "CorpusId": 275394573}, "title": "High-Frequency Ground Segmentation for Autonomous Mobile Robots: A RANSAC-Based Approach", "venue": "The European Journal of Research and Development", "year": 2024, "citationCount": 0, "openAccessPdf": {"url": "", "status": null, "license": null, "disclaimer": "Notice: Paper or abstract available at https://api.unpaywall.org/v2/10.56038/ejrnd.v4i4.527?email=<INSERT_YOUR_EMAIL> or https://doi.org/10.56038/ejrnd.v4i4.527, which is subject to the license by the author or copyright owner provided with this content. Please go to the source to verify the license and copyright information for your use."}, "publicationTypes": ["JournalArticle"], "authors": [{"authorId": "2339182998", "name": "Emirhan Cibir"}, {"authorId": "2278733176", "name": "Ulas Birgul"}, {"authorId": "2278732033", "name": "G\u00f6khan Atali"}], "abstract": "In this work, a RANSAC-based algorithm was developed for ground segmentation on point clouds obtained from 3D LIDAR sensors. The algorithm employs both distance and normal angle criteria to construct a robust ground plane model, even in the presence of noise and outliers. In the initial stage, a height filter is applied to analyze only the points associated with the ground. Subsequently, the RANSAC method identifies the plane model with the highest number of inliers, dividing the point cloud into two groups: ground and obstacles. \nThe proposed method demonstrated real-time performance with a 20 Hz LIDAR sensor, delivering higher speed and accuracy compared to alternative approaches. This study provides an effective and reliable solution for ground segmentation in autonomous systems."}, {"paperId": "c967e897796eb201e5188fd36cac10a257cad113", "externalIds": {"DBLP": "journals/sensors/GomesMCCR23", "PubMedCentral": "9862692", "DOI": "10.3390/s23020601", "CorpusId": 255717907, "PubMed": "36679414"}, "title": "A Survey on Ground Segmentation Methods for Automotive LiDAR Sensors", "venue": "Italian National Conference on Sensors", "year": 2023, "citationCount": 39, "openAccessPdf": {"url": "https://www.mdpi.com/1424-8220/23/2/601/pdf?version=1672912014", "status": "GOLD", "license": "CCBY", "disclaimer": "Notice: Paper or abstract available at https://pmc.ncbi.nlm.nih.gov/articles/PMC9862692, which is subject to the license by the author or copyright owner provided with this content. Please go to the source to verify the license and copyright information for your use."}, "publicationTypes": ["Review", "JournalArticle"], "authors": [{"authorId": "46309528", "name": "Tiago Gomes"}, {"authorId": "2176082403", "name": "D. Matias"}, {"authorId": "153215046", "name": "Andre N. Campos"}, {"authorId": "152194017", "name": "Lu\u00eds Cunha"}, {"authorId": "46894379", "name": "Ricardo Roriz"}], "abstract": "In the near future, autonomous vehicles with full self-driving features will populate our public roads. However, fully autonomous cars will require robust perception systems to safely navigate the environment, which includes cameras, RADAR devices, and Light Detection and Ranging (LiDAR) sensors. LiDAR is currently a key sensor for the future of autonomous driving since it can read the vehicle\u2019s vicinity and provide a real-time 3D visualization of the surroundings through a point cloud representation. These features can assist the autonomous vehicle in several tasks, such as object identification and obstacle avoidance, accurate speed and distance measurements, road navigation, and more. However, it is crucial to detect the ground plane and road limits to safely navigate the environment, which requires extracting information from the point cloud to accurately detect common road boundaries. This article presents a survey of existing methods used to detect and extract ground points from LiDAR point clouds. It summarizes the already extensive literature and proposes a comprehensive taxonomy to help understand the current ground segmentation methods that can be used in automotive LiDAR sensors."}, {"paperId": "416942ffc64a43d8f6136caf493c278681819326", "externalIds": {"DBLP": "conf/iros/MaLWWQL23", "DOI": "10.1109/IROS55552.2023.10341687", "CorpusId": 266196636}, "title": "Self-Supervised Drivable Area Segmentation Using LiDAR's Depth Information for Autonomous Driving", "venue": "IEEE/RJS International Conference on Intelligent RObots and Systems", "year": 2023, "citationCount": 17, "openAccessPdf": {"url": "", "status": "CLOSED", "license": null, "disclaimer": "Notice: Paper or abstract available at https://api.unpaywall.org/v2/10.1109/IROS55552.2023.10341687?email=<INSERT_YOUR_EMAIL> or https://doi.org/10.1109/IROS55552.2023.10341687, which is subject to the license by the author or copyright owner provided with this content. Please go to the source to verify the license and copyright information for your use."}, "publicationTypes": ["JournalArticle", "Conference"], "authors": [{"authorId": "3316586", "name": "Fulong Ma"}, {"authorId": "2152798488", "name": "Yang Liu"}, {"authorId": "2198446965", "name": "Sheng Wang"}, {"authorId": "2315446298", "name": "Jin Wu"}, {"authorId": "2273988951", "name": "Weiqing Qi"}, {"authorId": "2255533290", "name": "Ming Liu"}], "abstract": "Drivable area segmentation is an essential component of the visual perception system for autonomous driving vehicles. Recent efforts in deep neural networks have sig-nificantly improved semantic segmentation performance for autonomous driving. However, most DNN-based methods need a large amount of data to train the models, and collecting large-scale datasets with manually labeled ground truth is costly, tedious, time consuming and requires the availability of experts, making DNN-based methods often difficult to implement in real world applications. Hence, in this paper, we introduce a novel module named automatic data labeler (ADL), which leverages a deterministic LiDAR-based method for ground plane segmentation and road boundary detection to create large datasets suitable for training DNNs. Furthermore, since the data generated by our ADL module is not as accurate as the manually annotated data, we introduce uncertainty estimation to compensate for the gap between the human labeler and our ADL. Finally, we train the semantic segmentation neural networks using our automatically generated labels on the KITTI dataset [10] and KITTI-CARLA dataset [7]. The experimental results demonstrate that our proposed ADL method not only achieves impressive performance compared to manual labeling but also exhibits more robust and accurate results than both traditional methods and state-of-the-art self-supervised methods."}, {"paperId": "7cf32598d33fa49fbff144ee0888a8bfc6a293ef", "externalIds": {"MAG": "3109458255", "DOI": "10.1017/ATSIP.2020.21", "CorpusId": 229607046}, "title": "Ground-distance segmentation of 3D LiDAR point cloud toward autonomous driving", "venue": "APSIPA Transactions on Signal and Information Processing", "year": 2020, "citationCount": 5, "openAccessPdf": {"url": "https://www.cambridge.org/core/services/aop-cambridge-core/content/view/91F72A086131E906889C5918E94B8152/S2048770320000219a.pdf/div-class-title-ground-distance-segmentation-of-3d-lidar-point-cloud-toward-autonomous-driving-div.pdf", "status": "GOLD", "license": "CCBYNC", "disclaimer": "Notice: Paper or abstract available at https://api.unpaywall.org/v2/10.1017/ATSIP.2020.21?email=<INSERT_YOUR_EMAIL> or https://doi.org/10.1017/ATSIP.2020.21, which is subject to the license by the author or copyright owner provided with this content. Please go to the source to verify the license and copyright information for your use."}, "publicationTypes": null, "authors": [{"authorId": "2115902236", "name": "Jian Wu"}, {"authorId": "1777434", "name": "Qingxiong Yang"}], "abstract": "In this paper, we study the semantic segmentation of 3D LiDAR point cloud data in urban environments for autonomous driving, and a method utilizing the surface information of the ground plane was proposed. In practice, the resolution of a LiDAR sensor installed in a self-driving vehicle is relatively low and thus the acquired point cloud is indeed quite sparse. While recent work on dense point cloud segmentation has achieved promising results, the performance is relatively low when directly applied to sparse point clouds. This paper is focusing on semantic segmentation of the sparse point clouds obtained from 32-channel LiDAR sensor with deep neural networks. The main contribution is the integration of the ground information which is used to group ground points far away from each other. Qualitative and quantitative experiments on two large-scale point cloud datasets show that the proposed method outperforms the current state-of-the-art."}]}
