{"total": 998, "offset": 0, "next": 10, "data": [{"paperId": "5760c470fa4b004de9ac13c0a0e1730fa17347df", "externalIds": {"DBLP": "journals/corr/abs-2307-09754", "ArXiv": "2307.09754", "DOI": "10.1109/LRA.2024.3418270", "CorpusId": 270593831}, "title": "ProNav: Proprioceptive Traversability Estimation for Legged Robot Navigation in Outdoor Environments", "venue": "IEEE Robotics and Automation Letters", "year": 2023, "citationCount": 29, "openAccessPdf": {"url": "https://arxiv.org/pdf/2307.09754", "status": "GREEN", "license": null, "disclaimer": "Notice: Paper or abstract available at https://arxiv.org/abs/2307.09754, which is subject to the license by the author or copyright owner provided with this content. Please go to the source to verify the license and copyright information for your use."}, "publicationTypes": ["JournalArticle"], "authors": [{"authorId": "83066459", "name": "Mohamed Bashir Elnoor"}, {"authorId": "73769017", "name": "A. Sathyamoorthy"}, {"authorId": "123689410", "name": "Kasun Weerakoon"}, {"authorId": "2256714387", "name": "Dinesh Manocha"}], "abstract": "We propose a novel method, ProNav, which uses proprioceptive signals for traversability estimation in challenging outdoor terrains for autonomous legged robot navigation. Our approach uses sensor data from a legged robot's joint encoders, force, and current sensors to measure the joint positions, forces, and current consumption respectively to accurately assess a terrain's stability, resistance to the robot's motion, risk of entrapment, and crash. Based on these factors, we compute the appropriate robot gait to maximize stability, which leads to reduced energy consumption. Our approach can also be used to predict imminent crashes in challenging terrains and execute behaviors to preemptively avoid them. We integrate ProNav with an exteroceptive-based method to navigate real-world environments with dense vegetation, high granularity, negative obstacles, etc. Our method shows an improvement up to 40% in terms of success rate and up to 15.1% reduction in terms of energy consumption compared to exteroceptive-based methods."}, {"paperId": "773706de12898d9da89b0b670b08d7f6f2b7d140", "externalIds": {"CorpusId": 271515758}, "title": "ProNav: Proprioceptive Traversability Estimation for Autonomous Legged Robot Navigation in Outdoor Environments", "venue": "", "year": 2023, "citationCount": 6, "openAccessPdf": {"url": "", "status": null, "license": null}, "publicationTypes": null, "authors": [{"authorId": "83066459", "name": "Mohamed Bashir Elnoor"}, {"authorId": "145503327", "name": "A. Jagan"}, {"authorId": "2323969575", "name": "K. Sathyamoorthy"}, {"authorId": "2360858188", "name": "D. K. Weerakoon"}, {"authorId": "105047799", "name": "Manocha"}], "abstract": null}, {"paperId": "b9b192a380a87168dac7a3b67d8d2ddd8fb8e8ee", "externalIds": {"DBLP": "journals/corr/abs-2411-17134", "ArXiv": "2411.17134", "DOI": "10.48550/arXiv.2411.17134", "CorpusId": 274280573}, "title": "TRIP: Terrain Traversability Mapping With Risk-Aware Prediction for Enhanced Online Quadrupedal Robot Navigation", "venue": "arXiv.org", "year": 2024, "citationCount": 9, "openAccessPdf": {"url": "", "status": null, "license": null, "disclaimer": "Notice: Paper or abstract available at https://arxiv.org/abs/2411.17134, which is subject to the license by the author or copyright owner provided with this content. Please go to the source to verify the license and copyright information for your use."}, "publicationTypes": ["JournalArticle"], "authors": [{"authorId": "153126209", "name": "Mi-Suk Oh"}, {"authorId": "121128357", "name": "Byeong-Uk Yu"}, {"authorId": "67345281", "name": "I. M. A. Nahrendra"}, {"authorId": "2308815107", "name": "Seoyeon Jang"}, {"authorId": "2323587484", "name": "Hyeonwoo Lee"}, {"authorId": "2308353503", "name": "Dongkyu Lee"}, {"authorId": "2276669083", "name": "Seungjae Lee"}, {"authorId": "2268097159", "name": "Yeeun Kim"}, {"authorId": "2313106644", "name": "Kevin Christiansen Marsim"}, {"authorId": "151025116", "name": "Hyungtae Lim"}, {"authorId": "2276609097", "name": "Hyun Myung"}], "abstract": "Accurate traversability estimation using an online dense terrain map is crucial for safe navigation in challenging environments like construction and disaster areas. However, traversability estimation for legged robots on rough terrains faces substantial challenges owing to limited terrain information caused by restricted field-of-view, and data occlusion and sparsity. To robustly map traversable regions, we introduce terrain traversability mapping with risk-aware prediction (TRIP). TRIP reconstructs the terrain maps while predicting multi-modal traversability risks, enhancing online autonomous navigation with the following contributions. Firstly, estimating steppability in a spherical projection space allows for addressing data sparsity while accomodating scalable terrain properties. Moreover, the proposed traversability-aware Bayesian generalized kernel (T-BGK)-based inference method enhances terrain completion accuracy and efficiency. Lastly, leveraging the steppability-based Mahalanobis distance contributes to robustness against outliers and dynamic elements, ultimately yielding a static terrain traversability map. As verified in both public and our in-house datasets, our TRIP shows significant performance increases in terms of terrain reconstruction and navigation map. A demo video that demonstrates its feasibility as an integral component within an onboard online autonomous navigation system for quadruped robots is available at https://youtu.be/d7HlqAP4l0c."}, {"paperId": "e526c837efc6189dbc7f56a4c2dd78ab979d58c1", "externalIds": {"DBLP": "conf/corl/RenLDLW24", "ArXiv": "2404.15256", "DOI": "10.48550/arXiv.2404.15256", "CorpusId": 269302977}, "title": "TOP-Nav: Legged Navigation Integrating Terrain, Obstacle and Proprioception Estimation", "venue": "Conference on Robot Learning", "year": 2024, "citationCount": 9, "openAccessPdf": {"url": "", "status": null, "license": null, "disclaimer": "Notice: Paper or abstract available at https://arxiv.org/abs/2404.15256, which is subject to the license by the author or copyright owner provided with this content. Please go to the source to verify the license and copyright information for your use."}, "publicationTypes": ["JournalArticle"], "authors": [{"authorId": "120532977", "name": "Junli Ren"}, {"authorId": "2297927179", "name": "Yikai Liu"}, {"authorId": "2219545424", "name": "Yingru Dai"}, {"authorId": "2238901063", "name": "Guijin Wang"}], "abstract": "Legged navigation is typically examined within open-world, off-road, and challenging environments. In these scenarios, estimating external disturbances requires a complex synthesis of multi-modal information. This underlines a major limitation in existing works that primarily focus on avoiding obstacles. In this work, we propose TOP-Nav, a novel legged navigation framework that integrates a comprehensive path planner with Terrain awareness, Obstacle avoidance and close-loop Proprioception. TOP-Nav underscores the synergies between vision and proprioception in both path and motion planning. Within the path planner, we present and integrate a terrain estimator that enables the robot to select waypoints on terrains with higher traversability while effectively avoiding obstacles. In the motion planning level, we not only implement a locomotion controller to track the navigation commands, but also construct a proprioception advisor to provide motion evaluations for the path planner. Based on the close-loop motion feedback, we make online corrections for the vision-based terrain and obstacle estimations. Consequently, TOP-Nav achieves open-world navigation that the robot can handle terrains or disturbances beyond the distribution of prior knowledge and overcomes constraints imposed by visual conditions. Building upon extensive experiments conducted in both simulation and real-world environments, TOP-Nav demonstrates superior performance in open-world navigation compared to existing methods."}, {"paperId": "41edda347bdc3a88362659ae96096ff443d77abc", "externalIds": {"DBLP": "journals/corr/abs-2501-17594", "ArXiv": "2501.17594", "DOI": "10.1109/ICRA55743.2025.11127781", "CorpusId": 275954274}, "title": "Watch Your STEPP: Semantic Traversability Estimation Using Pose Projected Features", "venue": "IEEE International Conference on Robotics and Automation", "year": 2025, "citationCount": 9, "openAccessPdf": {"url": "", "status": null, "license": null, "disclaimer": "Notice: Paper or abstract available at https://arxiv.org/abs/2501.17594, which is subject to the license by the author or copyright owner provided with this content. Please go to the source to verify the license and copyright information for your use."}, "publicationTypes": ["JournalArticle", "Conference"], "authors": [{"authorId": "2324695234", "name": "Sebastian \u00c6gidius"}, {"authorId": "2342685048", "name": "Dennis Hadjivelichkov"}, {"authorId": "2325953467", "name": "Jianhao Jiao"}, {"authorId": "2342685333", "name": "Jonathan Embley-Riches"}, {"authorId": "2257345914", "name": "Dimitrios Kanoulas"}], "abstract": "Understanding the traversability of terrain is essential for autonomous robot navigation, particularly in unstructured environments such as natural landscapes. Although traditional methods, such as occupancy mapping, provide a basic framework, they often fail to account for the complex mobility capabilities of some platforms such as legged robots. In this work, we propose a method for estimating terrain traversability by learning from demonstrations of human walking. Our approach leverages dense, pixel-wise feature embeddings generated using the DINOv2 vision Transformer model, which are processed through an encoder-decoder MLP architecture to analyze terrain segments. The averaged feature vectors, extracted from the masked regions of interest, are used to train the model in a reconstruction-based framework. By minimizing reconstruction loss, the network distinguishes between familiar terrain with a low reconstruction error and unfamiliar or hazardous terrain with a higher reconstruction error. This approach facilitates the detection of anomalies, allowing a legged robot to navigate more effectively through challenging terrain. We run real-world experiments on the ANYmal legged robot both indoor and outdoor to prove our proposed method. The code is open-source, while video demonstrations can be found on our website: https://rpl-cs-ucl.github.io/STEPP/"}, {"paperId": "ffc47bcc994168f9d27a0097cc013bab5b7cfab9", "externalIds": {"DOI": "10.1109/ICIA64617.2025.11277800", "CorpusId": 283749470}, "title": "Robust Wheel-legged Biped Robot Control on Semi-structured Terrains", "venue": "International Conference on Informatics and Analytics", "year": 2025, "citationCount": 0, "openAccessPdf": {"url": "", "status": null, "license": null, "disclaimer": "Notice: Paper or abstract available at https://api.unpaywall.org/v2/10.1109/ICIA64617.2025.11277800?email=<INSERT_YOUR_EMAIL> or https://doi.org/10.1109/ICIA64617.2025.11277800, which is subject to the license by the author or copyright owner provided with this content. Please go to the source to verify the license and copyright information for your use."}, "publicationTypes": ["Conference"], "authors": [{"authorId": "2363788854", "name": "Bowen Lan"}, {"authorId": "2328638324", "name": "Hailong Huang"}], "abstract": "This paper presents an optimized wheel-legged biped robot for inspection tasks in semi-structured urban environments. By integrating the stability of wheeled locomotion with the terrain adaptability of legged systems, the robot achieves efficient traversal across diverse surfaces. Key innovations include a unified control framework combining balance, state estimation, and terrain adaptation via multi-sensor fusion. The mechanical design supports impact resilience from jumps and falls, while the electronic and software architecture delivers real-time and robust operation. Experimental results validate the robot\u2019s capabilities in velocity tracking, disturbance rejection, and traversability over complex terrains. The proposed approach enhances robustness and adaptability, demonstrating strong potential for practical deployment in public service scenarios. This work advances autonomous mobile robotics and lays a foundation for future research in urban inspection applications."}, {"paperId": "df6a1e68eaf2199c90274dd8d7be2226791720ea", "externalIds": {"DBLP": "conf/icpr/GarciaEEZGGI22", "DOI": "10.1109/ICPR56361.2022.9956424", "CorpusId": 254101634}, "title": "Gait-dependent Traversability Estimation on the k-rock2 Robot", "venue": "International Conference on Pattern Recognition", "year": 2022, "citationCount": 4, "openAccessPdf": {"url": "", "status": null, "license": null, "disclaimer": "Notice: Paper or abstract available at https://api.unpaywall.org/v2/10.1109/ICPR56361.2022.9956424?email=<INSERT_YOUR_EMAIL> or https://doi.org/10.1109/ICPR56361.2022.9956424, which is subject to the license by the author or copyright owner provided with this content. Please go to the source to verify the license and copyright information for your use."}, "publicationTypes": ["JournalArticle", "Conference"], "authors": [{"authorId": "1797906", "name": "R. Garc\u00eda"}, {"authorId": "2480365", "name": "M. A. Estrada"}, {"authorId": "2052522769", "name": "M. Ebrahimi"}, {"authorId": "2192875011", "name": "Francesco Zuppichini"}, {"authorId": "6803671", "name": "L. Gambardella"}, {"authorId": "33354551", "name": "A. Giusti"}, {"authorId": "8038419", "name": "A. Ijspeert"}], "abstract": "Assessing the traversability of rugged terrain is a difficult challenge for legged robots, especially when they implement multiple, distinct gaits. We tackle this problem on the k-rock2 amphibious, sprawling gait robot by training a gait-dependent traversability estimator. We verify that the estimator, trained solely on procedurally-generated simulated data, approaches the outcomes of real-world experiments conducted in an indoor motion capture arena using two distinct terrestrial gaits to cross various indoor obstacles. In simulation experiments on a large-scale outdoor heightmap representing real-world data, we quantify the performance gain using the estimator outputs for gait selection. Further, we apply the method to heightmaps of outdoor data to illustrate how the approach could readily be applied to field scenarios."}, {"paperId": "776f0c120b01aaab14bb38e17d016c48801ef586", "externalIds": {"MAG": "2770234501", "DBLP": "conf/acivs/Chavez-GarciaGG17", "DOI": "10.1007/978-3-319-70353-4_28", "CorpusId": 24540986}, "title": "Image Classification for Ground Traversability Estimation in Robotics", "venue": "Advanced Concepts for Intelligent Vision Systems Conference", "year": 2017, "citationCount": 17, "openAccessPdf": {"url": "", "status": "CLOSED", "license": null, "disclaimer": "Notice: The following paper fields have been elided by the publisher: {'abstract'}. Paper or abstract available at https://api.unpaywall.org/v2/10.1007/978-3-319-70353-4_28?email=<INSERT_YOUR_EMAIL> or https://doi.org/10.1007/978-3-319-70353-4_28, which is subject to the license by the author or copyright owner provided with this content. Please go to the source to verify the license and copyright information for your use."}, "publicationTypes": ["JournalArticle"], "authors": [{"authorId": "1403687440", "name": "R. O. Chavez-Garcia"}, {"authorId": "2144778", "name": "J\u00e9r\u00f4me Guzzi"}, {"authorId": "6803671", "name": "L. Gambardella"}, {"authorId": "33354551", "name": "A. Giusti"}], "abstract": null}, {"paperId": "8dce587303ed0b4c4f0449a8b5b3dc32a2eceec8", "externalIds": {"DBLP": "journals/ijrr/StelzerHG12", "MAG": "2167896722", "DOI": "10.1177/0278364911435161", "CorpusId": 16354305}, "title": "Stereo-vision-based navigation of a six-legged walking robot in unknown rough terrain", "venue": "Int. J. Robotics Res.", "year": 2012, "citationCount": 128, "openAccessPdf": {"url": "https://elib.dlr.de/79891/1/IJRRPrePrint.pdf", "status": "GREEN", "license": null, "disclaimer": "Notice: The following paper fields have been elided by the publisher: {'abstract'}. Paper or abstract available at https://api.unpaywall.org/v2/10.1177/0278364911435161?email=<INSERT_YOUR_EMAIL> or https://doi.org/10.1177/0278364911435161, which is subject to the license by the author or copyright owner provided with this content. Please go to the source to verify the license and copyright information for your use."}, "publicationTypes": ["JournalArticle"], "authors": [{"authorId": "40303902", "name": "A. Stelzer"}, {"authorId": "3335378", "name": "H. Hirschm\u00fcller"}, {"authorId": "152272525", "name": "M. G\u00f6rner"}], "abstract": null}, {"paperId": "ae6ac70f3282e37f5c6ffcbf9405d50af1e1448b", "externalIds": {"DBLP": "journals/ral/Chavez-GarciaGG18", "MAG": "2755158994", "ArXiv": "1709.05368", "DOI": "10.1109/LRA.2018.2801794", "CorpusId": 3666270}, "title": "Learning Ground Traversability From Simulations", "venue": "IEEE Robotics and Automation Letters", "year": 2017, "citationCount": 111, "openAccessPdf": {"url": "https://arxiv.org/pdf/1709.05368", "status": "GREEN", "license": null, "disclaimer": "Notice: Paper or abstract available at https://arxiv.org/abs/1709.05368, which is subject to the license by the author or copyright owner provided with this content. Please go to the source to verify the license and copyright information for your use."}, "publicationTypes": ["JournalArticle"], "authors": [{"authorId": "1403687440", "name": "R. O. Chavez-Garcia"}, {"authorId": "2144778", "name": "J\u00e9r\u00f4me Guzzi"}, {"authorId": "6803671", "name": "L. Gambardella"}, {"authorId": "33354551", "name": "A. Giusti"}], "abstract": "Mobile ground robots operating on unstructured terrain must predict which areas of the environment they are able to pass in order to plan feasible paths. We address traversability estimation as a heightmap classification problem: we build a convolutional neural network that, given an image representing the heightmap of a terrain patch, predicts whether the robot will be able to traverse such patch from left to right. The classifier is trained for a specific robot model (wheeled, tracked, legged, snake-like) using simulation data on procedurally generated training terrains; the trained classifier can be applied to unseen large heightmaps to yield oriented traversability maps, and then plan traversable paths. We extensively evaluate the approach in simulation on six real-world elevation dataset, and run a real-robot validation in one indoor and one outdoor environment."}]}
